<svg width="122" height="135" viewBox="0 0 122 135" fill="none" xmlns="http://www.w3.org/2000/svg">
<path d="M6.96521 127.387V133.21C6.96521 133.645 6.63872 133.971 6.20339 133.971C5.76806 133.971 5.44157 133.645 5.44157 133.21V129.564L4.08118 131.686C3.75468 132.121 3.15611 132.121 2.82962 131.686L1.46922 129.618V133.264C1.46922 133.699 1.14273 134.026 0.707404 134.026C0.272078 134.026 0 133.699 0 133.264V127.387C0 127.006 0.326494 126.625 0.76182 126.625H0.870651C1.14273 126.625 1.36039 126.734 1.52364 127.006L3.53702 130.054L5.5504 127.006C5.71365 126.789 5.93131 126.625 6.20339 126.625H6.31222C6.63872 126.625 6.96521 127.006 6.96521 127.387ZM14.9643 126.571C12.8965 126.571 11.2641 128.203 11.2641 130.326C11.2641 132.448 12.8421 134.026 14.9643 134.026C17.0321 134.026 18.6646 132.393 18.6646 130.271C18.6102 128.149 17.0321 126.571 14.9643 126.571ZM17.1409 130.326C17.1409 131.632 16.2159 132.611 14.9643 132.611C13.7128 132.611 12.7877 131.632 12.7877 130.271C12.7877 128.965 13.7128 127.986 14.9643 127.986C16.1615 127.986 17.1409 129.02 17.1409 130.326ZM27.9697 130.108C28.3506 129.727 28.5682 129.237 28.5682 128.639C28.5682 128.149 28.405 127.714 28.0241 127.333C27.5888 126.897 26.8814 126.625 26.0651 126.625H23.6708C23.2899 126.625 22.909 126.952 22.909 127.387V133.155C22.909 133.591 23.2355 133.917 23.6708 133.917H26.174C27.8064 133.917 28.8947 133.046 28.8947 131.74C28.8947 131.033 28.5682 130.489 27.9697 130.108ZM26.174 132.557H24.3782V131.033H26.0651C26.9358 131.033 27.4255 131.305 27.4255 131.795C27.4255 132.448 26.6637 132.557 26.174 132.557ZM24.3782 129.564V128.095H25.9563C26.446 128.095 27.0446 128.203 27.0446 128.802C27.0446 129.455 26.446 129.564 25.9019 129.564H24.3782ZM34.6628 127.387V133.264C34.6628 133.699 34.3363 134.026 33.901 134.026C33.5201 134.026 33.1392 133.699 33.1392 133.264V127.387C33.1392 126.952 33.4657 126.625 33.901 126.625C34.3363 126.625 34.6628 126.952 34.6628 127.387ZM44.1311 133.21C44.1311 133.591 43.8046 133.917 43.4237 133.917H39.7235C39.3426 133.917 38.9616 133.591 38.9616 133.155V127.333C38.9616 126.897 39.2881 126.571 39.7235 126.571C40.1588 126.571 40.4853 126.897 40.4853 127.333V132.448H43.4781C43.8046 132.502 44.1311 132.829 44.1311 133.21ZM53.9804 133.21C53.9804 133.591 53.6539 133.917 53.273 133.917H49.1918C48.8109 133.917 48.43 133.591 48.43 133.155V127.387C48.43 126.952 48.7565 126.625 49.1918 126.625H53.2186C53.5995 126.625 53.926 126.952 53.926 127.333C53.926 127.714 53.5995 128.04 53.2186 128.04H49.9536V129.509H52.7832C53.1641 129.509 53.4906 129.836 53.4906 130.217C53.4906 130.598 53.1641 130.924 52.7832 130.924H49.8992V132.448H53.2186C53.6539 132.502 53.9804 132.829 53.9804 133.21ZM79.2293 127.387V133.21C79.2293 133.645 78.9028 133.971 78.4674 133.971C78.0321 133.971 77.7056 133.645 77.7056 133.21V129.564L76.2908 131.632C76.0732 131.958 75.8011 131.958 75.6922 131.958C75.4746 131.958 75.2025 131.849 75.0937 131.632L73.7333 129.564V133.21C73.7333 133.645 73.4068 133.971 72.9715 133.971C72.5361 133.971 72.2641 133.645 72.2641 133.21V127.333C72.2641 126.952 72.5905 126.571 73.0259 126.571H73.1347C73.4068 126.571 73.6245 126.68 73.7877 126.952L75.8011 129.999L77.8145 126.952C77.9777 126.734 78.1954 126.571 78.4674 126.571H78.5763C78.9028 126.625 79.2293 127.006 79.2293 127.387ZM87.174 126.571C85.1062 126.571 83.4737 128.203 83.4737 130.326C83.4737 132.448 85.0517 134.026 87.174 134.026C89.2418 134.026 90.8742 132.393 90.8742 130.271C90.8742 128.149 89.2962 126.571 87.174 126.571ZM89.3506 130.326C89.3506 131.632 88.4255 132.611 87.174 132.611C85.9224 132.611 84.9973 131.632 84.9973 130.271C84.9973 128.965 85.9224 127.986 87.174 127.986C88.4255 127.986 89.3506 129.02 89.3506 130.326ZM101.431 127.387V133.264C101.431 133.645 101.104 133.971 100.723 133.971C100.343 133.971 100.125 133.754 100.016 133.591L96.6423 129.292V133.264C96.6423 133.699 96.3158 134.026 95.8805 134.026C95.4996 134.026 95.1731 133.699 95.1731 133.264V127.387C95.1731 127.006 95.4996 126.625 95.9349 126.625H96.0437C96.3702 126.625 96.5879 126.789 96.6967 127.006L99.9616 131.196V127.387C99.9616 126.952 100.288 126.625 100.723 126.625C101.104 126.625 101.431 126.952 101.431 127.387ZM111.226 133.21C111.226 133.591 110.899 133.917 110.518 133.917H106.437C106.002 133.917 105.675 133.591 105.675 133.155V127.387C105.675 126.952 106.002 126.625 106.437 126.625H110.464C110.845 126.625 111.171 126.952 111.171 127.333C111.171 127.714 110.845 128.04 110.464 128.04H107.199V129.509H110.083C110.464 129.509 110.79 129.836 110.79 130.217C110.79 130.598 110.464 130.924 110.083 130.924H107.199V132.448H110.518C110.899 132.502 111.226 132.829 111.226 133.21ZM122 127.387C122 127.605 121.891 127.768 121.837 127.877L119.497 131.142V133.264C119.497 133.699 119.17 134.026 118.735 134.026C118.3 134.026 117.973 133.699 117.973 133.264V131.142L115.633 127.877C115.525 127.714 115.47 127.55 115.47 127.387C115.47 127.006 115.797 126.625 116.232 126.625C116.613 126.625 116.776 126.897 116.885 127.006L118.735 129.673L120.585 127.006C120.64 126.897 120.857 126.625 121.238 126.625C121.674 126.625 122 126.952 122 127.387Z" fill="#fff"/>
<path d="M95.9893 0C81.6236 0 69.9786 11.645 69.9786 26.0107C69.9786 40.3764 81.6236 52.0214 95.9893 52.0214C110.355 52.0214 122 40.3764 122 26.0107C122 11.645 110.355 0 95.9893 0ZM95.9893 37.1115C89.8947 37.1115 84.9429 32.1597 84.9429 26.0651C84.9429 19.9706 89.8947 15.0187 95.9893 15.0187C102.084 15.0187 107.036 19.9706 107.036 26.0651C107.036 32.1597 102.084 37.1115 95.9893 37.1115ZM62.4692 19.5352V52.0758H47.5049V19.372C47.5049 16.9233 45.5459 14.9643 43.0972 14.9643C40.6485 14.9643 38.6896 16.9233 38.6896 19.372V52.0758H23.7252V19.372C23.7252 16.9233 21.7663 14.9643 19.3176 14.9643C16.8689 14.9643 14.9099 16.9233 14.9099 19.372V52.0758H0V19.5352C0 8.76093 8.76093 0 19.5352 0C23.9429 0 27.9697 1.46922 31.2346 3.91793C34.4996 1.46922 38.5807 0 42.934 0C53.7083 0 62.4692 8.76093 62.4692 19.5352ZM95.9893 63.2855C81.6236 63.2855 69.9786 74.9304 69.9786 89.2962C69.9786 103.662 81.6236 115.307 95.9893 115.307C110.355 115.307 122 103.662 122 89.2962C122 74.9304 110.355 63.2855 95.9893 63.2855ZM95.9893 100.397C89.8947 100.397 84.9429 95.4451 84.9429 89.3506C84.9429 83.256 89.8947 78.3042 95.9893 78.3042C102.084 78.3042 107.036 83.256 107.036 89.3506C107.036 95.4451 102.084 100.397 95.9893 100.397ZM62.4692 82.8207V115.361H47.5049V82.6574C47.5049 80.2087 45.5459 78.2498 43.0972 78.2498C40.6485 78.2498 38.6896 80.2087 38.6896 82.6574V115.361H23.7252V82.6574C23.7252 80.2087 21.7663 78.2498 19.3176 78.2498C16.8689 78.2498 14.9099 80.2087 14.9099 82.6574V115.361H0V82.8207C0 72.0464 8.76093 63.2855 19.5352 63.2855C23.9429 63.2855 27.9697 64.7547 31.2346 67.2034C34.4996 64.7547 38.5263 63.2855 42.934 63.2855C53.7083 63.2855 62.4692 72.0464 62.4692 82.8207Z" fill="#fff"/>
</svg>
