<svg width="19" height="16" viewBox="0 0 19 16" fill="none" xmlns="http://www.w3.org/2000/svg">
<path d="M6.65 10H7.6V3H6.65C6.12542 3 5.7 3.44781 5.7 4V9C5.7 9.55219 6.12542 10 6.65 10ZM17.1 9V4C17.1 3.44781 16.6746 3 16.15 3H15.2V10H16.15C16.6746 10 17.1 9.55219 17.1 9ZM18.525 12H3.8V0.5C3.8 0.22375 3.58744 0 3.325 0H0.475C0.212562 0 0 0.22375 0 0.5V1.5C0 1.77625 0.212562 2 0.475 2H1.9V13.5C1.9 13.7762 2.11256 14 2.375 14H4.83728C4.78414 14.1572 4.75 14.3237 4.75 14.5C4.75 15.3284 5.38798 16 6.175 16C6.96202 16 7.6 15.3284 7.6 14.5C7.6 14.3237 7.56586 14.1572 7.51272 14H13.3873C13.3341 14.1572 13.3 14.3237 13.3 14.5C13.3 15.3284 13.938 16 14.725 16C15.512 16 16.15 15.3284 16.15 14.5C16.15 14.3237 16.1159 14.1572 16.0627 14H18.525C18.7874 14 19 13.7762 19 13.5V12.5C19 12.2238 18.7874 12 18.525 12ZM14.25 3V1.5C14.25 0.671562 13.612 0 12.825 0H9.975C9.18798 0 8.55 0.671562 8.55 1.5V10H14.25V3ZM12.825 3H9.975V1.5H12.825V3Z" fill="#2F80ED"/>
</svg>
