<svg xmlns="http://www.w3.org/2000/svg" xmlns:xlink="http://www.w3.org/1999/xlink" width="60" height="60" viewBox="0 0 60 60">
    <defs>
        <circle id="mh1nz67c1a" cx="25" cy="25" r="24.238"/>
    </defs>
    <g fill="none" fill-rule="evenodd">
        <g>
            <g>
                <g>
                    <g transform="translate(-18 -330) translate(1 318) translate(17 12) translate(5 5)">
                        <mask id="mcvmiu6q1b" fill="#fff">
                            <use xlink:href="#mh1nz67c1a"/>
                        </mask>
                        <use fill="#FFE7BA" xlink:href="#mh1nz67c1a"/>
                        <path fill="#FFA940" d="M-2.628 39.021H52.629V53.75H-2.628z" mask="url(#mcvmiu6q1b)"/>
                        <g mask="url(#mcvmiu6q1b)">
                            <g transform="translate(6.25 10.296)">
                                <rect width="36.25" height="3.75" x=".625" y="17.5" fill="#E75C00" rx="1.875"/>
                                <path fill="#E75C00" d="M5.251 25.313h28.75c1.036 0 1.875.839 1.875 1.875 0 1.035-.84 1.875-1.875 1.875H5.251c-1.035 0-1.875-.84-1.875-1.875 0-1.036.84-1.875 1.875-1.875z" transform="rotate(30 19.626 27.187)"/>
                                <path fill="#E75C00" d="M4.001 25.313h28.75c1.036 0 1.875.839 1.875 1.875 0 1.035-.84 1.875-1.875 1.875H4.001c-1.035 0-1.875-.84-1.875-1.875 0-1.036.84-1.875 1.875-1.875z" transform="scale(1 -1) rotate(30 119.841 0)"/>
                                <path fill="#FF9000" d="M5.625 2.5H31.875V12.5H5.625z"/>
                                <path fill="#E75C00" d="M-1.875 8.125h16.25c1.036 0 1.875.84 1.875 1.875 0 1.036-.84 1.875-1.875 1.875h-16.25c-1.036 0-1.875-.84-1.875-1.875 0-1.036.84-1.875 1.875-1.875z" transform="rotate(90 6.25 10)"/>
                                <path fill="#E75C00" d="M23.75 8.75H40c1.036 0 1.875.84 1.875 1.875 0 1.036-.84 1.875-1.875 1.875H23.75c-1.036 0-1.875-.84-1.875-1.875 0-1.036.84-1.875 1.875-1.875z" transform="rotate(90 31.875 10.625)"/>
                                <path fill="#FFD529" d="M18.75 9.862l-1.259.689c-.303.166-.679.044-.838-.272-.064-.125-.086-.27-.063-.41l.24-1.458-1.017-1.033c-.246-.25-.251-.659-.012-.914.096-.102.22-.168.356-.189l1.407-.212.63-1.328c.15-.32.523-.451.83-.293.123.063.222.166.283.293l.63 1.328 1.406.212c.34.052.575.38.525.733-.02.14-.083.27-.18.37L20.668 8.41l.24 1.458c.058.352-.169.686-.506.747-.135.024-.274 0-.394-.065l-1.259-.69z"/>
                            </g>
                        </g>
                    </g>
                </g>
            </g>
        </g>
    </g>
</svg>
