<svg width="74" height="37" viewBox="0 0 74 37" fill="none" xmlns="http://www.w3.org/2000/svg">
<rect x="12" y="10" width="62" height="19" rx="9.5" fill="#11A1E2"/>
<circle cx="18.2955" cy="18.2955" r="18.2955" fill="#11A1E2"/>
<circle cx="18.2955" cy="18.2954" r="13.9394" fill="#F6F6F6"/>
<path d="M22.6261 16.7704L21.7826 19.8202H23.6485C24.5345 19.8202 24.9776 20.3022 24.9776 21.2662C24.9776 21.757 24.8583 22.1426 24.6197 22.423C24.3982 22.6859 24.0745 22.8174 23.6485 22.8174H20.9391L20.4535 24.5C20.3002 25.0083 20.0446 25.4027 19.6867 25.6831C19.3459 25.946 18.9796 26.0775 18.5877 26.0775C18.2298 26.0775 17.9231 25.9635 17.6675 25.7357C17.4119 25.4903 17.2841 25.1573 17.2841 24.7366C17.2841 24.5614 17.3097 24.3685 17.3608 24.1582L17.7442 22.8174H14.7537L14.2681 24.5C14.1147 25.0083 13.8591 25.4027 13.5013 25.6831C13.1605 25.946 12.7942 26.0775 12.4022 26.0775C12.0444 26.0775 11.7377 25.9635 11.4821 25.7357C11.2265 25.4903 11.0987 25.1573 11.0987 24.7366C11.0987 24.5614 11.1243 24.3685 11.1754 24.1582L11.5588 22.8174H10.8175C10.3916 22.8174 10.0593 22.6859 9.82072 22.423C9.58217 22.1426 9.46289 21.757 9.46289 21.2662C9.46289 20.793 9.58217 20.4337 9.82072 20.1883C10.0593 19.9429 10.3916 19.8202 10.8175 19.8202H12.4022L13.2713 16.7704H11.8399C11.4139 16.7704 11.0817 16.639 10.8431 16.3761C10.6046 16.0956 10.4853 15.71 10.4853 15.2193C10.4853 14.746 10.6046 14.3867 10.8431 14.1413C11.0817 13.896 11.4139 13.7733 11.8399 13.7733H14.1147L14.6004 12.0381C14.7367 11.5298 14.9752 11.1529 15.316 10.9076C15.6739 10.6446 16.0487 10.5132 16.4407 10.5132C16.8326 10.5132 17.1563 10.6271 17.4119 10.855C17.6846 11.0653 17.8209 11.3545 17.8209 11.7226C17.8209 11.8803 17.7953 12.0381 17.7442 12.1958L17.3097 13.7733H20.3002L20.7858 12.0381C20.9221 11.5298 21.1607 11.1529 21.5015 10.9076C21.8593 10.6446 22.2342 10.5132 22.6261 10.5132C23.018 10.5132 23.3417 10.6271 23.5973 10.855C23.87 11.0653 24.0063 11.3545 24.0063 11.7226C24.0063 11.8803 23.9807 12.0381 23.9296 12.1958L23.4951 13.7733H24.6708C25.5569 13.7733 25.9999 14.2553 25.9999 15.2193C25.9999 15.71 25.8807 16.0956 25.6421 16.3761C25.4206 16.639 25.0968 16.7704 24.6708 16.7704H22.6261ZM19.4567 16.7704H16.4407L15.5972 19.8202H18.5877L19.4567 16.7704Z" fill="#11A1E2"/>
</svg>
