<svg width="45" height="45" viewBox="0 0 45 45" fill="none" xmlns="http://www.w3.org/2000/svg">
<path fill-rule="evenodd" clip-rule="evenodd" d="M14.2725 8H31.4102C33.2089 8 34.6823 9.47299 34.6823 11.2721V33.9026C34.6823 35.6988 33.2065 37.175 31.4102 37.175H14.2725C12.473 37.175 11 35.702 11 33.9026V11.2721C11 9.47259 12.4734 8 14.2725 8ZM31.4102 9.78943H14.2725C13.4561 9.78943 12.7894 10.4561 12.7894 11.2721V33.9026C12.7894 34.7186 13.4561 35.3856 14.2725 35.3856H31.4102C32.2286 35.3856 32.8928 34.721 32.8928 33.9026V11.2721C32.8928 10.4561 32.2262 9.78943 31.4102 9.78943Z" fill="#700044"/>
<path d="M29.0893 28.6457H25.8574V30.5692H29.0893V28.6457Z" fill="#EE4FAF"/>
<path d="M24.4571 28.6457H21.2252V30.5692H24.4571V28.6457Z" fill="#EE4FAF"/>
<path d="M19.8249 28.6457H16.593V30.5692H19.8249V28.6457Z" fill="#EE4FAF"/>
<path d="M27.4352 13H18.2471C17.5981 13 17.0673 13.5305 17.0673 14.179V23.08C17.0673 23.7286 17.5981 24.259 18.2471 24.259H18.3495V25.1851C18.3495 25.524 18.627 25.8023 18.9667 25.8023H19.7474C20.0871 25.8023 20.3646 25.524 20.3646 25.1851V24.259H25.3177V25.1851C25.3177 25.524 25.5952 25.8023 25.9349 25.8023H26.716C27.0549 25.8023 27.3332 25.524 27.3332 25.1851V24.259H27.4352C28.0841 24.259 28.615 23.7286 28.615 23.08V14.179C28.615 13.5305 28.0841 13 27.4352 13Z" fill="#EE4FAF"/>
<path d="M20.5445 21.9977H18.4282V23.3081H20.5445V21.9977Z" fill="white"/>
<path d="M27.2545 21.9977H25.1374V23.3081H27.2545V21.9977Z" fill="white"/>
<path d="M27.3039 21.1488V14.9292H18.3784V21.1488H27.3039Z" fill="white"/>
</svg>
