<svg width="30" height="34" viewBox="0 0 30 34" fill="none" xmlns="http://www.w3.org/2000/svg">
<path d="M26.6667 3.66666H23.3333V0.333328H20V3.66666H10V0.333328H6.66667V3.66666H3.33333C1.495 3.66666 0 5.16166 0 7V30.3333C0 32.1717 1.495 33.6667 3.33333 33.6667H26.6667C28.505 33.6667 30 32.1717 30 30.3333V7C30 5.16166 28.505 3.66666 26.6667 3.66666ZM19.02 28.6667L14.9383 26.52L10.8567 28.6667L11.6367 24.12L8.33333 20.9033L12.8967 20.24L14.9383 16.1067L16.98 20.24L21.5433 20.9033L18.2417 24.1217L19.02 28.6667ZM26.6667 12H3.33333V8.66666H26.6667V12Z" fill="#FFA940"/>
</svg>
