<svg width="48" height="48" viewBox="0 0 48 48" fill="none" xmlns="http://www.w3.org/2000/svg">
<path d="M24 44C12.9543 44 4 35.0457 4 24C4 12.9543 12.9543 4 24 4C35.0457 4 44 12.9543 44 24C44 35.0457 35.0457 44 24 44Z" stroke="#E81F76" stroke-width="2" stroke-linecap="round" stroke-linejoin="round"/>
<path d="M24 16L32 24L24 32" stroke="#E81F76" stroke-width="2" stroke-linecap="round" stroke-linejoin="round"/>
<path d="M16 24H32" stroke="#E81F76" stroke-width="2" stroke-linecap="round" stroke-linejoin="round"/>
</svg>
