<svg width="527" height="382" viewBox="0 0 527 382" fill="none" xmlns="http://www.w3.org/2000/svg">
<path d="M32.3084 309.558C32.3084 309.558 -32.4171 234.992 21.3572 154.266C69.0706 82.6348 124.695 87.5254 165.517 116.598C182.907 128.981 247.84 118.825 304.617 58.057C365.075 -6.64445 526.776 25.134 498.718 159.053C483.103 233.619 552.87 235.742 516.202 309.725L32.3084 309.558Z" fill="#EDF7FB"/>
<path d="M224.932 177.994L205.323 184.407C205.323 184.407 202.51 173.153 193.932 160.139C187.6 150.531 178.116 139.969 164.3 132.262C140.749 119.139 88.2076 128.115 88.2076 128.115L87.2719 125.537L88.9439 124.639C88.9439 124.639 88.0143 124.469 86.9328 124.602L84.7223 118.512C86.1546 117.899 88.2359 117.128 90.4107 116.726C89.1772 116.941 86.5697 117.43 84.5761 118.109L83.4124 114.903C154.281 87.4754 191.35 116.938 209.477 144.14C221.072 161.52 224.932 177.994 224.932 177.994Z" fill="#4541B9"/>
<path d="M302.738 138.663L222.211 178.491C217.536 166.997 209.84 156.314 203.302 148.487C196.77 140.676 191.395 135.721 191.395 135.721C148.654 96.2989 82.1625 116.108 82.1625 116.108L143.549 59.9322C178.76 48.0682 208.347 53.2131 232.086 65.2353C278.62 88.7727 302.738 138.663 302.738 138.663Z" fill="#7875D0"/>
<path opacity="0.5" d="M302.665 142.388L222.402 181.756L203.022 187.936C203.022 187.936 200.099 176.61 191.435 163.444C194.55 159.63 198.388 155.502 203.108 151.07C204.353 149.907 205.54 148.749 206.686 147.59C250.76 103.461 232.827 70.0879 230.974 66.9579C277.889 91.4431 302.665 142.388 302.665 142.388Z" fill="#A8A5EF"/>
<path d="M298.559 147.528L224.335 176.809L224.121 175.391C224.086 175.185 220.671 153.761 203.635 134.844C193.649 123.771 181.013 115.709 166.046 110.873C147.315 104.824 124.844 103.855 99.2991 107.983L95.3674 108.622L145.299 63.709L145.525 63.6152C146.146 63.3394 160.893 56.9832 182.947 57.3538C195.879 57.5758 208.619 60.0823 220.826 64.8131C236.042 70.7211 250.47 80.1353 263.686 92.7719C264.718 93.7403 289.206 116.806 294.767 134.437L294.773 134.453L298.559 147.528ZM226.423 173.407L295.41 146.188L292.244 135.373C290.023 128.319 284.057 119.052 274.982 108.557C268.087 100.594 261.795 94.677 261.737 94.6276C248.759 82.2047 234.616 72.9667 219.701 67.1725C207.79 62.5395 195.345 60.0757 182.75 59.8428C169.07 59.6004 158.115 62.068 151.922 63.9204C148.674 64.9 145.647 66.5967 143.113 68.8791L108.514 100.008C106.705 101.64 107.801 104.328 110.167 104.063C131.647 101.75 150.789 103.255 167.165 108.553C182.521 113.521 195.505 121.826 205.746 133.215C214.85 143.349 220.051 154.092 222.817 161.324C224.956 166.941 226 171.304 226.423 173.407Z" fill="#4541B9"/>
<path d="M229.132 86.4959C233.303 97.7974 228.762 107.515 216.69 112.445C204.636 117.369 189.612 115.643 185.441 104.341C181.27 93.0396 185.455 83.542 197.509 78.6187C209.563 73.6954 224.961 75.1944 229.132 86.4959Z" fill="#4541B9"/>
<path d="M509.74 324.97V331.15C509.74 331.639 509.592 332.098 509.325 332.484C509.059 332.884 508.659 333.195 508.214 333.373C508.081 333.432 507.933 333.462 507.785 333.491C507.652 333.521 507.503 333.536 507.37 333.536H408.916C407.642 333.536 406.605 332.528 406.531 331.269C406.531 331.224 406.531 331.194 406.531 331.15V324.97C406.531 324.926 406.531 324.896 406.531 324.852C406.59 323.592 407.642 322.585 408.916 322.585H507.37C507.518 322.585 507.652 322.599 507.785 322.629C507.933 322.659 508.081 322.703 508.214 322.748C508.674 322.925 509.059 323.237 509.325 323.637C509.592 324.007 509.74 324.467 509.74 324.97Z" fill="#FFB93E"/>
<path d="M461.394 333.536H408.649C407.524 333.536 406.59 332.528 406.531 331.269C406.531 331.224 406.531 331.194 406.531 331.15V324.97C406.531 324.926 406.531 324.896 406.531 324.852C406.59 323.592 407.524 322.585 408.649 322.585H454.907C455.647 325.8 457.38 330.261 461.394 333.536Z" fill="#FFA412"/>
<path d="M497.757 322.585H496.631V333.536H497.757V322.585Z" fill="#FFA412"/>
<path d="M493.98 322.585H492.854V333.536H493.98V322.585Z" fill="#FFA412"/>
<path d="M489.433 322.585H488.307V333.536H489.433V322.585Z" fill="#FFA412"/>
<path d="M482.472 322.585H481.346V333.536H482.472V322.585Z" fill="#FFA412"/>
<path d="M475.11 322.585H473.984V333.536H475.11V322.585Z" fill="#FFA412"/>
<path d="M463.824 322.585H462.698V333.536H463.824V322.585Z" fill="#FFA412"/>
<path d="M453.248 322.585H452.122V333.536H453.248V322.585Z" fill="#FFA412"/>
<path d="M443.813 322.585H442.687V333.536H443.813V322.585Z" fill="#FFA412"/>
<path d="M501.372 322.585H500.246V333.536H501.372V322.585Z" fill="#FFA412"/>
<path d="M503.756 322.585H502.63V333.536H503.756V322.585Z" fill="#FFA412"/>
<path d="M506.052 322.585H504.926V333.536H506.052V322.585Z" fill="#FFA412"/>
<path d="M507.77 322.614V333.492C507.637 333.521 507.489 333.536 507.356 333.536H506.659V322.585H507.356C507.504 322.585 507.637 322.599 507.77 322.614Z" fill="#FFA412"/>
<path d="M509.325 323.637V332.484C509.059 332.884 508.659 333.195 508.214 333.373V322.748C508.674 322.911 509.059 323.237 509.325 323.637Z" fill="#FFA412"/>
<path d="M499.209 314.019V320.199C499.209 320.688 499.061 321.147 498.794 321.533C498.527 321.933 498.127 322.244 497.683 322.422C497.55 322.481 497.402 322.511 497.253 322.54C497.12 322.57 496.972 322.585 496.839 322.585H398.385C397.111 322.585 396.074 321.577 396 320.317C396 320.273 396 320.228 396 320.199V314.019C396 313.975 396 313.93 396 313.901C396.059 312.641 397.111 311.633 398.385 311.633H496.824C496.883 311.633 496.957 311.633 497.016 311.648C497.046 311.648 497.076 311.648 497.091 311.663C497.12 311.663 497.15 311.663 497.179 311.678C497.194 311.678 497.224 311.678 497.239 311.693C497.387 311.722 497.535 311.767 497.668 311.811C497.683 311.826 497.713 311.826 497.727 311.841C497.742 311.856 497.772 311.856 497.787 311.87C497.831 311.885 497.861 311.915 497.905 311.93C497.92 311.945 497.95 311.959 497.979 311.974C497.994 311.989 498.024 312.004 498.038 312.004C498.083 312.034 498.113 312.048 498.157 312.078C498.201 312.108 498.246 312.137 498.276 312.167C498.305 312.197 498.335 312.211 498.364 312.241C498.379 312.256 498.409 312.271 498.424 312.3C498.483 312.36 498.542 312.419 498.601 312.478C498.616 312.493 498.631 312.508 498.646 312.537C498.661 312.552 498.675 312.582 498.69 312.597C498.72 312.641 498.749 312.671 498.779 312.715C499.061 313.056 499.209 313.515 499.209 314.019Z" fill="#FFB93E"/>
<path d="M450.863 322.585H398.118C396.978 322.585 396.059 321.577 396 320.317C396 320.273 396 320.228 396 320.199V314.019C396 313.975 396 313.93 396 313.901C396.059 312.641 396.992 311.633 398.118 311.633H444.39C444.405 311.722 444.435 311.811 444.449 311.9C445.22 315.101 446.953 319.399 450.863 322.585Z" fill="#FFA412"/>
<path d="M487.241 311.633H486.115V322.585H487.241V311.633Z" fill="#FFA412"/>
<path d="M483.449 311.633H482.323V322.585H483.449V311.633Z" fill="#FFA412"/>
<path d="M478.902 311.633H477.776V322.585H478.902V311.633Z" fill="#FFA412"/>
<path d="M471.94 311.633H470.815V322.585H471.94V311.633Z" fill="#FFA412"/>
<path d="M464.579 311.633H463.453V322.585H464.579V311.633Z" fill="#FFA412"/>
<path d="M453.293 311.633H452.167V322.585H453.293V311.633Z" fill="#FFA412"/>
<path d="M442.732 311.633H441.606V322.585H442.732V311.633Z" fill="#FFA412"/>
<path d="M433.296 311.633H432.17V322.585H433.296V311.633Z" fill="#FFA412"/>
<path d="M490.84 311.633H489.715V322.585H490.84V311.633Z" fill="#FFA412"/>
<path d="M493.225 311.633H492.099V322.585H493.225V311.633Z" fill="#FFA412"/>
<path d="M495.521 311.633H494.396V322.585H495.521V311.633Z" fill="#FFA412"/>
<path d="M497.254 311.663V322.54C497.121 322.57 496.973 322.585 496.839 322.585H496.143V311.633H496.839C496.973 311.633 497.106 311.648 497.254 311.663Z" fill="#FFA412"/>
<path d="M498.794 312.686V321.533C498.528 321.933 498.128 322.244 497.684 322.422V311.796C498.143 311.959 498.528 312.285 498.794 312.686Z" fill="#FFA412"/>
<path d="M504.289 303.335V309.514C504.289 310.003 504.14 310.463 503.874 310.848C503.607 311.248 503.207 311.559 502.763 311.737C502.63 311.796 502.482 311.841 502.333 311.856C502.2 311.885 502.052 311.9 501.919 311.9H403.465C403.065 311.9 402.694 311.796 402.368 311.633C401.672 311.263 401.169 310.566 401.095 309.751C401.095 309.722 401.095 309.677 401.08 309.648C401.08 309.603 401.08 309.559 401.08 309.529V303.335C401.08 303.29 401.08 303.246 401.08 303.216C401.139 301.957 402.191 300.949 403.465 300.949H501.919C502.067 300.949 502.2 300.964 502.333 300.993C502.482 301.023 502.63 301.067 502.763 301.112C503.222 301.29 503.607 301.601 503.874 302.001C504.14 302.386 504.289 302.846 504.289 303.335Z" fill="#FFB93E"/>
<path d="M455.944 311.9H403.199C402.843 311.9 402.517 311.796 402.221 311.633C401.599 311.263 401.155 310.566 401.081 309.751C401.081 309.722 401.081 309.677 401.066 309.648C401.066 309.603 401.066 309.559 401.066 309.529V303.335C401.066 303.29 401.066 303.246 401.066 303.216C401.125 301.957 402.058 300.949 403.184 300.949H449.456C450.182 304.09 451.826 308.388 455.603 311.633C455.736 311.722 455.84 311.811 455.944 311.9Z" fill="#FFA412"/>
<path d="M492.322 300.949H491.196V311.9H492.322V300.949Z" fill="#FFA412"/>
<path d="M488.53 300.949H487.404V311.9H488.53V300.949Z" fill="#FFA412"/>
<path d="M483.997 300.949H482.872V311.9H483.997V300.949Z" fill="#FFA412"/>
<path d="M477.036 300.949H475.91V311.9H477.036V300.949Z" fill="#FFA412"/>
<path d="M469.674 300.949H468.548V311.9H469.674V300.949Z" fill="#FFA412"/>
<path d="M458.388 300.949H457.262V311.9H458.388V300.949Z" fill="#FFA412"/>
<path d="M447.812 300.949H446.687V311.9H447.812V300.949Z" fill="#FFA412"/>
<path d="M438.377 300.949H437.251V311.9H438.377V300.949Z" fill="#FFA412"/>
<path d="M495.936 300.949H494.81V311.9H495.936V300.949Z" fill="#FFA412"/>
<path d="M498.305 300.949H497.179V311.9H498.305V300.949Z" fill="#FFA412"/>
<path d="M500.616 300.949H499.49V311.9H500.616V300.949Z" fill="#FFA412"/>
<path d="M502.334 300.993V311.87C502.2 311.9 502.052 311.915 501.919 311.915H501.223V300.964H501.919C502.052 300.949 502.2 300.964 502.334 300.993Z" fill="#FFA412"/>
<path d="M503.889 302.001V310.848C503.623 311.248 503.223 311.559 502.779 311.737V301.112C503.223 301.289 503.623 301.601 503.889 302.001Z" fill="#FFA412"/>
<path d="M506.659 292.383V298.563C506.659 299.052 506.511 299.511 506.244 299.896C505.978 300.297 505.578 300.608 505.133 300.786C505 300.845 504.852 300.889 504.704 300.904C504.57 300.934 504.422 300.949 504.289 300.949H405.835C404.561 300.949 403.524 299.941 403.45 298.681C403.45 298.637 403.45 298.592 403.45 298.563V292.383C403.45 292.339 403.45 292.294 403.45 292.265C403.509 291.109 404.413 290.16 405.553 290.027C405.642 290.012 405.746 290.012 405.835 290.012H504.289C504.437 290.012 504.57 290.027 504.704 290.057C504.852 290.086 505 290.131 505.133 290.175C505.593 290.353 505.978 290.664 506.244 291.064C506.511 291.435 506.659 291.894 506.659 292.383Z" fill="#FFB93E"/>
<path d="M458.313 300.949H405.568C404.443 300.949 403.495 299.941 403.45 298.681C403.45 298.637 403.45 298.592 403.45 298.563V292.383C403.45 292.339 403.45 292.294 403.45 292.265C403.509 291.109 404.309 290.16 405.316 290.027C405.405 290.012 405.479 290.012 405.568 290.012H451.84V290.027C452.581 293.243 454.299 297.688 458.313 300.949Z" fill="#FFA412"/>
<path d="M494.676 289.998H493.55V300.949H494.676V289.998Z" fill="#FFA412"/>
<path d="M490.899 289.998H489.773V300.949H490.899V289.998Z" fill="#FFA412"/>
<path d="M486.352 289.998H485.227V300.949H486.352V289.998Z" fill="#FFA412"/>
<path d="M479.391 289.998H478.265V300.949H479.391V289.998Z" fill="#FFA412"/>
<path d="M472.029 289.998H470.903V300.949H472.029V289.998Z" fill="#FFA412"/>
<path d="M460.743 289.998H459.617V300.949H460.743V289.998Z" fill="#FFA412"/>
<path d="M450.167 289.998H449.041V300.949H450.167V289.998Z" fill="#FFA412"/>
<path d="M440.732 289.998H439.606V300.949H440.732V289.998Z" fill="#FFA412"/>
<path d="M498.291 289.998H497.165V300.949H498.291V289.998Z" fill="#FFA412"/>
<path d="M500.675 289.998H499.55V300.949H500.675V289.998Z" fill="#FFA412"/>
<path d="M502.971 289.998H501.845V300.949H502.971V289.998Z" fill="#FFA412"/>
<path d="M504.689 290.042V300.919C504.555 300.949 504.407 300.964 504.274 300.964H503.578V289.998H504.274C504.422 289.998 504.555 290.012 504.689 290.042Z" fill="#FFA412"/>
<path d="M506.244 291.05V299.897C505.977 300.297 505.577 300.608 505.133 300.786V290.16C505.592 290.338 505.977 290.65 506.244 291.05Z" fill="#FFA412"/>
<path d="M499.416 281.447V287.626C499.416 288.116 499.268 288.575 499.001 288.96C498.735 289.36 498.335 289.672 497.89 289.849C497.757 289.909 497.609 289.953 497.461 289.968C497.416 289.983 497.372 289.983 497.327 289.983C497.298 289.983 497.283 289.983 497.253 289.998C497.224 289.998 497.209 289.998 497.179 289.998C497.135 289.998 497.09 289.998 497.046 289.998H398.592C397.318 289.998 396.281 288.99 396.207 287.73C396.207 287.686 396.207 287.641 396.207 287.612V281.432C396.207 281.388 396.207 281.343 396.207 281.314C396.207 281.284 396.207 281.239 396.207 281.21C396.296 280.202 397.037 279.372 398 279.12C398.029 279.12 398.044 279.106 398.074 279.106C398.237 279.076 398.414 279.046 398.592 279.046H497.046C497.12 279.046 497.194 279.046 497.253 279.061C497.283 279.061 497.313 279.061 497.342 279.076C497.387 279.076 497.416 279.091 497.446 279.091C497.594 279.12 497.742 279.165 497.876 279.209C498.335 279.387 498.72 279.698 498.986 280.098C499.268 280.499 499.416 280.958 499.416 281.447Z" fill="#FFB93E"/>
<path d="M451.07 290.012H398.325C397.2 290.012 396.252 289.004 396.207 287.745C396.207 287.7 396.207 287.656 396.207 287.626V281.447C396.207 281.402 396.207 281.358 396.207 281.328C396.207 281.299 396.207 281.254 396.207 281.224C396.296 280.187 396.978 279.342 397.851 279.12C397.881 279.105 397.911 279.105 397.94 279.105C398.059 279.076 398.192 279.061 398.311 279.061H444.583C444.583 279.091 444.597 279.105 444.597 279.135C445.338 282.351 447.071 286.752 451.04 289.997C451.055 289.997 451.07 290.012 451.07 290.012Z" fill="#FFA412"/>
<path d="M487.448 279.061H486.322V290.012H487.448V279.061Z" fill="#FFA412"/>
<path d="M483.656 279.061H482.53V290.012H483.656V279.061Z" fill="#FFA412"/>
<path d="M479.109 279.061H477.983V290.012H479.109V279.061Z" fill="#FFA412"/>
<path d="M472.148 279.061H471.022V290.012H472.148V279.061Z" fill="#FFA412"/>
<path d="M464.786 279.061H463.66V290.012H464.786V279.061Z" fill="#FFA412"/>
<path d="M453.499 279.061H452.374V290.012H453.499V279.061Z" fill="#FFA412"/>
<path d="M442.938 279.061H441.812V290.012H442.938V279.061Z" fill="#FFA412"/>
<path d="M433.503 279.061H432.377V290.012H433.503V279.061Z" fill="#FFA412"/>
<path d="M491.047 279.061H489.921V290.012H491.047V279.061Z" fill="#FFA412"/>
<path d="M493.432 279.061H492.306V290.012H493.432V279.061Z" fill="#FFA412"/>
<path d="M495.728 279.061H494.602V290.012H495.728V279.061Z" fill="#FFA412"/>
<path d="M497.461 279.106V289.983C497.327 290.012 497.179 290.027 497.046 290.027H496.35V279.076H497.046C497.179 279.061 497.313 279.076 497.461 279.106Z" fill="#FFA412"/>
<path d="M499.001 280.113V288.96C498.735 289.36 498.335 289.671 497.89 289.849V279.224C498.35 279.402 498.735 279.713 499.001 280.113Z" fill="#FFA412"/>
<path d="M499.209 270.57V276.749C499.209 277.238 499.061 277.698 498.794 278.083C498.527 278.483 498.127 278.794 497.683 278.972C497.579 279.017 497.461 279.046 497.342 279.076C497.313 279.091 497.283 279.091 497.253 279.091C497.12 279.12 496.972 279.135 496.839 279.135H398.385C398.281 279.135 398.177 279.135 398.074 279.12C398.029 279.12 398 279.105 397.955 279.105C396.889 278.913 396.059 277.994 396 276.883C396 276.838 396 276.808 396 276.764V270.584C396 270.54 396 270.496 396 270.466C396.059 269.206 397.111 268.199 398.385 268.199H496.824C496.883 268.199 496.957 268.199 497.016 268.213C497.046 268.213 497.076 268.213 497.091 268.228C497.12 268.228 497.15 268.228 497.179 268.243C497.194 268.243 497.224 268.243 497.239 268.258C497.387 268.287 497.535 268.332 497.668 268.376C497.683 268.391 497.713 268.391 497.727 268.406C497.742 268.421 497.772 268.421 497.787 268.436C497.831 268.45 497.861 268.48 497.905 268.495C497.95 268.525 497.994 268.539 498.038 268.569C498.083 268.599 498.113 268.614 498.157 268.643C498.201 268.673 498.246 268.702 498.276 268.732C498.305 268.762 498.335 268.777 498.364 268.806C498.379 268.821 498.409 268.836 498.424 268.865C498.483 268.925 498.542 268.984 498.601 269.043C498.616 269.058 498.631 269.073 498.646 269.103C498.661 269.117 498.675 269.147 498.69 269.162C498.72 269.206 498.749 269.236 498.779 269.28C499.061 269.621 499.209 270.081 499.209 270.57Z" fill="#FFB93E"/>
<path d="M450.863 279.15H398.118C398.074 279.15 398.029 279.15 398 279.15C397.955 279.15 397.911 279.135 397.866 279.135C396.859 279.001 396.059 278.053 396 276.897C396 276.853 396 276.823 396 276.779V270.599C396 270.555 396 270.51 396 270.48C396.059 269.221 396.992 268.213 398.118 268.213H444.39C444.405 268.302 444.435 268.391 444.449 268.48C445.22 271.651 446.923 275.904 450.774 279.076C450.804 279.09 450.833 279.12 450.863 279.15Z" fill="#FFA412"/>
<path d="M487.241 268.199H486.115V279.15H487.241V268.199Z" fill="#FFA412"/>
<path d="M483.449 268.199H482.323V279.15H483.449V268.199Z" fill="#FFA412"/>
<path d="M478.902 268.199H477.776V279.15H478.902V268.199Z" fill="#FFA412"/>
<path d="M471.94 268.199H470.815V279.15H471.94V268.199Z" fill="#FFA412"/>
<path d="M464.579 268.199H463.453V279.15H464.579V268.199Z" fill="#FFA412"/>
<path d="M453.293 268.199H452.167V279.15H453.293V268.199Z" fill="#FFA412"/>
<path d="M442.732 268.199H441.606V279.15H442.732V268.199Z" fill="#FFA412"/>
<path d="M433.296 268.199H432.17V279.15H433.296V268.199Z" fill="#FFA412"/>
<path d="M490.84 268.199H489.715V279.15H490.84V268.199Z" fill="#FFA412"/>
<path d="M493.225 268.199H492.099V279.15H493.225V268.199Z" fill="#FFA412"/>
<path d="M495.521 268.199H494.396V279.15H495.521V268.199Z" fill="#FFA412"/>
<path d="M497.254 268.228V279.105C497.121 279.135 496.973 279.15 496.839 279.15H496.143V268.199H496.839C496.973 268.199 497.106 268.199 497.254 268.228Z" fill="#FFA412"/>
<path d="M498.794 269.251V278.098C498.528 278.498 498.128 278.809 497.684 278.987V268.362C498.143 268.525 498.528 268.851 498.794 269.251Z" fill="#FFA412"/>
<path d="M504.289 259.899V266.079C504.289 266.568 504.141 267.027 503.874 267.413C503.607 267.813 503.208 268.124 502.763 268.302C502.63 268.361 502.482 268.391 502.334 268.42C502.2 268.45 502.052 268.465 501.919 268.465H403.465C403.065 268.465 402.695 268.361 402.369 268.198C401.673 267.828 401.169 267.131 401.095 266.316C401.095 266.286 401.095 266.242 401.08 266.212C401.08 266.168 401.08 266.138 401.08 266.094V259.914C401.08 259.87 401.08 259.825 401.08 259.796C401.139 258.536 402.191 257.528 403.465 257.528H501.919C502.067 257.528 502.2 257.543 502.334 257.573C502.482 257.602 502.63 257.647 502.763 257.691C503.222 257.869 503.607 258.18 503.874 258.581C504.141 258.951 504.289 259.396 504.289 259.899Z" fill="#FFB93E"/>
<path d="M455.944 268.465H403.199C402.843 268.465 402.517 268.362 402.221 268.199C401.599 267.828 401.155 267.132 401.081 266.317C401.081 266.287 401.081 266.243 401.066 266.213C401.066 266.169 401.066 266.139 401.066 266.094V259.915C401.066 259.87 401.066 259.826 401.066 259.796C401.125 258.537 402.058 257.529 403.184 257.529H449.456C450.182 260.671 451.826 264.968 455.603 268.214C455.736 268.288 455.84 268.377 455.944 268.465Z" fill="#FFA412"/>
<path d="M492.322 257.514H491.196V268.466H492.322V257.514Z" fill="#FFA412"/>
<path d="M488.53 257.514H487.404V268.466H488.53V257.514Z" fill="#FFA412"/>
<path d="M483.998 257.514H482.872V268.466H483.998V257.514Z" fill="#FFA412"/>
<path d="M477.036 257.514H475.91V268.466H477.036V257.514Z" fill="#FFA412"/>
<path d="M469.674 257.514H468.548V268.466H469.674V257.514Z" fill="#FFA412"/>
<path d="M458.388 257.514H457.262V268.466H458.388V257.514Z" fill="#FFA412"/>
<path d="M447.813 257.514H446.687V268.466H447.813V257.514Z" fill="#FFA412"/>
<path d="M438.377 257.514H437.251V268.466H438.377V257.514Z" fill="#FFA412"/>
<path d="M495.936 257.514H494.81V268.466H495.936V257.514Z" fill="#FFA412"/>
<path d="M498.305 257.514H497.18V268.466H498.305V257.514Z" fill="#FFA412"/>
<path d="M500.616 257.514H499.49V268.466H500.616V257.514Z" fill="#FFA412"/>
<path d="M502.334 257.544V268.421C502.201 268.451 502.053 268.466 501.919 268.466H501.223V257.514H501.919C502.053 257.514 502.201 257.529 502.334 257.544Z" fill="#FFA412"/>
<path d="M503.89 258.566V267.413C503.623 267.813 503.223 268.125 502.779 268.302V257.677C503.223 257.855 503.623 258.166 503.89 258.566Z" fill="#FFA412"/>
<path d="M512.347 248.949V255.128C512.347 255.617 512.199 256.077 511.932 256.462C511.666 256.862 511.266 257.173 510.821 257.351C510.688 257.411 510.54 257.44 510.392 257.47C510.259 257.499 510.111 257.514 509.977 257.514H411.508C410.234 257.514 409.198 256.507 409.124 255.247C409.124 255.202 409.124 255.158 409.124 255.128V248.949C409.124 248.904 409.124 248.86 409.124 248.83C409.183 247.674 410.086 246.726 411.227 246.593C411.316 246.578 411.419 246.578 411.508 246.578H509.962C510.111 246.578 510.244 246.593 510.377 246.622C510.525 246.652 510.673 246.696 510.807 246.741C511.266 246.919 511.651 247.23 511.918 247.63C512.199 248 512.347 248.445 512.347 248.949Z" fill="#FFB93E"/>
<path d="M464.001 257.514H411.257C410.131 257.514 409.183 256.507 409.138 255.247C409.138 255.202 409.138 255.158 409.138 255.128V248.949C409.138 248.904 409.138 248.86 409.138 248.83C409.198 247.674 409.998 246.726 411.005 246.593C411.094 246.578 411.168 246.578 411.257 246.578H457.529V246.593C458.269 249.793 459.987 254.254 464.001 257.514Z" fill="#FFA412"/>
<path d="M500.364 246.563H499.239V257.514H500.364V246.563Z" fill="#FFA412"/>
<path d="M496.587 246.563H495.461V257.514H496.587V246.563Z" fill="#FFA412"/>
<path d="M492.04 246.563H490.914V257.514H492.04V246.563Z" fill="#FFA412"/>
<path d="M485.078 246.563H483.953V257.514H485.078V246.563Z" fill="#FFA412"/>
<path d="M477.717 246.563H476.591V257.514H477.717V246.563Z" fill="#FFA412"/>
<path d="M466.431 246.563H465.305V257.514H466.431V246.563Z" fill="#FFA412"/>
<path d="M455.855 246.563H454.729V257.514H455.855V246.563Z" fill="#FFA412"/>
<path d="M446.419 246.563H445.294V257.514H446.419V246.563Z" fill="#FFA412"/>
<path d="M503.978 246.563H502.852V257.514H503.978V246.563Z" fill="#FFA412"/>
<path d="M506.363 246.563H505.237V257.514H506.363V246.563Z" fill="#FFA412"/>
<path d="M508.659 246.563H507.534V257.514H508.659V246.563Z" fill="#FFA412"/>
<path d="M510.377 246.592V257.47C510.244 257.499 510.096 257.514 509.962 257.514H509.266V246.563H509.962C510.11 246.563 510.244 246.578 510.377 246.592Z" fill="#FFA412"/>
<path d="M511.932 247.615V256.462C511.666 256.862 511.266 257.173 510.821 257.351V246.726C511.28 246.904 511.666 247.215 511.932 247.615Z" fill="#FFA412"/>
<path d="M499.416 238.012V244.192C499.416 244.681 499.268 245.14 499.001 245.525C498.735 245.926 498.335 246.237 497.89 246.415C497.757 246.474 497.609 246.503 497.461 246.533C497.416 246.548 497.372 246.548 497.327 246.548C497.283 246.548 497.253 246.563 497.224 246.563C497.209 246.563 497.194 246.563 497.165 246.563C497.12 246.563 497.09 246.563 497.046 246.563H398.592C397.318 246.563 396.281 245.555 396.207 244.295C396.207 244.251 396.207 244.207 396.207 244.177V237.997C396.207 237.953 396.207 237.908 396.207 237.879C396.267 236.619 397.318 235.611 398.592 235.611H497.046C497.09 235.611 497.135 235.611 497.179 235.611C497.283 235.611 497.372 235.626 497.476 235.641C497.624 235.671 497.772 235.715 497.905 235.76C497.979 235.789 498.053 235.819 498.112 235.849C498.157 235.863 498.201 235.893 498.231 235.908C498.231 235.908 498.246 235.908 498.246 235.923C498.29 235.952 498.32 235.967 498.364 235.997C498.379 235.997 498.379 236.012 498.379 236.012C498.409 236.041 498.453 236.056 498.483 236.086C498.572 236.145 498.646 236.219 498.72 236.293C498.749 236.323 498.764 236.338 498.794 236.367L498.809 236.382C498.823 236.397 498.838 236.412 498.853 236.426C498.853 236.426 498.853 236.426 498.868 236.441C498.898 236.471 498.912 236.501 498.942 236.53C498.972 236.575 499.001 236.619 499.031 236.664C499.268 237.064 499.416 237.523 499.416 238.012Z" fill="#FFB93E"/>
<path d="M451.07 246.578H398.325C397.2 246.578 396.252 245.57 396.207 244.31C396.207 244.266 396.207 244.221 396.207 244.192V238.012C396.207 237.968 396.207 237.923 396.207 237.894C396.267 236.634 397.2 235.626 398.325 235.626H444.597C444.612 235.715 444.642 235.789 444.657 235.878C445.427 239.079 447.16 243.377 451.055 246.563C451.055 246.563 451.07 246.578 451.07 246.578Z" fill="#FFA412"/>
<path d="M487.448 235.626H486.322V246.577H487.448V235.626Z" fill="#FFA412"/>
<path d="M483.656 235.626H482.53V246.577H483.656V235.626Z" fill="#FFA412"/>
<path d="M479.109 235.626H477.983V246.577H479.109V235.626Z" fill="#FFA412"/>
<path d="M472.148 235.626H471.022V246.577H472.148V235.626Z" fill="#FFA412"/>
<path d="M464.786 235.626H463.66V246.577H464.786V235.626Z" fill="#FFA412"/>
<path d="M453.499 235.626H452.374V246.577H453.499V235.626Z" fill="#FFA412"/>
<path d="M442.938 235.626H441.813V246.577H442.938V235.626Z" fill="#FFA412"/>
<path d="M433.503 235.626H432.377V246.577H433.503V235.626Z" fill="#FFA412"/>
<path d="M491.047 235.626H489.921V246.577H491.047V235.626Z" fill="#FFA412"/>
<path d="M493.432 235.626H492.306V246.577H493.432V235.626Z" fill="#FFA412"/>
<path d="M495.728 235.626H494.602V246.577H495.728V235.626Z" fill="#FFA412"/>
<path d="M497.461 235.671V246.548C497.327 246.578 497.179 246.592 497.046 246.592H496.35V235.641H497.046C497.179 235.626 497.313 235.641 497.461 235.671Z" fill="#FFA412"/>
<path d="M499.001 236.678V245.525C498.735 245.925 498.335 246.237 497.891 246.415V235.789C498.35 235.967 498.735 236.278 499.001 236.678Z" fill="#FFA412"/>
<path d="M506.659 227.313V233.493C506.659 233.982 506.511 234.441 506.244 234.826C505.978 235.226 505.578 235.538 505.134 235.715C505 235.775 504.852 235.804 504.704 235.834C504.571 235.864 504.423 235.878 504.289 235.878H405.835C405.45 235.878 405.095 235.79 404.769 235.627C404.058 235.271 403.539 234.545 403.465 233.715C403.465 233.685 403.465 233.656 403.465 233.611C403.465 233.567 403.465 233.522 403.465 233.493V227.313C403.465 227.269 403.465 227.224 403.465 227.194C403.525 226.039 404.428 225.09 405.569 224.957C405.657 224.942 405.761 224.942 405.85 224.942H504.304C504.452 224.942 504.586 224.957 504.719 224.986C504.867 225.016 505.015 225.061 505.148 225.105C505.608 225.283 505.993 225.594 506.259 225.994C506.511 226.365 506.659 226.824 506.659 227.313Z" fill="#FFB93E"/>
<path d="M458.313 235.878H405.568C405.228 235.878 404.902 235.79 404.62 235.627C403.983 235.271 403.524 234.545 403.45 233.715C403.45 233.685 403.45 233.656 403.45 233.611C403.45 233.567 403.45 233.522 403.45 233.493V227.313C403.45 227.269 403.45 227.224 403.45 227.194C403.509 226.039 404.309 225.09 405.316 224.957C405.405 224.942 405.479 224.942 405.568 224.942H451.84V224.957C452.566 228.098 454.21 232.396 458.017 235.641C458.106 235.715 458.209 235.804 458.313 235.878Z" fill="#FFA412"/>
<path d="M494.676 224.927H493.55V235.878H494.676V224.927Z" fill="#FFA412"/>
<path d="M490.899 224.927H489.773V235.878H490.899V224.927Z" fill="#FFA412"/>
<path d="M486.352 224.927H485.227V235.878H486.352V224.927Z" fill="#FFA412"/>
<path d="M479.391 224.927H478.265V235.878H479.391V224.927Z" fill="#FFA412"/>
<path d="M472.029 224.927H470.903V235.878H472.029V224.927Z" fill="#FFA412"/>
<path d="M460.743 224.927H459.617V235.878H460.743V224.927Z" fill="#FFA412"/>
<path d="M450.167 224.927H449.041V235.878H450.167V224.927Z" fill="#FFA412"/>
<path d="M440.732 224.927H439.606V235.878H440.732V224.927Z" fill="#FFA412"/>
<path d="M498.291 224.927H497.165V235.878H498.291V224.927Z" fill="#FFA412"/>
<path d="M500.675 224.927H499.55V235.878H500.675V224.927Z" fill="#FFA412"/>
<path d="M502.971 224.927H501.845V235.878H502.971V224.927Z" fill="#FFA412"/>
<path d="M504.689 224.971V235.849C504.555 235.878 504.407 235.893 504.274 235.893H503.578V224.942H504.274C504.422 224.927 504.555 224.942 504.689 224.971Z" fill="#FFA412"/>
<path d="M506.244 225.979V234.826C505.977 235.226 505.577 235.537 505.133 235.715V225.09C505.592 225.268 505.977 225.579 506.244 225.979Z" fill="#FFA412"/>
<path d="M499.414 216.376V222.571C499.414 223.06 499.266 223.519 498.999 223.904C498.733 224.305 498.333 224.616 497.889 224.794C497.755 224.853 497.607 224.882 497.459 224.912C497.415 224.927 497.37 224.927 497.326 224.927C497.296 224.927 497.281 224.927 497.252 224.942C497.222 224.942 497.207 224.942 497.178 224.942C497.133 224.942 497.089 224.942 497.044 224.942H398.59C397.316 224.942 396.28 223.934 396.206 222.674C396.206 222.63 396.206 222.586 396.206 222.556V216.376C396.206 216.332 396.206 216.287 396.206 216.258C396.265 214.998 397.316 213.99 398.59 213.99H497.044C497.192 213.99 497.326 214.005 497.459 214.035C497.607 214.065 497.755 214.109 497.889 214.153C498.348 214.331 498.733 214.642 498.999 215.043C499.266 215.428 499.414 215.887 499.414 216.376Z" fill="#FFB93E"/>
<path d="M451.068 224.942H398.324C397.198 224.942 396.25 223.934 396.206 222.674C396.206 222.63 396.206 222.586 396.206 222.556V216.376C396.206 216.332 396.206 216.287 396.206 216.258C396.265 214.998 397.198 213.99 398.324 213.99H444.596C445.336 217.206 447.054 221.652 451.054 224.927C451.054 224.942 451.068 224.942 451.068 224.942Z" fill="#FFA412"/>
<path d="M487.448 213.991H486.322V224.942H487.448V213.991Z" fill="#FFA412"/>
<path d="M483.656 213.991H482.53V224.942H483.656V213.991Z" fill="#FFA412"/>
<path d="M479.109 213.991H477.983V224.942H479.109V213.991Z" fill="#FFA412"/>
<path d="M472.148 213.991H471.022V224.942H472.148V213.991Z" fill="#FFA412"/>
<path d="M464.786 213.991H463.66V224.942H464.786V213.991Z" fill="#FFA412"/>
<path d="M453.499 213.991H452.374V224.942H453.499V213.991Z" fill="#FFA412"/>
<path d="M442.938 213.991H441.812V224.942H442.938V213.991Z" fill="#FFA412"/>
<path d="M433.503 213.99H432.377V224.942H433.503V213.99Z" fill="#FFA412"/>
<path d="M491.047 213.991H489.921V224.942H491.047V213.991Z" fill="#FFA412"/>
<path d="M493.432 213.991H492.306V224.942H493.432V213.991Z" fill="#FFA412"/>
<path d="M495.728 213.991H494.602V224.942H495.728V213.991Z" fill="#FFA412"/>
<path d="M497.461 214.035V224.912C497.327 224.942 497.179 224.957 497.046 224.957H496.35V214.005H497.046C497.179 213.99 497.313 214.005 497.461 214.035Z" fill="#FFA412"/>
<path d="M499.001 215.043V223.89C498.735 224.29 498.335 224.601 497.89 224.779V214.154C498.35 214.331 498.735 214.643 499.001 215.043Z" fill="#FFA412"/>
<path d="M341.488 318.23C341.681 327.606 334.141 335.282 324.924 335.39L89.8917 339.205C80.5155 339.397 72.84 331.857 72.7322 322.64L70.0275 158.36C69.8353 148.984 77.3751 141.308 86.5923 141.2L321.624 137.385C331 137.193 338.676 144.733 338.784 153.95L341.488 318.23Z" fill="#F73687"/>
<path d="M337.28 314.034C337.472 323.41 329.932 331.086 320.715 331.194L85.683 335.008C76.3068 335.201 68.6312 327.661 68.5235 318.444L65.8188 154.164C65.6265 144.788 73.1664 137.112 82.3836 137.004L317.537 133.227C326.913 133.034 334.589 140.574 334.697 149.791L337.28 314.034Z" fill="#FC90C2"/>
<path d="M319.654 304.647C319.766 310.805 314.862 315.959 308.583 316.034L97.3375 319.541C91.1803 319.653 86.026 314.748 85.9508 308.47L83.5661 163.588C83.4537 157.43 88.3586 152.276 94.6375 152.201L305.845 148.816C312.003 148.703 317.157 153.608 317.232 159.887L319.654 304.647Z" fill="#EDF7FB"/>
<path d="M186.934 219.444C186.956 221.98 184.957 224.163 182.421 224.186C179.885 224.208 177.702 222.209 177.679 219.673C177.656 217.137 179.656 214.954 182.192 214.931C184.727 214.909 186.911 216.908 186.934 219.444Z" fill="#430029"/>
<path d="M146.637 242.386C146.66 244.921 144.66 247.105 142.124 247.128C139.589 247.15 137.405 245.151 137.382 242.615C137.36 240.079 139.359 237.896 141.895 237.873C144.431 237.85 146.493 239.812 146.637 242.386Z" fill="#430029"/>
<path d="M228.562 204.763C228.584 207.299 226.585 209.482 224.049 209.505C221.513 209.527 219.33 207.528 219.307 204.992C219.285 202.456 221.284 200.273 223.82 200.25C226.393 200.106 228.417 202.19 228.562 204.763Z" fill="#430029"/>
<path d="M263.937 170.066L282.901 148.982L293.47 133.582L278.461 133.914L263.937 170.066Z" fill="#523C00"/>
<path d="M116.826 174.408L112.626 174.476L114.457 287.995L118.657 287.927L116.826 174.408Z" fill="#FF88C7"/>
<path d="M153.903 259.756L130.486 260.134L130.913 286.605L154.33 286.227L153.903 259.756Z" fill="#FF88C7"/>
<path d="M194.781 238.465L171.365 238.843L172.124 285.93L195.541 285.553L194.781 238.465Z" fill="#E81374"/>
<path d="M235.835 218.48L212.418 218.857L213.488 285.162L236.904 284.784L235.835 218.48Z" fill="#FF88C7"/>
<path d="M276.656 189.232L253.239 189.609L254.77 284.548L278.187 284.17L276.656 189.232Z" fill="#E81374"/>
<path d="M295.292 280.944L114.451 283.861L114.518 288.061L295.36 285.144L295.292 280.944Z" fill="#FF88C7"/>
<path d="M109.563 182.591L114.735 168.733L120.39 182.443L109.563 182.591Z" fill="#FF88C7"/>
<path d="M289.397 277.819L303.254 282.991L289.544 288.645L289.397 277.819Z" fill="#FF88C7"/>
<path d="M292.306 76.6136L371.808 45.1709L357.373 127.139L292.306 76.6136Z" fill="#E81374"/>
<path d="M137.765 183.357C139.422 183.574 140.736 183.976 141.706 184.564C142.676 185.151 143.383 185.657 144.09 186.164C145.342 187.708 146.169 189.702 146.045 191.986C145.983 193.128 145.921 194.27 145.596 195.331C145.271 196.393 144.683 197.374 144.096 198.355C143.508 199.336 142.476 199.891 141.444 200.446C140.412 201.001 139.118 201.475 137.904 201.684L137.799 204.845L133.795 204.781L133.9 201.62C132.505 201.483 131.191 201.081 130.221 200.494C129.252 199.907 128.282 199.32 127.656 198.548C127.03 197.776 126.485 196.739 126.022 195.436C125.558 194.133 125.357 192.911 125.238 191.423L130.981 191.439C131.1 192.927 131.301 194.149 131.927 194.921C132.553 195.693 133.179 196.465 133.967 196.707L133.857 187.676C128.439 186.598 125.854 183.776 125.758 179.393C125.82 178.251 125.882 177.109 126.207 176.048C126.532 174.986 127.038 174.27 127.889 173.37C128.658 172.734 129.427 172.099 130.459 171.544C131.491 170.989 132.442 170.7 133.655 170.491L133.76 167.33L137.764 167.395L137.659 170.555C142.37 171.126 144.955 173.948 145.595 179.369L139.852 179.353C139.632 177.254 139.169 175.951 137.855 175.549L137.765 183.357ZM133.588 175.404C132.213 176.144 131.281 177.31 131.319 179.063C131.338 179.94 131.62 180.897 131.802 181.242C132.246 181.669 132.691 182.095 133.479 182.336L133.588 175.404ZM137.971 196.771C139.609 196.111 140.622 194.68 140.484 192.316C140.383 191.705 140.464 191.439 140.283 191.093C140.101 190.748 140.182 190.482 140.001 190.136C139.819 189.791 139.557 189.71 139.112 189.284C138.849 189.204 138.405 188.777 137.88 188.617L137.971 196.771Z" fill="#E81374"/>
<path d="M131.34 250.616L129.238 247.045L182.092 217.43L218.604 204.245L263.105 170.611L312.788 89.612L341.015 110.895L266.197 173.553L220.669 207.938L220.351 208.107L183.717 221.255L131.34 250.616Z" fill="#E81374"/>
<path d="M269.217 171.948C269.24 174.484 267.241 176.668 264.705 176.69C262.169 176.713 259.986 174.714 259.963 172.178C259.94 169.642 261.94 167.458 264.475 167.436C267.133 167.45 269.195 169.412 269.217 171.948Z" fill="#430029"/>
<path d="M395.885 128.817L395.9 130.388C395.9 130.388 395.47 135.283 401.501 135.991C407.518 136.715 412.457 136.607 412.303 132.835C411.765 129.91 410.795 125.369 410.749 122.952C410.734 122.059 410.796 121.104 410.965 120.027L399.301 119.796L395.87 120.35L395.885 128.817Z" fill="#FFB27D"/>
<path d="M395.839 120.35L395.885 128.817C397.132 129.387 398.517 129.741 400.086 129.741C405.456 129.741 408.918 125.8 410.734 122.952C410.719 122.059 410.78 121.104 410.95 120.027L399.286 119.796L395.839 120.35Z" fill="#E2915A"/>
<path d="M411.842 118.149C410.488 125.446 401.086 125.2 397.024 124.738C395.885 124.615 395.162 124.461 395.162 124.461C393.87 124.122 393.146 122.09 392.823 119.426C392.162 114.161 392.992 106.433 393.885 104.447C395.224 101.476 397.747 98.2583 407.211 100.568C416.674 102.908 413.581 108.804 411.842 118.149Z" fill="#FFB27D"/>
<path d="M419.536 334.018H406.21C406.303 333.325 406.656 331.185 407.272 329.23C407.487 328.552 407.734 327.89 408.026 327.305C409.318 324.719 417.551 326.366 417.551 326.366C417.551 326.366 418.32 327.028 418.905 329.522C419.182 330.631 419.413 332.093 419.536 334.018Z" fill="#233862"/>
<path d="M379.267 329.815C379.236 331.632 379.005 333.34 378.343 334.018H352C352.339 333.063 353.277 331.632 355.985 331.185C359.063 330.692 363.848 329.199 366.649 326.243C367.649 325.196 368.388 323.949 368.711 322.502C369.957 316.975 378.959 324.196 378.959 324.196C378.959 324.196 379.328 327.105 379.267 329.815Z" fill="#233862"/>
<path d="M396.809 270.097C396.439 272.114 396.208 273.777 396.147 274.962C395.316 291.312 382.39 328.706 380.082 329.568C376.512 330.923 370.881 328.044 367.926 327.105C366.711 326.72 365.88 325.489 366.157 324.226C372.558 294.807 374.912 252.424 375.758 227.346C376.189 214.737 378.359 206.008 378.359 206.008C378.359 206.008 409.873 197.602 410.057 208.24C410.211 217.647 399.609 254.564 396.809 270.097Z" fill="#9F0049"/>
<path d="M396.808 270.098L375.758 227.361C376.189 214.737 378.359 206.008 378.359 206.008C378.359 206.008 409.872 197.602 410.057 208.24C410.211 217.647 399.609 254.564 396.808 270.098Z" fill="#740035"/>
<path d="M389.792 208.271L406.456 329.06C406.456 329.06 413.765 330.831 419.458 329.415C419.458 329.415 424.336 265.171 423.936 249.638C423.536 234.104 427.429 208.086 423.044 205.207C418.643 202.344 389.792 208.271 389.792 208.271Z" fill="#9F0049"/>
<path d="M390.976 97.5194C390.976 97.5194 395.146 97.1961 400.055 95.0562C404.04 93.3165 409.072 95.2255 410.718 96.0876C410.672 95.8259 410.564 95.4718 410.318 95.1024C410.318 95.1024 411.057 95.6258 411.165 96.3494C411.242 96.4109 411.272 96.4417 411.257 96.4571C411.257 96.4571 412.088 96.3032 412.626 96.5495C412.626 96.5495 412.257 96.5033 412.119 96.7342C412.103 96.765 412.088 96.7804 412.057 96.7958C418.289 99.7978 418.858 109.651 416.858 111.929C414.442 114.669 411.565 120.843 411.565 120.843C411.565 120.843 410.518 119.38 410.949 116.979C411.38 114.562 409.303 114.562 406.671 113.469C404.04 112.376 406.241 109.297 403.932 107.434C401.624 105.571 393.192 106.664 393.3 105.248C390.161 104.108 390.976 97.8273 390.976 97.5194Z" fill="#233862"/>
<path d="M413.704 134.945L409.872 217.277C409.872 217.277 377.866 217.801 378.774 210.55C379.682 203.298 390.315 137.469 390.315 137.469L413.704 134.945Z" fill="#E9F3FE"/>
<path d="M425.137 181.607C423.229 187.318 426.83 206.501 428.107 212.997C428.384 214.367 428.568 215.183 428.568 215.183C424.137 222.404 407.903 222.311 407.903 222.311C404.779 208.502 403.164 186.518 403.164 186.518L415.627 131.881L431.307 146.368C431.307 146.368 430.122 155.204 428.661 164.211C427.476 171.323 426.168 178.574 425.137 181.607Z" fill="#9F0049"/>
<path d="M398.501 119.349C398.501 119.349 398.193 120.288 395.824 119.95C395.824 119.95 393.839 119.657 393.977 118.61C393.977 118.61 395.978 118.01 398.501 119.349Z" fill="white"/>
<path d="M380.513 136.115C380.513 136.115 380.513 136.13 380.513 136.145C379.759 136.884 358.386 157.637 354.246 165.765C350.03 174.017 373.512 190.444 373.512 190.444C373.512 190.444 375.02 191.044 376.066 190.813C374.958 199.927 373.712 208.348 374.45 211.935C375.774 218.432 381.775 220.602 381.775 220.11C381.775 219.956 383.313 196.448 385.16 184.301C389.238 157.344 394.115 132.05 394.115 132.05C387.129 132.774 380.513 136.115 380.513 136.115ZM367.787 169.322C367.757 169.291 367.757 169.229 367.757 169.199C367.757 168.013 372.281 165.381 377.189 162.302C377.251 162.24 377.281 162.209 377.281 162.209C377.281 162.209 377.281 162.209 377.297 162.209C377.205 164.734 377.22 167.213 377.374 169.522C377.651 173.802 377.343 178.913 376.82 184.132C374.481 180.468 368.249 170.676 367.787 169.322Z" fill="#9F0049"/>
<path d="M414.612 131.773C414.658 130.988 410.934 129.895 410.934 129.895C410.934 129.895 406.672 135.807 399.655 135.899C399.655 135.899 401.655 139.794 404.01 140.795C404.025 140.81 414.381 136.438 414.612 131.773Z" fill="#D9E9F9"/>
<path d="M389.807 191.552C389.976 193.476 390.853 195.262 392.284 196.571L394.516 198.634C395.07 199.157 395.962 199.08 396.424 198.48L399.193 194.97C399.932 194.031 400.286 192.83 400.163 191.644C399.901 188.981 399.424 183.87 399.04 178.928C398.732 174.925 398.47 171.031 398.455 168.66C398.393 161.101 399.886 137.008 399.886 137.008L398.07 137.1C398.07 137.1 393.577 146.46 391.223 159.176C390.638 162.317 390.192 165.642 389.976 169.106C389.992 169.106 389.038 182.869 389.807 191.552Z" fill="#C65447"/>
<path d="M389.807 191.552C389.976 193.476 390.853 195.262 392.284 196.571L394.515 198.634C395.069 199.157 395.962 199.08 396.423 198.48L399.193 194.97C399.932 194.031 400.286 192.83 400.163 191.644C399.901 188.981 399.424 183.87 399.039 178.928C394.038 173.309 392.007 165.534 391.222 159.192C390.638 162.332 390.192 165.658 389.976 169.121C389.991 169.106 389.037 182.869 389.807 191.552Z" fill="#BA4C43"/>
<path d="M399.67 135.776C399.67 135.776 395.962 133.574 395.947 131.188C395.947 131.188 393.546 130.88 392.5 132.05C392.5 132.05 391.623 136.145 392.792 138.516C392.777 138.516 398.132 137.7 399.67 135.776Z" fill="#D9E9F9"/>
<path d="M402.194 135.422L397.162 134.221C397.162 134.221 396.501 134.283 396.516 135.099C396.531 135.914 397.932 138.316 398.562 138.516C399.163 138.701 403.379 137.085 402.194 135.422Z" fill="#BA4C43"/>
<path d="M414.027 131.373C414.073 130.588 411.55 128.971 411.55 128.971C411.55 128.971 406.672 134.667 399.655 134.775C399.655 134.775 401.655 138.67 404.01 139.671C404.025 139.671 413.796 136.038 414.027 131.373Z" fill="#E9F3FE"/>
<path d="M399.67 134.76C399.67 134.76 395.916 132.774 395.9 130.372C395.9 130.372 393.638 131.373 392.577 132.528C392.577 132.528 391.607 135.114 392.777 137.485C392.777 137.516 398.132 136.7 399.67 134.76Z" fill="#E9F3FE"/>
<path d="M372.003 191.783C372.003 189.689 373.85 187.996 375.927 188.319C376.497 188.412 377.02 188.642 377.389 189.12C378.82 191.013 380.174 196.555 377.651 196.802C376.62 196.91 375.296 196.186 374.281 195.416C373.25 194.631 372.019 193.4 372.019 192.091V191.783H372.003Z" fill="#FFB27D"/>
<path d="M428.106 212.997C423.521 208.225 415.581 198.819 415.873 191.106C416.243 180.298 428.645 164.211 428.645 164.211C427.491 171.338 426.183 178.574 425.152 181.607C423.229 187.318 426.829 206.501 428.106 212.997Z" fill="#740035"/>
<path d="M427.953 194.2C427.953 194.2 424.66 195.847 422.644 195.031C420.644 194.2 418.29 193.584 416.043 196.14C413.812 198.695 413.335 200.45 413.812 201.405C414.289 202.344 419.505 201.99 420.367 201.405C421.229 200.82 422.598 199.357 423.475 199.619C425.876 200.312 427.891 198.48 429.015 197.033C429.707 196.124 427.876 195.709 427.953 194.2Z" fill="#FFB27D"/>
<path d="M415.612 131.881C415.612 131.881 428.753 133.344 431.846 139.055C434.939 144.782 451.065 167.982 450.526 177.62C450.003 187.257 428.538 198.08 428.538 198.08C428.538 198.08 423.783 196.078 423.721 193.908C423.644 191.752 438.555 178.82 437.647 176.419C436.739 174.002 420.336 154.943 418.751 148.662C417.182 142.365 415.612 131.881 415.612 131.881Z" fill="#9F0049"/>
<path d="M377.282 162.209C377.282 162.209 377.251 162.24 377.189 162.302C372.281 165.396 367.757 168.013 367.757 169.198C367.095 167.105 373.465 158.36 375.527 156.575C377.62 154.773 377.282 162.209 377.282 162.209Z" fill="#430029"/>
<path d="M411.55 128.971C411.55 128.971 401.578 170.769 403.163 186.518C403.163 186.518 406.826 169.691 415.658 155.913C415.658 155.913 412.442 153.08 412.611 152.033C412.611 152.033 414.996 151.325 417.32 151.802C417.32 151.802 417.058 133.79 415.612 131.881C414.181 129.972 411.55 128.971 411.55 128.971Z" fill="#740035"/>
<path d="M395.901 130.388C396.039 130.449 386.007 171.231 385.176 184.286C385.176 184.286 386.176 160.993 386.084 154.281C386.084 154.281 390.223 152.079 390.223 151.31C390.223 150.54 385.807 148.461 385.807 148.461C385.807 148.461 388.607 134.113 390.131 132.528C391.639 130.957 395.901 130.388 395.901 130.388Z" fill="#740035"/>
<path d="M98.518 331.863C115.054 315.319 115.054 288.494 98.518 271.95C81.9815 255.405 55.1705 255.405 38.634 271.95C22.0976 288.494 22.0976 315.319 38.6341 331.863C55.1705 348.408 81.9815 348.408 98.518 331.863Z" fill="#E2810E"/>
<path d="M94.8258 331.862C111.362 315.317 111.362 288.493 94.8258 271.948C78.2893 255.404 51.4784 255.404 34.9419 271.948C18.4054 288.493 18.4054 315.317 34.9419 331.862C51.4784 348.406 78.2893 348.406 94.8258 331.862Z" fill="#FFB93E"/>
<path d="M64.8829 341.006C54.5725 341.006 44.8924 336.986 37.5985 329.7C30.316 322.413 26.2976 312.717 26.2976 302.402C26.2976 292.086 30.316 282.402 37.5985 275.104C44.8811 267.818 54.5725 263.798 64.8829 263.798C75.1933 263.798 84.8734 267.818 92.1672 275.104C99.4498 282.39 103.468 292.086 103.468 302.402C103.468 312.717 99.4498 322.402 92.1672 329.7C84.8734 336.986 75.1933 341.006 64.8829 341.006ZM64.8829 266.106C55.1915 266.106 46.0855 269.879 39.2307 276.737C32.3758 283.595 28.6051 292.706 28.6051 302.402C28.6051 312.098 32.3758 321.208 39.2307 328.067C46.0855 334.925 55.1915 338.697 64.8829 338.697C74.5742 338.697 83.6803 334.925 90.5351 328.067C97.39 321.208 101.161 312.098 101.161 302.402C101.161 292.706 97.39 283.595 90.5351 276.737C83.6803 269.879 74.5742 266.106 64.8829 266.106Z" fill="#FFA412"/>
<path d="M70.1961 313.607C70.2974 312.773 70.2637 312.03 70.1061 311.366C69.9485 310.701 69.6333 310.082 69.1606 309.508C68.6878 308.933 68.0575 308.37 67.2696 307.841C66.4817 307.3 65.5024 306.76 64.3318 306.197C62.3283 305.217 60.5273 304.226 58.9065 303.213C57.2969 302.21 55.9462 301.107 54.8543 299.913C53.7625 298.719 52.9633 297.379 52.4568 295.893C51.9503 294.406 51.8152 292.694 52.0404 290.746C52.243 289.057 52.7157 287.559 53.4811 286.242C54.2465 284.924 55.237 283.82 56.4752 282.919C57.7021 282.019 59.1316 281.343 60.7524 280.881C62.3733 280.419 64.1517 280.217 66.099 280.262L66.8531 273.899L71.9746 274.507L71.2092 280.96C73.0101 281.41 74.6197 282.097 76.0267 283.01C77.4337 283.922 78.593 285.025 79.4935 286.32C80.394 287.615 81.0356 289.091 81.4183 290.757C81.7897 292.424 81.8685 294.237 81.6321 296.219L72.391 295.127C72.6724 292.751 72.3573 290.904 71.4455 289.597C70.5338 288.291 69.1831 287.537 67.4159 287.323C66.4592 287.21 65.615 287.244 64.8946 287.435C64.1742 287.615 63.5551 287.92 63.0486 288.336C62.5421 288.753 62.1482 289.26 61.8668 289.868C61.5741 290.476 61.394 291.152 61.304 291.884C61.2139 292.616 61.2477 293.291 61.3828 293.911C61.5291 294.53 61.833 295.127 62.2945 295.69C62.756 296.253 63.3976 296.816 64.208 297.368C65.0184 297.92 66.0314 298.505 67.2583 299.136C69.2394 300.149 71.0178 301.174 72.6274 302.188C74.2257 303.201 75.5652 304.316 76.657 305.51C77.7488 306.715 78.548 308.066 79.0545 309.541C79.561 311.028 79.6961 312.728 79.471 314.654C79.2684 316.4 78.7731 317.931 78.0077 319.238C77.2311 320.555 76.2293 321.648 75.0024 322.526C73.7755 323.404 72.3348 324.057 70.7026 324.485C69.0593 324.913 67.2696 325.105 65.3336 325.048L64.6357 330.961L59.548 330.353L60.2459 324.463C58.5012 324.08 56.8354 323.483 55.2483 322.695C53.6612 321.907 52.2992 320.87 51.1511 319.598C50.003 318.325 49.1476 316.794 48.5848 314.992C48.022 313.201 47.8757 311.107 48.1571 308.731L57.3982 309.823C57.2293 311.231 57.2856 312.424 57.567 313.415C57.8484 314.406 58.2874 315.217 58.8839 315.859C59.4805 316.501 60.1784 316.985 61.0001 317.312C61.8105 317.638 62.6547 317.852 63.5326 317.954C64.5344 318.078 65.4349 318.044 66.2228 317.886C67.0107 317.717 67.6861 317.436 68.2489 317.042C68.8117 316.647 69.2619 316.152 69.5883 315.555C69.9035 315.003 70.1061 314.339 70.1961 313.607Z" fill="#FFA412"/>
</svg>
