<svg width="53" height="55" viewBox="0 0 53 55" fill="none" xmlns="http://www.w3.org/2000/svg">
<path d="M1.21553 24.4992L23.5336 11.6316L45.8517 24.4992L45.8671 24.4902V41.6827L23.5336 54.5769L1.20007 41.6827V24.4902L1.21553 24.4992Z" fill="#ED7064"/>
<path d="M1.20007 41.6827L23.5336 54.577V37.3847L1.20007 24.4903V41.6827Z" fill="#C40041"/>
<path d="M23.5336 37.3847L45.8671 24.4903V41.6827L23.5336 54.577V37.3847Z" fill="#F43834"/>
<path d="M0.0162026 17.8792L23.5336 4.32007L47.051 17.8792L47.0672 17.8698V23.818L23.5336 37.4052L0 23.818V17.8698L0.0162026 17.8792Z" fill="#FF8A5C"/>
<path d="M0 23.8182L23.5336 37.4053V31.457L0 17.8699V23.8182Z" fill="#F43834"/>
<path d="M23.5336 31.457L47.0671 17.8699V23.8182L23.5336 37.4053V31.457Z" fill="#FF5331"/>
<path d="M14.0653 49.1104L8.21875 45.7348V22.5953L31.7087 9.03333L37.5524 12.4026L14.0653 25.9629V49.1104Z" fill="#FF812C"/>
<path d="M33.1193 49.0413L38.9659 45.6658V22.5263L15.476 8.96429L9.6322 12.3336L33.1193 25.8938V49.0413Z" fill="#FF9F2C"/>
<path d="M33.1193 25.8941L38.9659 22.5265L15.476 8.96457L9.6322 12.3338L33.1193 25.8941Z" fill="#FFD800"/>
<path d="M14.0653 25.9631L8.21875 22.5955L31.7087 9.03357L37.5524 12.4028L14.0653 25.9631Z" fill="#FFD800"/>
<path d="M47.8345 21.848L46.4782 18.5188L52.1967 16.7008L25.5036 11.8867L21.1445 17.0345L47.8345 21.848Z" fill="#F0C419"/>
<path d="M23.3087 39.085L20.536 36.7969L17.0941 41.7124L20.4656 14.7989L26.6797 12.1747L23.3087 39.085Z" fill="#F0C419"/>
<path d="M25.5481 14.3495C25.1418 13.847 25.0206 13.1739 25.224 12.5607C26.2398 9.49712 29.117 1.65263 33.9112 0.199516C38.391 -1.1583 44.0293 4.66055 40.4567 10.1857C37.6118 14.5853 30.8665 15.8821 28.236 16.2279C27.5801 16.3141 26.9276 16.056 26.5117 15.5415L25.5481 14.3495Z" fill="#FFD800"/>
<path d="M37.2795 6.50943C39.3906 5.35425 40.5031 6.67124 39.7822 8.80198C39.0612 10.9328 35.372 12.9639 33.1812 14.0357C30.9903 15.1076 27.9822 15.4945 27.9822 15.4945C27.9822 15.4945 35.1683 7.66461 37.2795 6.50943Z" fill="#DCA700"/>
<path d="M18.3774 14.0483C19.1075 13.4718 19.9409 13.1651 20.7761 13.0993C21.8882 13.0116 22.8762 12.4413 23.5082 11.522C23.9829 10.8315 24.6653 10.263 25.5299 9.91904C27.3573 9.19195 29.5 9.80637 30.6708 11.3865C32.2704 13.5453 31.6012 16.5447 29.3428 17.8486C28.733 18.2007 28.0745 18.3897 27.4167 18.43C26.3477 18.4954 25.3955 19.0451 24.8043 19.9382C24.4406 20.4877 23.9476 20.9634 23.3378 21.3155C21.0793 22.6194 18.147 21.6992 17.0774 19.2342C16.2946 17.43 16.834 15.2673 18.3774 14.0483Z" fill="#FFE252"/>
<path d="M20.0425 16.6525C19.6996 16.1049 19.1026 15.7713 18.4565 15.764C15.2291 15.7278 6.8753 15.8962 3.94146 19.9568C1.20003 23.751 4.86778 30.9759 11.2547 29.3952C16.3404 28.1365 19.7613 22.18 20.9441 19.8053C21.2391 19.2131 21.2072 18.5122 20.8561 17.9515L20.0425 16.6525Z" fill="#FFD800"/>
<path d="M8.81236 25.1946C7.03317 26.815 7.91653 28.2956 10.1659 28.3071C12.4154 28.3186 15.5363 25.4909 17.2626 23.768C18.989 22.045 20.3336 19.3265 20.3336 19.3265C20.3336 19.3265 10.5917 23.5741 8.81236 25.1946Z" fill="#DCA700"/>
</svg>
