<svg width="79" height="79" viewBox="0 0 79 79" fill="none" xmlns="http://www.w3.org/2000/svg">
<path d="M39.3 78.6C17.6053 78.6 0 60.9947 0 39.3C0 17.6053 17.6053 0 39.3 0C60.9947 0 78.6 17.6053 78.6 39.3C78.6 60.9947 60.9947 78.6 39.3 78.6Z" fill="#A50064"/>
<path d="M49.9741 21.6254C45.6074 21.6254 42.0032 25.1603 42.0032 29.5963C42.0032 33.9629 45.5381 37.5672 49.9741 37.5672C54.3407 37.5672 57.945 34.0322 57.945 29.5963C57.945 25.2296 54.4101 21.6254 49.9741 21.6254ZM49.9741 32.9926C48.1026 32.9926 46.5778 31.4677 46.5778 29.5963C46.5778 27.7248 48.1026 26.2 49.9741 26.2C51.8455 26.2 53.3704 27.7248 53.3704 29.5963C53.3704 31.4677 51.8455 32.9926 49.9741 32.9926Z" fill="white"/>
<path d="M33.755 21.6254C32.4381 21.6254 31.1905 22.0412 30.1508 22.8037C29.1804 22.0412 27.9328 21.6254 26.5465 21.6254C23.2196 21.6254 20.5857 24.3285 20.5857 27.5862V37.5672H25.1603V27.5862C25.1603 26.8238 25.7841 26.2693 26.4772 26.2693C27.2397 26.2693 27.7942 26.8931 27.7942 27.5862V37.5672H32.3688V27.5862C32.3688 26.8238 32.9926 26.2693 33.6857 26.2693C34.4481 26.2693 35.0026 26.8931 35.0026 27.5862V37.5672H39.5772V27.6555C39.7159 24.3285 37.082 21.6254 33.755 21.6254Z" fill="white"/>
<path d="M49.9741 41.0327C45.6074 41.0327 42.0032 44.5676 42.0032 49.0036C42.0032 53.3703 45.5381 56.9745 49.9741 56.9745C54.3407 56.9745 57.945 53.4396 57.945 49.0036C57.945 44.5676 54.4101 41.0327 49.9741 41.0327ZM49.9741 52.3306C48.1026 52.3306 46.5778 50.8057 46.5778 48.9343C46.5778 47.0629 48.1026 45.538 49.9741 45.538C51.8455 45.538 53.3704 47.0629 53.3704 48.9343C53.3704 50.875 51.8455 52.3306 49.9741 52.3306Z" fill="white"/>
<path d="M33.755 41.0327C32.4381 41.0327 31.1905 41.4486 30.1508 42.211C29.1804 41.4486 27.9328 41.0327 26.5465 41.0327C23.2196 41.0327 20.5857 43.7359 20.5857 46.9936V56.9745H25.1603V46.9242C25.1603 46.1618 25.7841 45.6073 26.4772 45.6073C27.2397 45.6073 27.7942 46.2311 27.7942 46.9242V56.9052H32.3688V46.9242C32.3688 46.1618 32.9926 45.6073 33.6857 45.6073C34.4481 45.6073 35.0026 46.2311 35.0026 46.9242V56.9052H39.5772V46.9936C39.7159 43.6666 37.082 41.0327 33.755 41.0327Z" fill="white"/>
</svg>
