<svg width="59" height="12" viewBox="0 0 59 12" fill="none" xmlns="http://www.w3.org/2000/svg">
<path d="M3.56836 9.11719C2.63867 9.11719 1.88086 8.83203 1.29492 8.26172C0.712891 7.69141 0.421875 6.93164 0.421875 5.98242V5.81836C0.421875 5.18164 0.544922 4.61328 0.791016 4.11328C1.03711 3.60938 1.38477 3.22266 1.83398 2.95312C2.28711 2.67969 2.80273 2.54297 3.38086 2.54297C4.24805 2.54297 4.92969 2.81641 5.42578 3.36328C5.92578 3.91016 6.17578 4.68555 6.17578 5.68945V6.38086H2.13867C2.19336 6.79492 2.35742 7.12695 2.63086 7.37695C2.9082 7.62695 3.25781 7.75195 3.67969 7.75195C4.33203 7.75195 4.8418 7.51562 5.20898 7.04297L6.04102 7.97461C5.78711 8.33398 5.44336 8.61523 5.00977 8.81836C4.57617 9.01758 4.0957 9.11719 3.56836 9.11719ZM3.375 3.91406C3.03906 3.91406 2.76562 4.02734 2.55469 4.25391C2.34766 4.48047 2.21484 4.80469 2.15625 5.22656H4.51172V5.0918C4.50391 4.7168 4.40234 4.42773 4.20703 4.22461C4.01172 4.01758 3.73438 3.91406 3.375 3.91406Z" fill="#F4831F"/>
<path d="M9.55078 0.46875L11.7422 6.65625L13.9219 0.46875H16.2305V9H14.4668V6.66797L14.6426 2.64258L12.3398 9H11.1328L8.83594 2.64844L9.01172 6.66797V9H7.25391V0.46875H9.55078ZM21.3281 9C21.25 8.84766 21.1934 8.6582 21.1582 8.43164C20.748 8.88867 20.2148 9.11719 19.5586 9.11719C18.9375 9.11719 18.4219 8.9375 18.0117 8.57812C17.6055 8.21875 17.4023 7.76562 17.4023 7.21875C17.4023 6.54688 17.6504 6.03125 18.1465 5.67188C18.6465 5.3125 19.3672 5.13086 20.3086 5.12695H21.0879V4.76367C21.0879 4.4707 21.0117 4.23633 20.8594 4.06055C20.7109 3.88477 20.4746 3.79688 20.1504 3.79688C19.8652 3.79688 19.6406 3.86523 19.4766 4.00195C19.3164 4.13867 19.2363 4.32617 19.2363 4.56445H17.543C17.543 4.19727 17.6562 3.85742 17.8828 3.54492C18.1094 3.23242 18.4297 2.98828 18.8438 2.8125C19.2578 2.63281 19.7227 2.54297 20.2383 2.54297C21.0195 2.54297 21.6387 2.74023 22.0957 3.13477C22.5566 3.52539 22.7871 4.07617 22.7871 4.78711V7.53516C22.791 8.13672 22.875 8.5918 23.0391 8.90039V9H21.3281ZM19.9277 7.82227C20.1777 7.82227 20.4082 7.76758 20.6191 7.6582C20.8301 7.54492 20.9863 7.39453 21.0879 7.20703V6.11719H20.4551C19.6074 6.11719 19.1562 6.41016 19.1016 6.99609L19.0957 7.0957C19.0957 7.30664 19.1699 7.48047 19.3184 7.61719C19.4668 7.75391 19.6699 7.82227 19.9277 7.82227ZM23.8418 5.7832C23.8418 4.81055 24.0723 4.02734 24.5332 3.43359C24.998 2.83984 25.623 2.54297 26.4082 2.54297C27.1035 2.54297 27.6445 2.78125 28.0312 3.25781L28.1016 2.66016H29.6367V8.78906C29.6367 9.34375 29.5098 9.82617 29.2559 10.2363C29.0059 10.6465 28.6523 10.959 28.1953 11.1738C27.7383 11.3887 27.2031 11.4961 26.5898 11.4961C26.125 11.4961 25.6719 11.4023 25.2305 11.2148C24.7891 11.0312 24.4551 10.793 24.2285 10.5L24.9785 9.46875C25.4004 9.94141 25.9121 10.1777 26.5137 10.1777C26.9629 10.1777 27.3125 10.0566 27.5625 9.81445C27.8125 9.57617 27.9375 9.23633 27.9375 8.79492V8.45508C27.5469 8.89648 27.0332 9.11719 26.3965 9.11719C25.6348 9.11719 25.0176 8.82031 24.5449 8.22656C24.0762 7.62891 23.8418 6.83789 23.8418 5.85352V5.7832ZM25.5352 5.90625C25.5352 6.48047 25.6504 6.93164 25.8809 7.25977C26.1113 7.58398 26.4277 7.74609 26.8301 7.74609C27.3457 7.74609 27.7148 7.55273 27.9375 7.16602V4.5C27.7109 4.11328 27.3457 3.91992 26.8418 3.91992C26.4355 3.91992 26.1152 4.08594 25.8809 4.41797C25.6504 4.75 25.5352 5.24609 25.5352 5.90625ZM34.6172 9C34.5391 8.84766 34.4824 8.6582 34.4473 8.43164C34.0371 8.88867 33.5039 9.11719 32.8477 9.11719C32.2266 9.11719 31.7109 8.9375 31.3008 8.57812C30.8945 8.21875 30.6914 7.76562 30.6914 7.21875C30.6914 6.54688 30.9395 6.03125 31.4355 5.67188C31.9355 5.3125 32.6562 5.13086 33.5977 5.12695H34.377V4.76367C34.377 4.4707 34.3008 4.23633 34.1484 4.06055C34 3.88477 33.7637 3.79688 33.4395 3.79688C33.1543 3.79688 32.9297 3.86523 32.7656 4.00195C32.6055 4.13867 32.5254 4.32617 32.5254 4.56445H30.832C30.832 4.19727 30.9453 3.85742 31.1719 3.54492C31.3984 3.23242 31.7188 2.98828 32.1328 2.8125C32.5469 2.63281 33.0117 2.54297 33.5273 2.54297C34.3086 2.54297 34.9277 2.74023 35.3848 3.13477C35.8457 3.52539 36.0762 4.07617 36.0762 4.78711V7.53516C36.0801 8.13672 36.1641 8.5918 36.3281 8.90039V9H34.6172ZM33.2168 7.82227C33.4668 7.82227 33.6973 7.76758 33.9082 7.6582C34.1191 7.54492 34.2754 7.39453 34.377 7.20703V6.11719H33.7441C32.8965 6.11719 32.4453 6.41016 32.3906 6.99609L32.3848 7.0957C32.3848 7.30664 32.459 7.48047 32.6074 7.61719C32.7559 7.75391 32.959 7.82227 33.2168 7.82227ZM39.3223 7.63477H42.4219V9H37.1602V7.96875L40.1426 4.03125H37.248V2.66016H42.3281V3.66211L39.3223 7.63477ZM45.2695 9H43.5703V2.66016H45.2695V9ZM43.4707 1.01953C43.4707 0.765625 43.5547 0.556641 43.7227 0.392578C43.8945 0.228516 44.127 0.146484 44.4199 0.146484C44.709 0.146484 44.9395 0.228516 45.1113 0.392578C45.2832 0.556641 45.3691 0.765625 45.3691 1.01953C45.3691 1.27734 45.2812 1.48828 45.1055 1.65234C44.9336 1.81641 44.7051 1.89844 44.4199 1.89844C44.1348 1.89844 43.9043 1.81641 43.7285 1.65234C43.5566 1.48828 43.4707 1.27734 43.4707 1.01953ZM48.2285 2.66016L48.2812 3.39258C48.7344 2.82617 49.3418 2.54297 50.1035 2.54297C50.7754 2.54297 51.2754 2.74023 51.6035 3.13477C51.9316 3.5293 52.0996 4.11914 52.1074 4.9043V9H50.4141V4.94531C50.4141 4.58594 50.3359 4.32617 50.1797 4.16602C50.0234 4.00195 49.7637 3.91992 49.4004 3.91992C48.9238 3.91992 48.5664 4.12305 48.3281 4.5293V9H46.6348V2.66016H48.2285ZM56.3145 9.11719C55.3848 9.11719 54.627 8.83203 54.041 8.26172C53.459 7.69141 53.168 6.93164 53.168 5.98242V5.81836C53.168 5.18164 53.291 4.61328 53.5371 4.11328C53.7832 3.60938 54.1309 3.22266 54.5801 2.95312C55.0332 2.67969 55.5488 2.54297 56.127 2.54297C56.9941 2.54297 57.6758 2.81641 58.1719 3.36328C58.6719 3.91016 58.9219 4.68555 58.9219 5.68945V6.38086H54.8848C54.9395 6.79492 55.1035 7.12695 55.377 7.37695C55.6543 7.62695 56.0039 7.75195 56.4258 7.75195C57.0781 7.75195 57.5879 7.51562 57.9551 7.04297L58.7871 7.97461C58.5332 8.33398 58.1895 8.61523 57.7559 8.81836C57.3223 9.01758 56.8418 9.11719 56.3145 9.11719ZM56.1211 3.91406C55.7852 3.91406 55.5117 4.02734 55.3008 4.25391C55.0938 4.48047 54.9609 4.80469 54.9023 5.22656H57.2578V5.0918C57.25 4.7168 57.1484 4.42773 56.9531 4.22461C56.7578 4.01758 56.4805 3.91406 56.1211 3.91406Z" fill="#A50064"/>
</svg>
