<svg width="15" height="16" viewBox="0 0 15 16" fill="none" xmlns="http://www.w3.org/2000/svg">
<path d="M0 14.5C0 15.3281 0.719866 16 1.60714 16H13.3929C14.2801 16 15 15.3281 15 14.5V6H0V14.5ZM10.7143 8.375C10.7143 8.16875 10.8951 8 11.1161 8H12.4554C12.6763 8 12.8571 8.16875 12.8571 8.375V9.625C12.8571 9.83125 12.6763 10 12.4554 10H11.1161C10.8951 10 10.7143 9.83125 10.7143 9.625V8.375ZM10.7143 12.375C10.7143 12.1687 10.8951 12 11.1161 12H12.4554C12.6763 12 12.8571 12.1687 12.8571 12.375V13.625C12.8571 13.8313 12.6763 14 12.4554 14H11.1161C10.8951 14 10.7143 13.8313 10.7143 13.625V12.375ZM6.42857 8.375C6.42857 8.16875 6.60938 8 6.83036 8H8.16964C8.39062 8 8.57143 8.16875 8.57143 8.375V9.625C8.57143 9.83125 8.39062 10 8.16964 10H6.83036C6.60938 10 6.42857 9.83125 6.42857 9.625V8.375ZM6.42857 12.375C6.42857 12.1687 6.60938 12 6.83036 12H8.16964C8.39062 12 8.57143 12.1687 8.57143 12.375V13.625C8.57143 13.8313 8.39062 14 8.16964 14H6.83036C6.60938 14 6.42857 13.8313 6.42857 13.625V12.375ZM2.14286 8.375C2.14286 8.16875 2.32366 8 2.54464 8H3.88393C4.10491 8 4.28571 8.16875 4.28571 8.375V9.625C4.28571 9.83125 4.10491 10 3.88393 10H2.54464C2.32366 10 2.14286 9.83125 2.14286 9.625V8.375ZM2.14286 12.375C2.14286 12.1687 2.32366 12 2.54464 12H3.88393C4.10491 12 4.28571 12.1687 4.28571 12.375V13.625C4.28571 13.8313 4.10491 14 3.88393 14H2.54464C2.32366 14 2.14286 13.8313 2.14286 13.625V12.375ZM13.3929 2H11.7857V0.5C11.7857 0.225 11.5446 0 11.25 0H10.1786C9.88393 0 9.64286 0.225 9.64286 0.5V2H5.35714V0.5C5.35714 0.225 5.11607 0 4.82143 0H3.75C3.45536 0 3.21429 0.225 3.21429 0.5V2H1.60714C0.719866 2 0 2.67188 0 3.5V5H15V3.5C15 2.67188 14.2801 2 13.3929 2Z" fill="#2F80ED"/>
</svg>
