<svg width="17" height="14" viewBox="0 0 17 14" fill="none" xmlns="http://www.w3.org/2000/svg">
<path d="M16.575 12.25H0.425C0.190187 12.25 0 12.4458 0 12.6875V13.5625C0 13.8042 0.190187 14 0.425 14H16.575C16.8098 14 17 13.8042 17 13.5625V12.6875C17 12.4458 16.8098 12.25 16.575 12.25ZM1.19027 5.62353L3.54742 7.81103C3.74083 7.9908 3.97258 8.12128 4.22397 8.19192L11.8633 10.3343C12.5667 10.5315 13.3126 10.5727 14.0149 10.3715C14.803 10.1454 15.1688 9.79153 15.27 9.39505C15.3717 8.99856 15.224 8.50063 14.6492 7.89224C14.1371 7.35028 13.4712 6.99564 12.7678 6.79849L10.1777 6.07224L7.51187 0.826348C7.47177 0.667481 7.35383 0.543341 7.20216 0.500685L5.4732 0.0158807C5.1927 -0.0628692 4.91805 0.161349 4.92309 0.465411L6.19597 4.95552L3.48128 4.19427L2.74842 2.33818C2.69716 2.20447 2.58878 2.10385 2.4557 2.06666L1.40038 1.77053C1.12572 1.69342 0.855047 1.90724 0.85 2.20474L0.856109 4.98779C0.861156 5.23142 1.01628 5.46193 1.19027 5.62353Z" fill="#2F80ED"/>
</svg>
