<svg width="14" height="18" viewBox="0 0 14 18" fill="none" xmlns="http://www.w3.org/2000/svg">
<path d="M5.25 3.00002L5.25 6.57159L0.22039 9.85598C0.153427 9.89978 0.0977782 9.96302 0.0590765 10.0393C0.0203749 10.1156 -5.1787e-06 10.2022 -3.36138e-07 10.2904L-2.46665e-07 12.3372C-2.32145e-07 12.6694 0.278086 12.9091 0.557539 12.8179L5.25 11.2857L5.25 14.5001L3.675 15.8501C3.5648 15.9444 3.5 16.0929 3.5 16.2501L3.5 17.4998C3.5 17.8251 3.76742 18.0638 4.04359 17.9848L7 17.0001L9.95641 17.9848C10.2326 18.0638 10.5 17.8251 10.5 17.4998L10.5 16.2501C10.5 16.0926 10.4352 15.9444 10.325 15.8501L8.75 14.5001L8.75 11.2857L13.4422 12.8179C13.7216 12.9091 14 12.6694 14 12.3372L14 10.2904C14 10.111 13.9158 9.94536 13.7796 9.85629L8.75 6.57159L8.75 3.00001C8.75 1.89532 7.9666 -3.48231e-07 7 -3.0598e-07C6.0334 -2.63728e-07 5.25 1.89532 5.25 3.00002Z" fill="#A50064"/>
</svg>
