<svg width="366" height="122" viewBox="0 0 366 122" fill="none" xmlns="http://www.w3.org/2000/svg">
<path d="M3.5 66.38C4.76 66.3333 5.71667 66.1933 6.37 65.96C7.02333 65.68 7.53667 65.12 7.91 64.28C8.28333 63.44 8.47 62.11 8.47 60.29V33.48C8.47 30.8667 8.56333 28.7667 8.75 27.18L3.5 27.39V22L22.89 21.86C28.49 21.8133 32.8767 22.8167 36.05 24.87C39.2233 26.9233 40.81 29.9333 40.81 33.9C40.81 36.1867 39.9467 38.31 38.22 40.27C36.54 42.1833 34.0433 43.5833 30.73 44.47V44.54C35.21 45.24 38.5933 46.7333 40.88 49.02C43.1667 51.3067 44.31 53.99 44.31 57.07C44.31 61.5033 42.7233 64.9333 39.55 67.36C36.4233 69.7867 32.34 71 27.3 71H3.5V66.38ZM22.26 43.42C25.0133 43.3733 26.9967 42.51 28.21 40.83C29.47 39.1033 30.1 36.84 30.1 34.04C30.1 31.52 29.4 29.6767 28 28.51C26.6 27.3433 24.8967 26.76 22.89 26.76C21.91 26.76 21.1167 26.8767 20.51 27.11C19.95 27.3433 19.4833 27.9033 19.11 28.79C18.7833 29.63 18.62 30.9133 18.62 32.64V43.49L22.26 43.42ZM18.34 66.03C21.42 66.03 23.6833 66.0067 25.13 65.96C27.8833 65.82 29.9367 64.9567 31.29 63.37C32.6433 61.7367 33.32 59.5667 33.32 56.86C33.32 53.8733 32.4567 51.7267 30.73 50.42C29.0033 49.0667 26.8567 48.39 24.29 48.39C21.7233 48.39 19.8333 48.4133 18.62 48.46V59.87C18.62 62.39 18.5267 64.4433 18.34 66.03ZM47.3457 66.45C48.6057 66.45 49.5157 66.2167 50.0757 65.75C50.6824 65.2367 51.0557 64.56 51.1957 63.72C51.3824 62.88 51.4757 61.7133 51.4757 60.22V31.45C51.4757 29.21 51.569 27.18 51.7557 25.36L46.8557 25.57V20.25C49.7957 20.25 52.1757 20.04 53.9957 19.62C55.8157 19.2 57.029 18.71 57.6357 18.15H61.4157V59.73C61.4157 61.97 61.3224 64.0233 61.1357 65.89C62.6757 65.75 64.1924 65.68 65.6857 65.68V71H47.3457V66.45ZM87.4223 72.12C84.0157 72.12 80.959 71.3967 78.2523 69.95C75.5457 68.5033 73.4223 66.4267 71.8823 63.72C70.3423 61.0133 69.5723 57.8633 69.5723 54.27C69.5723 50.49 70.3657 47.13 71.9523 44.19C73.539 41.25 75.6623 38.9633 78.3223 37.33C81.029 35.6967 83.9923 34.88 87.2123 34.88C90.5723 34.88 93.5823 35.6033 96.2423 37.05C98.9023 38.4967 101.002 40.5967 102.542 43.35C104.082 46.0567 104.852 49.23 104.852 52.87C104.852 56.7433 104.106 60.1267 102.612 63.02C101.166 65.9133 99.1123 68.1533 96.4523 69.74C93.839 71.3267 90.829 72.12 87.4223 72.12ZM87.5623 67.15C90.129 67.15 91.9257 65.96 92.9523 63.58C93.979 61.2 94.4923 58.2133 94.4923 54.62C94.4923 50.6067 93.909 47.13 92.7423 44.19C91.5757 41.25 89.7323 39.78 87.2123 39.78C84.6457 39.78 82.779 40.9933 81.6123 43.42C80.4457 45.8467 79.8623 48.8333 79.8623 52.38C79.8623 56.44 80.4923 59.9167 81.7523 62.81C83.0123 65.7033 84.949 67.15 87.5623 67.15ZM124.971 89.97C119.324 89.97 115.241 89.1067 112.721 87.38C110.247 85.6533 109.011 83.46 109.011 80.8C109.011 79.1667 109.524 77.6267 110.551 76.18C111.624 74.78 113.327 73.6367 115.661 72.75C113.841 72.2367 112.511 71.4433 111.671 70.37C110.877 69.2967 110.481 68.0367 110.481 66.59C110.481 65.19 111.017 63.7667 112.091 62.32C113.211 60.8733 114.937 59.8 117.271 59.1V59.03C115.171 58.19 113.491 56.8833 112.231 55.11C111.017 53.29 110.411 51.1433 110.411 48.67C110.411 46.0567 111.134 43.7 112.581 41.6C114.074 39.5 116.011 37.8667 118.391 36.7C120.817 35.4867 123.361 34.88 126.021 34.88C127.421 34.88 128.891 35.0667 130.431 35.44C131.971 35.7667 133.277 36.3033 134.351 37.05C135.237 34.6233 136.427 32.6167 137.921 31.03C139.414 29.3967 141.187 28.58 143.241 28.58C144.781 28.58 145.971 28.9767 146.811 29.77C147.651 30.5633 148.071 31.66 148.071 33.06C148.071 34.1333 147.721 35.1133 147.021 36C146.367 36.8867 145.317 37.33 143.871 37.33C143.124 37.33 142.377 37.0733 141.631 36.56C140.931 36 140.511 35.3467 140.371 34.6C139.764 34.7867 139.157 35.3933 138.551 36.42C137.944 37.4 137.594 38.31 137.501 39.15C138.807 40.3167 139.811 41.67 140.511 43.21C141.257 44.75 141.631 46.4067 141.631 48.18C141.631 50.7933 140.884 53.1733 139.391 55.32C137.897 57.42 135.937 59.0767 133.511 60.29C131.084 61.4567 128.494 62.04 125.741 62.04L123.781 61.97C122.754 61.8767 122.007 61.83 121.541 61.83C120.514 61.83 119.651 62.0167 118.951 62.39C118.251 62.7633 117.901 63.2767 117.901 63.93C117.901 64.77 118.531 65.3767 119.791 65.75C121.097 66.0767 123.454 66.3333 126.861 66.52C132.741 66.8467 137.197 67.8267 140.231 69.46C143.264 71.0933 144.781 73.8233 144.781 77.65C144.781 80.17 143.801 82.3633 141.841 84.23C139.927 86.0967 137.431 87.52 134.351 88.5C131.317 89.48 128.191 89.97 124.971 89.97ZM126.021 57.35C127.794 57.35 129.194 56.5567 130.221 54.97C131.294 53.3833 131.831 51.54 131.831 49.44C131.831 46.78 131.317 44.47 130.291 42.51C129.264 40.55 127.817 39.57 125.951 39.57C124.177 39.57 122.754 40.3867 121.681 42.02C120.607 43.6533 120.071 45.59 120.071 47.83C120.071 50.4433 120.607 52.6833 121.681 54.55C122.754 56.4167 124.201 57.35 126.021 57.35ZM127.001 85.14C129.101 85.14 130.897 84.86 132.391 84.3C133.931 83.74 135.097 83.0167 135.891 82.13C136.684 81.29 137.081 80.4267 137.081 79.54C137.081 78.0933 136.241 76.9967 134.561 76.25C132.927 75.5033 130.407 75.06 127.001 74.92C126.627 74.8733 126.021 74.85 125.181 74.85C124.714 74.8033 123.897 74.7333 122.731 74.64C121.564 74.5933 120.607 74.5 119.861 74.36C119.161 74.92 118.601 75.6433 118.181 76.53C117.807 77.4167 117.621 78.3033 117.621 79.19C117.621 81.01 118.461 82.4567 120.141 83.53C121.867 84.6033 124.154 85.14 127.001 85.14Z" fill="#212121"/>
<path d="M3.40909 116H4.81818V110.795H9.86364V109.545H4.81818V105.614H10.3864V104.364H3.40909V116ZM12.5241 116H13.8651V110.477C13.8651 109.295 14.7969 108.432 16.0696 108.432C16.4276 108.432 16.7969 108.5 16.8878 108.523V107.159C16.7344 107.148 16.3821 107.136 16.1832 107.136C15.1378 107.136 14.2287 107.727 13.9105 108.591H13.8196V107.273H12.5241V116ZM21.7571 116.182C24.1207 116.182 25.7116 114.386 25.7116 111.682C25.7116 108.955 24.1207 107.159 21.7571 107.159C19.3935 107.159 17.8026 108.955 17.8026 111.682C17.8026 114.386 19.3935 116.182 21.7571 116.182ZM21.7571 114.977C19.9616 114.977 19.1435 113.432 19.1435 111.682C19.1435 109.932 19.9616 108.364 21.7571 108.364C23.5526 108.364 24.3707 109.932 24.3707 111.682C24.3707 113.432 23.5526 114.977 21.7571 114.977ZM27.7585 116H29.0994V110.545C29.0994 109.267 30.0312 108.364 31.0767 108.364C32.0938 108.364 32.804 109.028 32.804 110.023V116H34.1676V110.318C34.1676 109.193 34.8722 108.364 36.0994 108.364C37.054 108.364 37.8722 108.869 37.8722 110.159V116H39.2131V110.159C39.2131 108.108 38.1108 107.159 36.554 107.159C35.304 107.159 34.3892 107.733 33.9403 108.636H33.8494C33.4176 107.705 32.6562 107.159 31.5085 107.159C30.3722 107.159 29.5312 107.705 29.1676 108.636H29.054V107.273H27.7585V116ZM46.8239 104.364H45.3466L49.6193 116H51.0739L55.3466 104.364H53.8693L50.4148 114.159H50.2784L46.8239 104.364ZM56.9773 116H58.3182V107.273H56.9773V116ZM57.0455 106.091H58.2273L60 103.455H58.4318L57.0455 106.091ZM65.456 104.364V116H66.7741V107.159H66.8878L70.5241 116H71.7969L75.4332 107.159H75.5469V116H76.8651V104.364H75.1832L71.2287 114.023H71.0923L67.1378 104.364H65.456ZM83.054 116.182C85.4176 116.182 87.0085 114.386 87.0085 111.682C87.0085 108.955 85.4176 107.159 83.054 107.159C80.6903 107.159 79.0994 108.955 79.0994 111.682C79.0994 114.386 80.6903 116.182 83.054 116.182ZM83.054 114.977C81.2585 114.977 80.4403 113.432 80.4403 111.682C80.4403 109.932 81.2585 108.364 83.054 108.364C84.8494 108.364 85.6676 109.932 85.6676 111.682C85.6676 113.432 84.8494 114.977 83.054 114.977ZM89.2372 104.364V116H90.5554V107.159H90.669L94.3054 116H95.5781L99.2145 107.159H99.3281V116H100.646V104.364H98.9645L95.0099 114.023H94.8736L90.919 104.364H89.2372ZM106.835 116.182C109.199 116.182 110.79 114.386 110.79 111.682C110.79 108.955 109.199 107.159 106.835 107.159C104.472 107.159 102.881 108.955 102.881 111.682C102.881 114.386 104.472 116.182 106.835 116.182ZM106.835 114.977C105.04 114.977 104.222 113.432 104.222 111.682C104.222 109.932 105.04 108.364 106.835 108.364C108.631 108.364 109.449 109.932 109.449 111.682C109.449 113.432 108.631 114.977 106.835 114.977ZM119.314 116H120.632L122.541 109.295H122.678L124.587 116H125.905L128.564 107.273H127.155L125.268 113.932H125.178L123.337 107.273H121.905L120.041 113.955H119.95L118.064 107.273H116.655L119.314 116ZM130.337 116H131.678V107.273H130.337V116ZM131.018 105.818C131.541 105.818 131.973 105.409 131.973 104.909C131.973 104.409 131.541 104 131.018 104C130.496 104 130.064 104.409 130.064 104.909C130.064 105.409 130.496 105.818 131.018 105.818ZM137.929 107.273H136.065V105.182H134.724V107.273H133.406V108.409H134.724V113.864C134.724 115.386 135.952 116.114 137.088 116.114C137.588 116.114 137.906 116.023 138.088 115.955L137.815 114.75C137.702 114.773 137.52 114.818 137.224 114.818C136.634 114.818 136.065 114.636 136.065 113.5V108.409H137.929V107.273ZM141.474 110.75C141.474 109.227 142.446 108.364 143.77 108.364C145.031 108.364 145.793 109.159 145.793 110.545V116H147.134V110.455C147.134 108.21 145.94 107.159 144.156 107.159C142.781 107.159 141.997 107.733 141.588 108.636H141.474V104.364H140.134V116H141.474V110.75ZM155.428 104.364H154.087V116H155.428V104.364ZM161.429 116.182C163.793 116.182 165.384 114.386 165.384 111.682C165.384 108.955 163.793 107.159 161.429 107.159C159.065 107.159 157.474 108.955 157.474 111.682C157.474 114.386 159.065 116.182 161.429 116.182ZM161.429 114.977C159.634 114.977 158.815 113.432 158.815 111.682C158.815 109.932 159.634 108.364 161.429 108.364C163.224 108.364 164.043 109.932 164.043 111.682C164.043 113.432 163.224 114.977 161.429 114.977ZM174.254 107.273H172.8L170.391 114.227H170.3L167.891 107.273H166.436L169.663 116H171.027L174.254 107.273ZM179.371 116.182C181.143 116.182 182.439 115.295 182.848 113.977L181.553 113.614C181.212 114.523 180.422 114.977 179.371 114.977C177.797 114.977 176.712 113.96 176.649 112.091H182.984V111.523C182.984 108.273 181.053 107.159 179.234 107.159C176.871 107.159 175.303 109.023 175.303 111.705C175.303 114.386 176.848 116.182 179.371 116.182ZM176.649 110.932C176.74 109.574 177.7 108.364 179.234 108.364C180.689 108.364 181.621 109.455 181.621 110.932H176.649Z" fill="#757575"/>
<path d="M266.968 38.5339C266.603 38.5339 266.305 38.2533 266.28 37.8877C266.229 37.352 266.212 36.2637 266.603 34.8607C267.104 33.0752 268.448 31.8083 268.507 31.7573C268.788 31.5022 269.222 31.5107 269.477 31.7913C269.74 32.0719 269.723 32.5055 269.443 32.7691C269.434 32.7776 268.32 33.8404 267.921 35.2434C267.572 36.4848 267.606 37.42 267.64 37.7601C267.64 37.7857 267.649 37.8282 267.649 37.8537C267.657 38.2278 267.351 38.5339 266.968 38.5339Z" fill="#A50064"/>
<path d="M253.568 66.312L247.565 69.0499L250.567 76.4897L258.78 74.7466L253.568 66.312Z" fill="#F79876"/>
<path d="M247.565 69.0499C247.565 69.0499 244.436 70.2913 238.306 75.0102C232.175 79.7377 227.644 84.8223 227.644 84.8223L230.22 88.1298C230.22 88.1298 242.778 81.6168 246.154 79.7292C248.203 78.5814 250.567 76.4812 250.567 76.4812C250.567 76.4812 253.262 72.0088 253.169 71.7027C253.083 71.4051 247.565 69.0499 247.565 69.0499Z" fill="#F79876"/>
<path d="M222.839 83.9721C223.231 83.7255 227.099 82.7307 227.363 82.9007C227.626 83.0708 229.795 91.803 229.837 92.5172C229.854 92.8233 225.467 94.0647 225.016 93.7076C224.446 93.274 222.448 84.2271 222.839 83.9721Z" fill="#A50064"/>
<path d="M226.377 84.4227C225.467 84.7883 224.557 85.1539 223.639 85.494C222.976 85.7406 222.194 85.8851 221.777 86.5228C221.582 86.8204 221.488 87.2541 221.641 87.5857C221.675 87.6707 221.735 87.7387 221.794 87.7897C221.573 87.9598 221.377 88.1553 221.241 88.4019C221.046 88.759 221.037 89.2947 221.479 89.4647C221.25 89.6603 221.063 89.9069 221.012 90.2045C220.918 90.7571 221.394 91.1823 221.888 91.3013C222.007 91.3268 222.143 91.3438 222.279 91.3523C222.032 91.5649 221.879 91.854 221.981 92.2111C222.126 92.7043 222.831 92.9593 223.265 93.0359C223.852 93.1379 225.238 93.0529 225.816 92.7978C226.496 92.5002 227.38 91.6924 228.486 90.6381C229.123 90.0259 231.138 87.5261 231.138 87.5261C231.138 87.5261 230.696 86.2337 230.297 85.6301C230.05 85.2559 229.736 84.8818 229.395 84.5927C229.183 84.4142 228.962 84.3206 228.732 84.2271C228.817 84.1931 228.911 84.1506 228.996 84.0911C229.132 83.9975 228.919 83.4534 228.919 83.4534C228.919 83.4534 227.185 84.0996 226.377 84.4227Z" fill="#F79876"/>
<path d="M222.517 91.5989C222.407 91.5989 222.313 91.5224 222.288 91.4118C222.262 91.2843 222.347 91.1653 222.466 91.1398L223.793 90.8762C223.92 90.8507 224.039 90.9357 224.065 91.0547C224.09 91.1823 224.005 91.3013 223.886 91.3268L222.56 91.5904C222.551 91.5989 222.534 91.5989 222.517 91.5989Z" fill="#EF8059"/>
<path d="M221.675 89.6858C221.573 89.6858 221.471 89.6093 221.454 89.5073C221.429 89.3797 221.505 89.2607 221.633 89.2352L223.189 88.9036C223.316 88.8781 223.435 88.9546 223.461 89.0821C223.486 89.2097 223.41 89.3287 223.282 89.3542L221.726 89.6858C221.701 89.6858 221.684 89.6858 221.675 89.6858Z" fill="#EF8059"/>
<path d="M222.058 87.9768C221.964 87.9768 221.871 87.9173 221.837 87.8152C221.803 87.6962 221.862 87.5687 221.981 87.5261C222.083 87.4921 222.823 87.3561 223.138 87.2966C223.265 87.2711 223.384 87.3561 223.401 87.4836C223.427 87.6112 223.342 87.7302 223.214 87.7472C222.729 87.8322 222.185 87.9428 222.117 87.9598C222.1 87.9768 222.075 87.9768 222.058 87.9768Z" fill="#EF8059"/>
<path d="M250.652 75.818C250.618 75.818 250.575 75.8095 250.541 75.7925C250.431 75.733 250.388 75.5884 250.448 75.4779L251.145 74.211C251.205 74.1005 251.349 74.0579 251.46 74.1175C251.57 74.177 251.613 74.3215 251.553 74.4321L250.856 75.699C250.805 75.7755 250.728 75.818 250.652 75.818Z" fill="#EF8059"/>
<path d="M311.829 40.9486L305.393 37.5476L300.495 43.8991L307.144 52.6058L311.829 40.9486Z" fill="#F79876"/>
<path d="M312.475 39.4692C312.475 41.0506 309.643 46.8154 308.767 48.55C308.767 48.5585 308.759 48.5585 308.759 48.567C308.606 48.8731 308.521 49.0516 308.521 49.0516L304.703 41.4673C304.703 41.4673 304.355 40.634 303.887 39.4947C303.581 38.7294 303.215 37.8281 302.867 36.9524C301.897 34.4866 299.27 27.642 297.697 23.5522C297.204 22.2683 296.821 21.2565 296.617 20.7378C296.524 20.4912 296.473 20.3467 296.473 20.3467L299.006 17.0732L299.185 16.8521L299.202 16.8266C299.202 16.8266 299.211 16.8351 299.219 16.8436C299.287 16.9286 299.619 17.3538 300.137 18.0425C300.596 18.6462 301.2 19.4709 301.897 20.4402C303.581 22.7955 305.792 26.0605 307.79 29.5126C311.658 36.2126 312.475 37.6071 312.475 39.4692Z" fill="#F79876"/>
<path d="M294.9 11.2999C294.9 11.2999 300.239 18.051 300.452 18.6122C300.664 19.1734 297.875 20.9249 297.229 20.8144C296.592 20.7038 295.886 20.8144 294.483 19.1393C292.068 16.2569 293.641 12.7198 293.514 12.7709C293.395 12.8304 294.9 11.2999 294.9 11.2999Z" fill="#F79876"/>
<path d="M295.309 15.6788C295.258 15.6107 295.164 15.5087 295.037 15.3727C295.028 14.9645 295.02 14.5649 295.02 14.1738C295.181 14.1398 295.266 13.9527 295.147 13.7997C295.13 13.7742 295.105 13.7487 295.079 13.7231C295.215 13.6466 295.283 13.4511 295.156 13.315C295.13 13.2895 295.105 13.2555 295.071 13.23C295.105 12.9069 295.156 12.5753 295.241 12.2522C295.249 12.2352 295.258 12.2097 295.258 12.1927C295.266 12.1587 295.266 12.1246 295.266 12.0906C295.283 12.0481 294.935 11.3934 294.901 11.3084V11.2999C294.901 11.2999 290.692 7.1846 289.944 8.1454C289.348 8.90214 290.989 9.91395 291.415 10.2966C291.789 10.6282 292.146 10.9768 292.511 11.3169C292.299 11.1383 292.086 10.9683 291.882 10.7897C291.321 10.3306 289.927 9.16572 289.085 9.53984C288.362 9.87144 289.34 11.1723 289.68 11.4359C289.195 11.3339 288.685 11.4019 288.668 11.8441C288.643 12.5073 290.887 14.1398 291.423 14.5479C291.984 14.973 292.469 15.4662 292.954 15.9593C292.579 15.6788 292.214 15.3897 291.831 15.1176C291.364 14.786 290.241 14.3183 289.935 14.854C289.697 15.2791 290.947 16.1804 291.449 16.4865C292.477 17.1157 293.124 17.7704 293.982 18.4251C294.195 18.5867 294.424 18.7567 294.68 18.9183C294.833 19.0203 295.054 18.8077 294.943 18.6547C294.901 18.5952 294.858 18.5441 294.807 18.4931C294.833 18.4506 294.841 18.3911 294.816 18.3231C294.765 18.204 294.773 18.0765 294.79 17.932C294.807 17.949 294.816 17.9575 294.833 17.966C295.088 18.204 295.428 17.8469 295.207 17.5918C295.13 17.5068 295.037 17.4303 294.952 17.3538C294.977 17.2773 294.994 17.2092 295.003 17.1327C295.062 16.7671 295.062 16.393 295.054 16.0104C295.241 16.0529 295.445 15.8658 295.309 15.6788Z" fill="#F79876"/>
<path d="M295.002 13.6806C294.951 13.6806 294.9 13.6636 294.849 13.6296L292.349 11.4954C292.256 11.4104 292.239 11.2659 292.324 11.1723C292.409 11.0788 292.553 11.0618 292.647 11.1468L295.147 13.281C295.24 13.366 295.257 13.5106 295.172 13.6041C295.13 13.6551 295.07 13.6806 295.002 13.6806Z" fill="#EF8059"/>
<path d="M293.735 15.0156C293.675 15.0156 293.607 14.99 293.565 14.939C293.556 14.9305 292.944 14.2333 292.425 13.7657C291.907 13.298 289.875 11.7335 289.858 11.725C289.756 11.6485 289.739 11.504 289.815 11.4019C289.892 11.2999 290.036 11.2829 290.138 11.3594C290.223 11.4274 292.204 12.9409 292.74 13.4256C293.276 13.9102 293.879 14.6074 293.905 14.6329C293.99 14.7265 293.981 14.871 293.888 14.956C293.837 14.9986 293.786 15.0156 293.735 15.0156Z" fill="#EF8059"/>
<path d="M296.465 13.7231L294.901 11.2999C294.901 11.2999 294.875 10.3816 295.428 10.3476C295.98 10.3136 297.902 14.0377 298.523 15.1601C299.135 16.2824 299.424 17.4898 299.424 17.4898C299.424 17.4898 297.281 15.2706 297.222 15.1176C297.154 14.9645 296.465 13.7231 296.465 13.7231Z" fill="#F79876"/>
<path d="M304.789 41.1782C304.704 41.1782 304.619 41.1272 304.576 41.0422L304.058 39.8433C304.007 39.7242 304.058 39.5882 304.177 39.5372C304.296 39.4862 304.423 39.5372 304.474 39.6562L304.993 40.8551C305.044 40.9741 304.993 41.1102 304.874 41.1612C304.849 41.1697 304.815 41.1782 304.789 41.1782Z" fill="#EF8059"/>
<path d="M297.178 99.77C296.948 98.6051 296.566 97.4487 296.175 96.3349C296.158 96.2839 296.124 96.2159 296.09 96.1308C296.005 95.9268 295.869 95.6547 295.75 95.3656C295.698 95.2466 295.647 95.1275 295.605 95C295.801 94.8469 295.945 94.6429 296.005 94.4048C296.056 94.1667 296.03 93.8861 295.877 93.58C295.01 91.803 291.413 92.2961 289.934 92.2961C286.618 92.3131 283.565 92.2196 280.283 92.8148C279.901 92.8828 279.518 92.9508 279.127 93.0189C278.021 93.2059 276.908 93.3845 275.819 93.6396C274.807 93.8691 273.949 94.2262 273.09 94.6089C273.141 94.4218 273.03 94.1497 272.809 94.1157C272.699 94.0987 272.597 94.0902 272.486 94.0732C272.444 94.0647 272.401 94.0817 272.393 94.1242C272.333 94.3368 271.678 94.6429 270.973 94.9405C270.726 95.0425 270.463 95.1445 270.225 95.2466C269.748 95.4421 269.34 95.6122 269.179 95.7312C266.832 97.4487 264.553 99.974 263.312 102.61C262.819 103.664 260.574 105.271 261.569 106.538C262.479 107.694 265.667 107.065 266.849 107.065C270.548 107.074 274.051 107.592 277.673 108.264C280.776 108.834 283.939 108.774 287.06 109.114C289.662 109.395 297.05 112.235 297.552 107.49C297.807 105.118 297.629 102.1 297.178 99.77Z" fill="#FED925"/>
<path d="M291.669 43.865C290.522 41.1272 290.122 38.1172 288.906 35.4049C287.852 33.0412 286.007 31.026 283.736 29.7761C282.138 28.9004 280.191 28.8579 278.422 29.0704C276.237 29.334 273.916 30.0142 272.215 31.4597C270.413 31.6382 268.508 33.5173 267.692 34.8352C266.587 36.6208 265.983 38.6784 265.711 40.7446C265.456 42.6151 265.558 44.4857 265.252 46.3563C265.073 47.4787 264.844 48.6095 264.775 49.7489C264.716 50.6842 264.971 52.8013 265.073 52.9034C265.175 53.0054 267.097 53.1329 267.114 52.8608C267.156 52.3252 267.088 51.8405 267.165 51.3304C267.292 50.5056 267.42 49.6809 267.717 48.8901C267.828 48.584 268.015 48.0228 268.015 48.0228C268.015 48.0228 267.683 51.8575 267.7 53.235C267.7 53.422 270.192 53.507 271.016 53.5581C271.501 53.5921 272.249 53.7111 272.377 53.507C272.504 53.2945 272.632 51.9596 272.742 51.4154C272.828 51.9 272.955 53.439 273.074 53.5836C273.193 53.7281 274.281 54.0342 275.523 54.1022C277.529 54.2213 279.307 54.4593 281.313 54.2128C282.172 54.1107 283.039 53.9237 283.864 53.6941C284.306 53.5751 284.697 53.5496 284.944 53.1669C285.148 53.0564 285.343 52.9374 285.556 52.8268C286.194 52.4782 286.848 52.3337 287.503 52.0531C288.251 51.7385 289.408 51.2538 289.96 50.6502C290.445 50.1145 290.19 49.5703 289.969 48.9411C289.714 48.2184 289.399 47.5212 289.102 46.8155C289.28 47.2151 290.913 49.8594 291.083 49.8764C291.253 49.8849 293.489 48.1674 293.489 47.8528C293.472 47.5297 292.129 44.9534 291.669 43.865Z" fill="#410099"/>
<path d="M277.656 52.4612L279.127 59.5694L285.096 61.8226L288.574 58.8807L285.836 43.5334L277.656 52.4612Z" fill="#F79876"/>
<path d="M285.955 40.3619C285.895 36.4167 283.047 33.8234 279.305 33.4918C277.197 33.3047 274.961 33.2707 273.065 34.3336C272.104 34.8692 270.964 35.6345 270.488 36.6803C269.885 37.9982 269.782 40.4045 269.859 41.8244C270.038 45.3615 271.398 49.4003 272.937 51.0838C275.7 54.0852 276.789 54.0597 279.084 52.9969C281.372 51.9341 284.041 49.6298 285.274 47.4276C286.533 45.1744 285.997 42.8702 285.955 40.3619Z" fill="#F79876"/>
<path d="M284.586 39.9283C284.586 39.9283 285.955 39.2821 286.975 40.447C287.63 41.1867 287.528 42.9637 286.729 43.9415C285.929 44.9194 285.198 45.1659 285.198 45.1659L284.586 39.9283Z" fill="#F79876"/>
<path d="M271.484 42.4621C271.28 42.4536 271.144 42.5897 271.084 42.7767C271.025 42.9808 271.033 43.2614 271.135 43.4569C271.22 43.6355 271.484 43.729 271.662 43.6185C272.011 43.3974 272.045 42.4876 271.484 42.4621Z" fill="#392832"/>
<path d="M277.742 40.8381C277.512 40.8296 277.351 40.9827 277.291 41.1867C277.223 41.4248 277.232 41.7394 277.342 41.9605C277.444 42.1645 277.734 42.2751 277.938 42.139C278.329 41.8924 278.371 40.8721 277.742 40.8381Z" fill="#392832"/>
<path d="M272.266 40.3279C271.901 39.6137 270.872 39.8433 270.302 40.0644C269.894 40.2259 269.418 40.498 269.078 40.7701C268.874 40.9316 268.313 41.6629 268.84 41.8074C268.95 41.8414 269.069 41.7989 269.18 41.7479C269.494 41.6204 269.792 41.4503 270.107 41.3228C270.481 41.1782 270.872 41.0592 271.272 40.9827C271.595 40.9231 271.935 40.9146 272.198 40.6851C272.292 40.6085 272.334 40.4555 272.266 40.3279Z" fill="#783C37"/>
<path d="M276.126 39.5712C276.118 38.7635 277.138 38.4999 277.742 38.4319C278.175 38.3808 278.728 38.4148 279.161 38.4914C279.417 38.5424 280.25 38.9335 279.859 39.2991C279.774 39.3756 279.646 39.3926 279.527 39.4012C279.187 39.4267 278.847 39.4182 278.515 39.4522C278.116 39.4947 277.716 39.5712 277.325 39.6902C277.01 39.7838 276.704 39.9368 276.364 39.8518C276.237 39.8348 276.126 39.7158 276.126 39.5712Z" fill="#783C37"/>
<path d="M278.278 53.5666C278.201 53.5666 278.125 53.5326 278.082 53.456C278.014 53.3455 278.048 53.2095 278.15 53.1414C278.193 53.1159 282.01 50.6842 282.716 49.7234C283.43 48.7371 284.094 47.3511 284.102 47.3426C284.153 47.2321 284.289 47.1811 284.408 47.2321C284.519 47.2831 284.57 47.4192 284.519 47.5382C284.493 47.5977 283.83 48.9751 283.09 49.9955C282.342 51.0328 278.558 53.4305 278.397 53.5326C278.363 53.5496 278.312 53.5666 278.278 53.5666Z" fill="#EF8059"/>
<path d="M277.12 47.079C277.052 47.028 276.967 46.9855 276.857 46.9685C276.304 46.8665 275.786 47.5212 275.275 47.6402C274.935 47.7167 274.587 47.7167 274.247 47.7848C274.017 47.8273 273.66 47.8528 273.541 48.0909C273.507 48.1674 273.498 48.2524 273.515 48.3374C273.549 48.5585 273.753 48.7711 273.923 48.8731C274.791 49.4683 275.905 49.2302 276.695 48.567C277.044 48.2694 277.58 47.3936 277.12 47.079Z" fill="white"/>
<path d="M276.687 48.567C275.896 49.2217 274.791 49.4683 273.915 48.8731C273.753 48.7626 273.549 48.5585 273.507 48.3289C273.889 48.4225 274.621 48.482 275.581 48.0824C276.33 47.7678 276.823 47.3681 277.103 47.079C277.58 47.3936 277.044 48.2694 276.687 48.567Z" fill="#D86249"/>
<path d="M285.105 36.9524C284.518 34.9713 282.707 34.036 280.786 33.4833C279.782 33.1942 278.796 33.0837 277.75 33.2027C277.223 33.2622 276.687 33.3132 276.16 33.3643C275.072 33.1687 274.392 32.9986 273.448 33.7724C273.397 33.8149 273.371 33.8574 273.363 33.9084C273.346 33.9084 273.337 33.8999 273.329 33.8999C273.286 33.8999 273.269 33.9509 273.295 33.985C273.303 33.9935 273.312 34.0105 273.32 34.019C273.176 34.104 273.04 34.206 272.904 34.3081C272.189 34.6567 271.458 34.9883 270.872 35.5494C270.064 36.3147 269.698 37.4115 269.307 38.4233C269.231 38.6444 269.571 38.7294 269.647 38.5169C270.004 37.488 270.999 36.8674 271.773 36.1786C272.198 35.796 272.606 35.3964 273.091 35.0818C273.354 34.9117 273.822 34.6567 273.822 34.6567C273.822 34.6567 277.393 36.1531 278.932 37.0119C280.565 37.9217 282.104 39.4862 284.017 39.7838C284.68 39.8858 286.159 39.8773 286.159 39.8773C286.159 39.8773 286.287 39.7583 286.287 39.6307C286.278 38.5934 285.726 37.7516 285.105 36.9524Z" fill="#410099"/>
<path d="M285.24 39.3586C284.875 39.3586 284.577 39.078 284.552 38.7124C284.552 38.6529 284.143 32.7691 279.373 30.805C273.388 28.3477 269.527 32.6841 269.366 32.8711C269.119 33.1602 268.686 33.1942 268.397 32.9391C268.107 32.6926 268.073 32.2589 268.32 31.9698C268.363 31.9188 272.971 26.6812 279.892 29.5211C285.478 31.8168 285.912 38.3468 285.929 38.6274C285.946 39.01 285.657 39.3331 285.283 39.3501C285.266 39.3586 285.249 39.3586 285.24 39.3586Z" fill="#A50064"/>
<path d="M283.498 42.4196C283.336 42.4196 283.192 42.3006 283.158 42.139C282.58 39.1461 282.792 38.9675 282.945 38.84C283.124 38.6869 287.256 37.9132 287.724 38.3298C287.8 38.3978 288.047 38.6189 288.549 41.1017C288.583 41.2887 288.463 41.4673 288.276 41.5098C288.089 41.5438 287.911 41.4248 287.868 41.2377C287.681 40.3109 287.418 39.2141 287.273 38.891C286.669 38.84 284.119 39.1886 283.455 39.3671C283.447 39.7838 283.634 40.9996 283.83 42.02C283.864 42.207 283.745 42.3856 283.557 42.4196C283.54 42.4196 283.515 42.4196 283.498 42.4196Z" fill="#A50064"/>
<path d="M283.472 39.3672C283.327 39.6052 283.455 43.3719 284.432 44.2987C286.005 45.7952 288.208 44.4602 288.318 43.0658C288.412 41.969 287.629 39.1291 287.238 38.874C287.068 38.7635 283.616 39.1206 283.472 39.3672Z" fill="#F45197"/>
<path d="M268.099 47.6657C268.082 47.6657 268.065 47.6657 268.048 47.6572C267.929 47.6317 267.852 47.5042 267.878 47.3851C267.886 47.3596 268.439 45.0129 268.516 43.0658C268.524 42.7852 268.533 42.4876 268.541 42.1645C268.592 40.1749 268.652 37.7006 269.536 36.3912C270.531 34.9032 272.35 33.7384 272.427 33.6874C272.537 33.6193 272.673 33.6534 272.741 33.7554C272.809 33.8574 272.775 34.002 272.673 34.07C272.656 34.0785 270.854 35.2348 269.919 36.6378C269.111 37.8367 269.051 40.2429 269 42.1645C268.992 42.4791 268.983 42.7852 268.975 43.0658C268.898 45.0639 268.329 47.4532 268.329 47.4787C268.295 47.5892 268.201 47.6657 268.099 47.6657Z" fill="#31006F"/>
<path d="M269.052 52.9033C269.027 52.9033 269.001 52.8948 268.976 52.8863C268.857 52.8438 268.797 52.7078 268.84 52.5887C268.848 52.5717 269.435 50.9392 269.622 49.2982C269.809 47.6487 269.809 46.2118 269.809 46.1947C269.809 46.0672 269.911 45.9652 270.039 45.9652C270.166 45.9652 270.268 46.0672 270.268 46.1947C270.268 46.2118 270.268 47.6657 270.081 49.3492C269.894 51.0413 269.299 52.6738 269.274 52.7418C269.231 52.8523 269.146 52.9033 269.052 52.9033Z" fill="#31006F"/>
<path d="M282.937 37.7941C282.852 37.7941 282.775 37.7516 282.733 37.6751C282.724 37.6496 281.517 35.4474 278.873 34.6992C275.54 33.7554 274.128 33.3898 274.111 33.3813C273.992 33.3473 273.916 33.2197 273.95 33.1007C273.984 32.9731 274.111 32.9051 274.23 32.9391C274.239 32.9391 275.659 33.3132 278.992 34.257C281.84 35.0648 283.09 37.369 283.141 37.4625C283.2 37.5731 283.158 37.7091 283.047 37.7686C283.005 37.7856 282.971 37.7941 282.937 37.7941Z" fill="#31006F"/>
<path d="M278.354 55.3351C278.354 55.3351 278.788 57.0357 277.24 58.056C275.693 59.0763 274.162 59.646 274.162 59.646L289.918 77.7566C289.918 77.7566 293.268 58.8297 293.268 58.7022C293.268 58.5746 291.474 54.6804 291.474 54.6804C291.474 54.6804 289.875 54.8335 288.855 54.3148C287.834 53.7961 287.18 51.1008 287.18 51.1008L278.354 55.3351Z" fill="#F79876"/>
<path d="M311.624 53.5411C311.386 54.2893 310.825 55.0545 310.51 55.5817C309.43 57.3673 308.444 59.2123 307.381 61.0234C306.633 62.2988 305.936 63.5997 305.29 64.9261C304.677 66.1675 304.261 67.7235 303.453 68.8288C302.883 69.6026 302.841 69.4665 302.849 70.4528C302.858 71.2436 302.866 72.0258 302.875 72.8081C302.892 75.2143 302.679 78.1902 301.974 80.4945C300.579 85.0774 299.644 88.9716 297.977 93.4695C297.671 94.2943 296.566 94.4388 296.566 94.4388C296.566 94.4388 296.073 95.119 295.75 95.3656C295.512 95.5612 295.248 95.7057 294.95 95.7992C294.644 95.9013 294.33 95.9268 294.015 95.9013C293.896 95.8843 293.76 95.8673 293.624 95.8588C293.581 95.8503 293.547 95.8502 293.505 95.8417C292.825 95.7142 292.145 95.4251 291.473 95.2211C290.053 94.7959 288.514 94.7704 287.077 95.1275C286.958 95.153 286.839 95.187 286.72 95.2211C285.24 95.6632 283.837 96.5135 282.29 96.4624C280.564 96.4029 279.025 95.204 277.307 95.153C275.437 95.102 273.481 96.3944 271.798 95.5697C271.585 95.4676 271.39 95.3316 271.22 95.1785C271.134 95.102 271.049 95.0255 270.973 94.932C270.616 94.5408 270.361 94.0647 270.157 93.563C270.072 93.359 270.004 93.1549 269.944 92.9509C269.485 91.4629 269.332 89.8899 269.485 88.3424C269.638 86.8204 270.08 85.2985 269.868 83.785C269.664 82.365 268.881 81.0641 268.737 79.6442C268.465 76.9659 262.496 73.0972 262.088 70.4358C261.875 69.0839 269.017 69.1689 268.924 67.8085C268.839 66.5501 269.374 65.3427 269.493 64.0928C269.621 62.7834 268.541 61.2955 269.655 60.4877C270.93 59.5609 272.597 58.9232 274.008 58.209C274.468 57.9709 274.944 57.7329 275.462 57.6648C276.083 57.5883 276.721 57.7584 277.299 57.9964C278.787 58.6086 280.096 59.6545 281.015 60.9809C281.448 61.6016 281.805 62.2818 282.332 62.8175C283.166 63.6507 284.382 63.9653 285.291 64.705C288.548 67.3409 289.534 77.0254 289.534 77.0254C289.534 77.0254 289.747 60.6238 290.036 55.2331C290.104 53.9492 291.83 53.0054 292.833 52.3507C293.598 51.8575 294.33 51.3049 294.925 50.5991C295.741 49.6213 296.379 48.2864 297.476 47.5892C299.669 46.2033 300.163 43.2358 302.22 41.6288C304.975 43.4484 306.693 46.2798 308.512 49.0347C309.498 50.5226 310.646 51.9936 311.624 53.5411Z" fill="#FED925"/>
<path d="M275.905 57.6478C273.253 58.039 270.642 59.0848 268.091 59.9095C266.765 60.3432 265.422 60.8618 264.061 61.1764C262.361 61.5676 260.55 61.423 258.909 62.0947C257.931 62.4943 257.08 63.1576 256.111 63.5742C254.946 64.0843 252.846 64.3819 252.251 65.6318C252.761 67.1963 253.45 68.7438 254.011 70.1892C254.972 72.6465 256.077 75.0443 257.131 77.459C257.684 77.544 258.254 77.5866 258.653 77.6716C260.056 77.9692 261.272 77.9862 262.701 77.8671C264.019 77.7566 265.286 78.0457 266.595 78.1392C267.955 78.2413 269.044 78.0372 270.345 77.6376C271.169 77.3825 271.926 77.2379 272.793 77.2209C273.014 77.2124 273.346 77.2805 273.567 77.1784C274.188 76.8893 274.239 75.699 274.341 75.1208C274.604 73.5818 274.587 72.0258 274.604 70.4698C274.613 68.8883 274.757 67.2898 274.57 65.7169C274.434 64.569 274.137 63.3701 273.644 62.3243C273.125 61.236 272.139 60.5557 271.297 59.7225C271.518 59.6205 271.748 59.5184 271.977 59.4249C273.304 58.9147 274.681 58.5321 276.067 58.2175C276.45 58.141 276.279 57.5968 275.905 57.6478Z" fill="#FED925"/>
<path d="M259.317 61.9502C259.181 61.9927 259.044 62.0352 258.908 62.0862C258.764 62.1458 258.619 62.2223 258.475 62.2903C257.948 64.569 257.446 67.3834 257.327 70.0957C257.242 72.0769 256.953 74.2195 256.596 76.2261C256.774 76.6258 256.953 77.0254 257.123 77.425C257.582 75.0443 257.965 72.4425 258.058 70.1297C258.186 67.2644 258.755 64.2714 259.317 61.9502Z" fill="#F5A800"/>
<path d="M267.003 60.2837C266.714 60.3857 266.425 60.4793 266.136 60.5813C265.277 63.2596 264.316 66.9668 263.908 71.1416C263.678 73.4543 263.355 75.75 262.998 77.8587C263.245 77.8502 263.5 77.8502 263.746 77.8587C264.095 75.767 264.418 73.4968 264.648 71.2096C265.064 66.8137 266.11 62.945 267.003 60.2837Z" fill="#F5A800"/>
<path d="M274.009 58.0305C273.754 58.09 273.507 58.158 273.261 58.226C272.835 64.0673 272.274 69.8746 271.56 73.2247C271.058 75.5884 270.157 78.3943 269.111 81.2172C269.23 81.5828 269.366 81.9484 269.485 82.314C270.667 79.1765 271.713 76.0051 272.274 73.3777C273.006 69.9512 273.575 63.9908 274.009 58.0305Z" fill="#F5A800"/>
<path d="M275.54 88.674C275.515 87.203 275.481 85.528 275.77 83.1558C276.348 78.4283 278.763 67.6554 280.48 60.2921C280.285 60.0711 280.089 59.8585 279.876 59.6544C278.15 67.0348 275.634 78.2072 275.038 83.0622C274.741 85.4855 274.775 87.186 274.809 88.691C274.868 91.803 274.911 93.8606 271.603 99.4724C269.214 103.528 267.76 105.798 266.901 107.057C267.199 107.057 267.488 107.065 267.777 107.074C268.678 105.722 270.081 103.503 272.241 99.8465C275.651 94.0562 275.608 91.9135 275.54 88.674Z" fill="#F5A800"/>
<path d="M280.896 100.212C281.78 95.6972 282.996 89.5158 283.302 82.6286C283.523 77.544 284.748 70.0022 285.649 64.9601C285.538 64.8751 285.428 64.7901 285.309 64.705C285.198 64.6285 285.088 64.5605 284.986 64.4925C284.076 69.5515 282.8 77.357 282.571 82.5946C282.273 89.4222 281.057 95.5696 280.182 100.068C279.995 101.02 279.825 101.887 279.68 102.652C279.357 104.412 278.668 106.479 277.979 108.298C278.226 108.341 278.481 108.383 278.728 108.417C279.408 106.615 280.08 104.565 280.411 102.788C280.539 102.032 280.709 101.164 280.896 100.212Z" fill="#F5A800"/>
<path d="M292.341 75.92C292.57 74.6446 292.791 73.4543 292.978 72.3914C293.812 67.715 293.914 57.5968 293.888 51.628C293.65 51.815 293.403 51.9936 293.157 52.1636C293.174 58.158 293.055 67.7745 292.256 72.2639C292.069 73.3267 291.847 74.5171 291.618 75.7925C290.351 82.7647 288.625 92.3131 288.208 97.3042C287.902 101.011 287.435 105.977 287.146 109.114C287.358 109.14 287.605 109.182 287.877 109.233C288.174 106.096 288.633 101.088 288.948 97.3637C289.348 92.4067 291.082 82.8752 292.341 75.92Z" fill="#F5A800"/>
<path d="M295.222 95.204C295.647 94.5153 297.526 91.1568 297.586 85.5705C297.62 82.5096 298.105 78.9385 298.657 74.8147C299.219 70.6909 299.848 66.0144 300.213 60.5897C300.562 55.3691 300.077 49.8169 299.474 45.438C299.278 45.7526 299.074 46.0502 298.853 46.3393C299.397 50.5396 299.805 55.6837 299.482 60.5387C299.116 65.9379 298.487 70.6059 297.935 74.7212C297.373 78.8704 296.889 82.4586 296.855 85.5705C296.795 91.5054 294.559 94.8979 294.542 94.9319L294.457 95.0595L294.483 95.204C294.491 95.2636 295.443 100.731 295.443 104.455C295.443 106.138 295.248 108.273 295.035 110.118C295.307 110.067 295.562 109.999 295.8 109.914C296.005 108.111 296.183 106.079 296.183 104.455C296.175 100.994 295.375 96.0883 295.222 95.204Z" fill="#F5A800"/>
<path d="M307.509 48.3204C307.492 48.0229 307.483 47.7338 307.466 47.4447C307.203 47.045 306.931 46.6454 306.659 46.2543C306.701 46.9345 306.744 47.6317 306.778 48.3545C307.007 53.303 306.616 58.9488 306.208 63.1236C306.497 62.5879 306.795 62.0607 307.092 61.5336C307.441 57.5628 307.713 52.6823 307.509 48.3204Z" fill="#F5A800"/>
<path d="M259.316 76.3537C259.222 76.3537 259.137 76.2941 259.103 76.2091L254.767 64.9941C254.724 64.8751 254.784 64.739 254.894 64.6965C255.013 64.654 255.149 64.7135 255.192 64.8241L259.528 76.0391C259.579 76.1581 259.52 76.2941 259.401 76.3367C259.367 76.3452 259.341 76.3537 259.316 76.3537Z" fill="white"/>
<path d="M288.574 81.6848C288.489 81.6848 288.404 81.6338 288.362 81.5488C288.013 80.7495 287.724 79.8483 287.418 78.896C287.001 77.5781 286.567 76.2176 285.955 75.1803C284.773 73.1652 283.098 71.4732 281.474 69.8236L280.692 69.0244C278.966 67.2728 277.189 65.4533 275.267 63.9143C274.052 62.9365 274.655 58.9062 274.732 58.4556C274.749 58.3281 274.868 58.243 274.995 58.2685C275.123 58.2855 275.208 58.4046 275.182 58.5321C274.995 59.697 274.698 62.877 275.548 63.5657C277.495 65.1217 279.281 66.9497 281.015 68.7098L281.798 69.509C283.439 71.1756 285.131 72.8931 286.346 74.9507C286.984 76.0391 287.426 77.425 287.851 78.7684C288.149 79.7122 288.43 80.5965 288.778 81.3702C288.829 81.4893 288.778 81.6253 288.659 81.6763C288.634 81.6763 288.6 81.6848 288.574 81.6848Z" fill="white"/>
<path d="M278.549 93.7586C278.49 93.7586 278.43 93.7416 278.388 93.6906C278.294 93.6056 278.294 93.4525 278.388 93.3675C278.447 93.308 284.45 87.1946 287.774 82.7222C291.176 78.1478 295.155 60.2327 294.968 59.1188C294.738 57.7754 291.847 53.8217 291.822 53.7792C291.745 53.6771 291.771 53.5326 291.873 53.4561C291.975 53.3795 292.119 53.405 292.196 53.5071C292.315 53.6771 295.172 57.5883 295.427 59.0338C295.673 60.4452 291.601 78.3518 288.149 82.9943C284.807 87.4922 278.779 93.6226 278.719 93.6821C278.668 93.7331 278.609 93.7586 278.549 93.7586Z" fill="white"/>
<path d="M309.864 54.5444C309.796 54.5444 309.728 54.5189 309.686 54.4594L301.676 44.5198C301.6 44.4177 301.617 44.2732 301.71 44.1967C301.812 44.1116 301.957 44.1371 302.033 44.2307L310.043 54.1703C310.119 54.2723 310.111 54.4168 310.009 54.4934C309.958 54.5274 309.915 54.5444 309.864 54.5444Z" fill="white"/>
<path d="M284.952 61.0149C284.884 61.0149 284.816 60.9809 284.765 60.9214C284.739 60.8873 284.263 60.2752 283.081 60.0966C281.823 59.901 280.633 60.0966 280.624 60.0966C280.497 60.1136 280.378 60.0286 280.361 59.9095C280.344 59.782 280.429 59.663 280.548 59.646C280.599 59.6375 281.823 59.4419 283.149 59.646C284.535 59.8585 285.105 60.6238 285.131 60.6578C285.207 60.7598 285.182 60.9044 285.08 60.9809C285.046 60.9979 284.995 61.0149 284.952 61.0149Z" fill="#EF8059"/>
<path d="M273.779 46.8069C273.737 46.8069 273.686 46.7899 273.652 46.7644C273.439 46.6199 272.751 46.1097 272.674 45.6931C272.615 45.336 273.006 43.1763 273.125 42.5301C273.15 42.4026 273.269 42.326 273.397 42.3431C273.524 42.3686 273.601 42.4876 273.584 42.6151C273.337 43.9245 273.108 45.4125 273.133 45.6166C273.159 45.7611 273.567 46.1437 273.915 46.3903C274.018 46.4668 274.043 46.6029 273.975 46.7134C273.924 46.7729 273.847 46.8069 273.779 46.8069Z" fill="#EF8059"/>
<path d="M296.566 94.4388L296.09 96.1308C296.09 96.1308 295.231 96.0373 294.024 95.9013C293.905 95.8843 293.769 95.8758 293.633 95.8588C293.59 95.8502 293.556 95.8502 293.514 95.8417C291.72 95.6462 289.381 95.3826 287.876 95.2125C287.613 95.187 287.349 95.153 287.086 95.1275C284.025 94.8214 280.947 94.7024 277.869 94.7704C275.658 94.8129 273.447 95.034 271.228 95.1785C270.897 95.204 270.233 95.2381 270.233 95.2381L270.174 93.563C270.174 93.563 276.117 92.9764 279.136 93.0104C283.004 93.0444 286.882 93.3845 290.58 93.8266C292.383 94.0392 294.194 94.2773 296.005 94.3963C296.183 94.4133 296.566 94.4388 296.566 94.4388Z" fill="#31006F"/>
<path d="M243.408 109.378C243.263 109.378 243.127 109.369 242.983 109.361C235.671 108.8 227.772 94.0902 227.44 93.461C227.381 93.3505 227.423 93.2059 227.534 93.1464C227.644 93.0869 227.789 93.1294 227.84 93.2399C227.925 93.393 235.951 108.358 243.017 108.902C244.853 109.046 246.494 108.171 247.889 106.308C250.261 103.146 254.172 101.598 258.322 99.9655C265.285 97.2107 273.176 94.0902 275.65 82.331C280.139 60.9639 286.015 42.6917 286.074 42.5131C286.117 42.3941 286.244 42.326 286.363 42.3686C286.482 42.4111 286.55 42.5386 286.508 42.6576C286.448 42.8362 280.582 61.0914 276.101 82.4331C273.575 94.4388 265.566 97.6103 258.492 100.399C254.41 102.015 250.55 103.537 248.263 106.598C246.869 108.434 245.245 109.378 243.408 109.378Z" fill="#F45197"/>
<path d="M301.906 20.4317L297.706 23.5437C297.213 22.2598 296.83 21.248 296.626 20.7293L300.095 18.068L300.138 18.034C300.605 18.6462 301.209 19.4624 301.906 20.4317Z" fill="#31006F"/>
<path d="M300.903 20.5338C300.903 19.624 300.172 18.8928 299.262 18.8928C298.361 18.8928 297.621 19.624 297.621 20.5338C297.621 21.4436 298.352 22.1748 299.262 22.1748C300.172 22.1748 300.903 21.4436 300.903 20.5338Z" fill="#31006F"/>
<path d="M300.69 20.5338C300.69 19.743 300.052 19.1053 299.262 19.1053C298.471 19.1053 297.842 19.743 297.842 20.5338C297.842 21.316 298.479 21.9537 299.262 21.9537C300.044 21.9537 300.69 21.3245 300.69 20.5338Z" fill="white"/>
<path d="M286.108 60.5132C286.082 60.5132 286.057 60.5047 286.031 60.5047C285.912 60.4622 285.844 60.3347 285.887 60.2157C285.904 60.1561 286.397 58.7362 287.621 57.8519C288.795 57.0016 289.398 56.653 289.424 56.636C289.534 56.5765 289.67 56.6105 289.738 56.7211C289.798 56.8316 289.764 56.9676 289.653 57.0357C289.645 57.0357 289.041 57.3843 287.893 58.2175C286.788 59.0168 286.329 60.3432 286.329 60.3517C286.286 60.4537 286.201 60.5132 286.108 60.5132Z" fill="#EF8059"/>
<path d="M283.413 35.0223C283.498 34.8777 285.131 34.6652 285.275 34.7672C285.42 34.8692 285.666 35.8896 285.666 35.9831C285.666 36.0766 283.872 36.4762 283.745 36.3147C283.609 36.1616 283.328 35.1668 283.413 35.0223Z" fill="#F45197"/>
<path d="M283.839 39.6562C283.754 39.7923 284.094 42.3601 284.315 42.5726C284.527 42.7852 287.716 42.3175 287.86 42.071C288.005 41.8329 287.469 39.3756 287.257 39.2226C287.036 39.0695 283.924 39.5117 283.839 39.6562Z" fill="#A50064"/>
<path d="M263.091 39.4692C263.066 39.4692 263.066 39.5197 263.091 39.5197C263.125 39.5113 263.125 39.4692 263.091 39.4692Z" fill="#E6D7C4"/>
<path d="M247.897 27.8885C248.28 27.727 248.73 27.812 249.113 27.6505C249.275 27.5824 249.334 27.3274 249.147 27.2338C248.484 26.9277 247.183 27.1913 246.911 27.9225C246.681 28.5262 246.826 29.249 246.817 29.8697C246.817 30.0652 246.826 30.3203 246.817 30.5584C246.205 30.5499 245.389 30.907 245.704 31.6637C245.942 32.2249 246.766 32.3354 247.149 31.8933C247.617 31.3491 247.489 30.2778 247.472 29.6146C247.464 29.0364 247.243 28.1606 247.897 27.8885Z" fill="#F45197"/>
<path d="M259.52 37.9387C258.976 36.8589 258.075 36.0426 256.825 35.9576C255.941 35.8981 255.142 36.2297 254.3 36.4507C253.611 36.6293 252.99 36.8163 252.404 36.3147C252.2 36.1361 252.03 35.9321 251.8 35.7875C250.372 34.9033 248.756 35.5069 247.277 35.8385C245.432 36.2637 245.202 34.3591 243.697 33.8404C243.561 33.7979 243.459 33.985 243.561 34.0785C244.343 34.8352 244.879 36.1446 245.967 36.5358C247.489 37.0714 249.13 35.66 250.763 36.0851C251.502 36.2807 251.792 36.8504 252.404 37.1565C252.931 37.42 253.594 37.301 254.147 37.1735C255.04 36.9694 255.898 36.5273 256.834 36.6123C257.939 36.7058 258.483 37.4796 259.197 38.1938C259.359 38.3723 259.631 38.1513 259.52 37.9387Z" fill="#F45197"/>
<path d="M257.556 32.3439C257.454 32.0974 257.25 31.8933 256.902 31.7743C255.762 31.3831 254.189 33.3813 255.422 34.1635C256.672 34.9458 257.965 33.3217 257.556 32.3439ZM255.686 33.2197C255.754 32.8881 256.204 32.48 256.57 32.514C257.225 32.565 256.885 33.4323 256.46 33.5853C256.128 33.7044 255.584 33.6789 255.686 33.2197Z" fill="#F45197"/>
<path d="M255.124 50.0805C255.158 49.5703 255.286 48.9411 255.175 48.4395C255.107 48.1249 254.657 48.1164 254.589 48.4395C254.461 49.0517 254.453 49.7744 254.427 50.4036C254.402 50.8797 254.317 51.9511 254.504 52.0786C254.767 52.2742 255.133 52.2061 255.099 51.6535C255.065 51.0923 255.09 50.6502 255.124 50.0805Z" fill="#F45197"/>
<path d="M258.874 49.8509C258.483 49.4428 257.973 49.1962 257.497 48.9241C257.131 48.72 256.859 48.2949 256.434 48.2099C255.524 48.0228 255.864 49.7063 255.83 50.1825C255.796 50.6671 255.643 51.3218 255.924 51.764C256.4 52.5037 257.548 51.764 258.049 51.4494C258.372 51.2538 258.797 51.0413 259.053 50.7607C259.333 50.4631 259.121 50.106 258.874 49.8509ZM257.726 50.8882C257.437 51.0583 257.139 51.2368 256.825 51.3303C256.451 51.4409 256.459 51.3388 256.459 50.9477C256.459 50.276 256.493 49.6128 256.468 48.9411C256.544 49.0176 256.621 49.1027 256.689 49.1537C256.893 49.3152 257.122 49.4343 257.352 49.5448C257.633 49.6893 257.93 49.8254 258.202 49.9954C258.228 50.0124 258.602 50.31 258.695 50.3185C258.644 50.3525 258.508 50.4121 258.5 50.4206C258.236 50.5651 257.99 50.7352 257.726 50.8882Z" fill="#F45197"/>
<path d="M250.278 39.1886C250.303 39.1631 250.32 39.1291 250.337 39.1036C250.609 38.7465 250.201 38.2023 249.759 38.3128C249.581 38.3553 249.479 38.4574 249.376 38.5934C249.3 38.6954 249.283 38.806 249.3 38.908C249.3 38.9165 249.3 38.925 249.3 38.9335C249.3 38.942 249.3 38.959 249.308 38.9675C249.317 39.0866 249.359 39.1971 249.445 39.2821C249.555 39.3927 249.7 39.4352 249.836 39.4182C249.989 39.4267 250.125 39.3587 250.227 39.2481V39.2566C250.235 39.2481 250.244 39.2311 250.261 39.2226C250.261 39.2056 250.269 39.1971 250.278 39.1886Z" fill="#F45197"/>
<path d="M245.891 52.8013C245.296 52.1721 244.199 52.2061 243.74 52.9884C243.536 53.3285 243.459 53.8216 243.527 54.2128C243.646 54.8675 244.607 55.2926 245.202 55.114C246.146 54.842 246.58 53.5325 245.891 52.8013ZM245.049 54.4848C244.769 54.6039 244.394 54.5103 244.233 54.2468C244.19 54.1702 244.165 54.0937 244.148 54.0087C244.122 53.405 244.692 52.6993 245.33 53.2009C245.78 53.5496 245.525 54.2808 245.049 54.4848Z" fill="#F45197"/>
<path d="M258.033 45.2339C257.046 44.7068 256.196 44.6813 255.142 45.0214C254.521 45.2254 253.926 45.4975 253.382 45.8716C252.863 46.2288 252.43 46.7219 251.851 46.977C250.55 47.5467 248.85 46.7559 247.464 46.943C246.478 47.0705 245.534 47.6402 244.76 48.2354C244.633 48.3289 244.743 48.55 244.888 48.5415C245.959 48.482 246.784 47.6912 247.872 47.6317C249.071 47.5722 250.312 48.0313 251.494 47.8443C252.421 47.6997 253.016 47.011 253.747 46.5008C254.326 46.0927 254.997 45.7696 255.686 45.5826C256.46 45.37 257.089 45.54 257.854 45.6676C258.092 45.7101 258.288 45.37 258.033 45.2339Z" fill="#F45197"/>
<path d="M247.685 43.8395C246.435 42.4111 244.616 43.627 243.391 44.3412C242.014 45.1404 239.505 43.831 238.672 45.5911C238.621 45.7016 238.706 45.8632 238.842 45.8121C239.676 45.5146 240.254 45.2595 241.155 45.3105C241.75 45.3445 242.345 45.4125 242.932 45.268C243.578 45.1064 244.029 44.6728 244.59 44.3412C245.568 43.763 246.469 43.7885 247.54 44.0776C247.685 44.1286 247.779 43.9501 247.685 43.8395Z" fill="#F45197"/>
</svg>
