<svg width="45" height="45" viewBox="0 0 45 45" fill="none" xmlns="http://www.w3.org/2000/svg">
<path fill-rule="evenodd" clip-rule="evenodd" d="M21.9878 5C18.5443 5 15.4988 7.19358 14.4095 10.4586C14.1952 11.1006 14.2439 11.7875 14.5464 12.3929C14.8489 12.9984 15.3691 13.4498 16.011 13.6639C16.2711 13.7507 16.5411 13.7946 16.8132 13.7946C17.9049 13.7946 18.8707 13.0985 19.2164 12.0623C19.6145 10.8691 20.7283 10.0675 21.9878 10.0675C23.5981 10.0675 24.9082 11.3775 24.9082 12.9879C24.9082 14.5982 23.5981 15.9082 21.9878 15.9082H16.193L16.1757 15.908C14.976 15.908 14 16.884 14 18.0836V37.8242C14 39.0239 14.976 39.9999 16.1757 39.9999H27.7998C28.9996 39.9999 29.9756 39.0239 29.9756 37.8242V12.9878C29.9758 8.58326 26.3924 5 21.9878 5ZM15.9898 30.5C15.9898 30.2239 16.2137 30 16.4898 30H27.4898C27.766 30 27.9898 30.2239 27.9898 30.5C27.9898 30.7761 27.766 31 27.4898 31H16.4898C16.2137 31 15.9898 30.7761 15.9898 30.5ZM16.4898 33C16.2137 33 15.9898 33.2239 15.9898 33.5C15.9898 33.7761 16.2137 34 16.4898 34H27.4898C27.766 34 27.9898 33.7761 27.9898 33.5C27.9898 33.2239 27.766 33 27.4898 33H16.4898ZM15.9898 36.5C15.9898 36.2239 16.2137 36 16.4898 36H27.4898C27.766 36 27.9898 36.2239 27.9898 36.5C27.9898 36.7761 27.766 37 27.4898 37H16.4898C16.2137 37 15.9898 36.7761 15.9898 36.5ZM19.9898 20H17.9898V28H19.9898L19.9898 24.5H23.9898V28H25.9898V20H23.9898V23.5H19.9898L19.9898 20Z" fill="#2EB3E8"/>
</svg>
