<svg width="45" height="45" viewBox="0 0 45 45" fill="none" xmlns="http://www.w3.org/2000/svg">
<path d="M30.4924 21.9984C30.4924 23.0331 30.4924 24.0643 30.4924 25.099C30.4924 27.1108 30.4924 29.1262 30.4924 31.138C30.4924 32.5009 30.4924 33.8637 30.4924 35.2266C30.4924 35.2698 30.4924 35.3095 30.4924 35.3527C30.4924 35.36 30.4924 35.3672 30.4924 35.3744C30.4924 35.3924 30.4924 35.4068 30.4924 35.4248C30.4848 35.5042 30.4886 35.4897 30.4999 35.378C30.5037 35.378 30.4697 35.4825 30.466 35.4897C30.4471 35.5402 30.4584 35.5186 30.4961 35.4248C30.4811 35.4537 30.466 35.4789 30.4509 35.5042C30.3831 35.6376 30.5677 35.4068 30.4547 35.5006C30.4471 35.5078 30.3868 35.5655 30.3868 35.5619C30.3831 35.5474 30.5301 35.4609 30.3831 35.551C30.2662 35.6231 30.4245 35.5186 30.4321 35.533C30.4358 35.5366 30.2888 35.5655 30.2888 35.5691C30.2964 35.5294 30.4773 35.5619 30.3378 35.5546C30.3341 35.5546 30.3341 35.5546 30.3303 35.5546C30.3001 35.5546 30.27 35.5546 30.2398 35.5546C29.7988 35.5546 29.3579 35.5546 28.9169 35.5546C27.0512 35.5546 25.1892 35.5546 23.3235 35.5546C21.292 35.5546 19.2642 35.5546 17.2327 35.5546C16.5844 35.5546 15.9361 35.5546 15.2878 35.5546C15.1295 35.5546 14.975 35.5546 14.8167 35.5546C14.7903 35.5546 14.7602 35.5546 14.7338 35.5546H14.73C14.5642 35.5655 14.8845 35.6051 14.7262 35.5582C14.6961 35.5474 14.6622 35.5402 14.6282 35.533C14.4699 35.4934 14.7564 35.6195 14.6245 35.5294C14.6094 35.5186 14.4888 35.4248 14.5755 35.5042C14.6659 35.5871 14.5529 35.4753 14.5416 35.4645C14.4888 35.4068 14.4963 35.4176 14.5642 35.5006C14.5453 35.4753 14.5265 35.4465 14.5114 35.4212C14.4398 35.3239 14.5604 35.4609 14.5265 35.4645C14.5152 35.4645 14.4888 35.3275 14.4888 35.3275C14.5227 35.3239 14.4963 35.4933 14.5039 35.3744C14.5039 35.3708 14.5039 35.3672 14.5039 35.3636C14.5039 35.3419 14.5039 35.3167 14.5039 35.2951C14.5039 35.1905 14.5039 35.0859 14.5039 34.9814C14.5039 34.5704 14.5039 34.1594 14.5039 33.7483C14.5039 32.2918 14.5039 30.8352 14.5039 29.3786C14.5039 27.4173 14.5039 25.4524 14.5039 23.491C14.5039 21.4324 14.5039 19.3701 14.5039 17.3114C14.5039 15.5628 14.5039 13.8142 14.5039 12.0656C14.5039 11.038 14.5039 10.0069 14.5039 8.97936C14.5039 8.88201 14.5039 8.78827 14.5039 8.69092C14.5039 8.66929 14.5039 8.65127 14.5039 8.62963C14.5039 8.62603 14.5039 8.62603 14.5039 8.62242C14.4963 8.48181 14.5303 8.6729 14.4888 8.66929C14.4888 8.66929 14.5189 8.52868 14.5265 8.53229C14.5453 8.53589 14.4285 8.69453 14.5114 8.57555C14.5265 8.54671 14.5453 8.52147 14.5642 8.49623C14.4963 8.57916 14.4888 8.58997 14.5416 8.53229C14.5378 8.53589 14.6094 8.46379 14.6132 8.46739C14.5868 8.48542 14.5642 8.50345 14.5378 8.52147C14.5642 8.50345 14.5943 8.48542 14.6207 8.471C14.7489 8.38086 14.4699 8.49984 14.6245 8.46739C14.6584 8.46018 14.6886 8.44936 14.7225 8.44215C14.8657 8.4061 14.583 8.43855 14.7338 8.44576C14.7677 8.44576 14.7979 8.44576 14.8318 8.44576C15.0014 8.44576 15.171 8.44576 15.3368 8.44576C16.9575 8.44576 18.582 8.44576 20.2027 8.44576C22.3172 8.44576 24.4317 8.44576 26.5499 8.44576C27.7862 8.44576 29.0224 8.44215 30.2549 8.44576C30.2775 8.44576 30.3039 8.44576 30.3265 8.44576C30.4697 8.43855 30.2888 8.471 30.2775 8.43134C30.2775 8.43134 30.3868 8.46018 30.3981 8.46018C30.4773 8.45658 30.2549 8.37365 30.3718 8.44936C30.5187 8.5431 30.368 8.44936 30.3755 8.43855C30.3755 8.43855 30.4509 8.50345 30.4434 8.49984C30.5564 8.59719 30.3717 8.36644 30.4396 8.49623C30.5225 8.65848 30.4471 8.48902 30.4471 8.48902C30.4509 8.48542 30.4886 8.62603 30.4886 8.62603C30.4848 8.59358 30.4811 8.56113 30.4773 8.52868C30.4811 8.56113 30.4811 8.59358 30.4811 8.62603V8.62963C30.4811 8.64045 30.4811 8.64766 30.4811 8.65848C30.4811 8.70535 30.4811 8.75582 30.4811 8.80269C30.4811 9.31466 30.4811 9.83023 30.4811 10.3422C30.4811 12.2458 30.4811 14.1459 30.4811 16.0495C30.4811 17.7585 30.4811 19.471 30.4811 21.18C30.4924 21.4504 30.4924 21.7244 30.4924 21.9984C30.4924 22.377 30.8391 22.7375 31.2462 22.7195C31.6532 22.7014 32 22.4022 32 21.9984C32 20.9348 32 19.8676 32 18.804C32 16.767 32 14.7263 32 12.6893C32 11.3661 32 10.0393 32 8.71616C32 8.2691 31.8681 7.84727 31.5515 7.50836C31.2236 7.15503 30.7524 7 30.2662 7C29.8365 7 29.4069 7 28.9772 7C27.1002 7 25.2232 7 23.3462 7C21.2845 7 19.2265 7 17.1648 7C16.5241 7 15.8796 7 15.2388 7C15.0918 7 14.9449 7 14.7941 7C14.2702 7.00361 13.7538 7.19109 13.4146 7.58047C13.1395 7.89414 13 8.26549 13 8.6765C13 8.77024 13 8.86038 13 8.95412C13 9.35071 13 9.7473 13 10.1403C13 11.6005 13 13.0643 13 14.5244C13 16.5074 13 18.4868 13 20.4697C13 22.5572 13 24.6484 13 26.7359C13 28.5025 13 30.2655 13 32.0322C13 33.0453 13 34.0584 13 35.0715C13 35.158 13 35.2446 13 35.3311C13.0038 35.7746 13.1734 36.2108 13.5164 36.5209C13.8744 36.8454 14.3305 36.9968 14.8167 36.9968C14.9788 36.9968 15.1371 36.9968 15.2991 36.9968C16.9236 36.9968 18.5519 36.9968 20.1764 36.9968C22.3134 36.9968 24.4543 36.9968 26.5914 36.9968C27.8238 36.9968 29.0563 37.004 30.2851 36.9968C30.8843 36.9932 31.4309 36.7264 31.7512 36.2325C31.9435 35.9368 31.9962 35.5943 31.9962 35.2554C31.9962 34.7723 31.9962 34.2892 31.9962 33.806C31.9962 31.8952 31.9962 29.9879 31.9962 28.0771C31.9962 26.3321 31.9962 24.5871 31.9962 22.8385C31.9962 22.5572 31.9962 22.2796 31.9962 21.9984C31.9962 21.6198 31.6495 21.2593 31.2424 21.2773C30.8391 21.2953 30.4924 21.5946 30.4924 21.9984Z" fill="#801E5A"/>
<path d="M23.5241 32.0912C23.5241 32.1092 23.5133 32.1777 23.5205 32.1885C23.5205 32.1849 23.5494 32.0407 23.5313 32.1164C23.5205 32.1705 23.5025 32.2246 23.4917 32.2786C23.4629 32.4012 23.5566 32.1705 23.4953 32.2822C23.4881 32.2931 23.4052 32.4481 23.4016 32.4445C23.3944 32.4409 23.5241 32.3111 23.4304 32.4084C23.416 32.4264 23.398 32.4445 23.3835 32.4589C23.3727 32.4697 23.2718 32.5743 23.2646 32.567C23.2538 32.5562 23.3908 32.4913 23.315 32.5238C23.2934 32.531 23.2754 32.549 23.2574 32.5598C23.2321 32.5743 23.2033 32.5887 23.1744 32.6031C23.0699 32.6608 23.2141 32.5815 23.2177 32.5851C23.2177 32.5923 23.0771 32.6247 23.0591 32.6319C22.8933 32.668 23.16 32.6355 23.0339 32.6319C22.9978 32.6319 22.9149 32.6175 22.886 32.6283C22.9545 32.5995 23.023 32.6572 22.9329 32.6355C22.9005 32.6283 22.8716 32.6211 22.8392 32.6139C22.8284 32.6103 22.7491 32.5887 22.7491 32.5851C22.7491 32.5779 22.8824 32.6536 22.8139 32.6139C22.7671 32.5851 22.7166 32.5598 22.6697 32.5346C22.558 32.4769 22.7563 32.6211 22.6661 32.5382C22.6193 32.4949 22.5796 32.4517 22.5364 32.4084C22.4606 32.3291 22.5796 32.4373 22.5652 32.4445C22.5652 32.4445 22.5291 32.3904 22.5291 32.3868C22.5219 32.3724 22.4462 32.2462 22.4534 32.2426C22.4715 32.2318 22.4859 32.3868 22.4823 32.3039C22.4823 32.2822 22.4679 32.257 22.4606 32.2354C22.4534 32.2029 22.4462 32.1741 22.439 32.1417C22.4102 32.0227 22.4498 32.1885 22.4462 32.1885C22.4354 32.1885 22.4462 32.0371 22.4462 32.0155C22.439 31.9326 22.4462 32.0876 22.4318 32.084C22.4282 32.084 22.4534 31.983 22.4498 31.9902C22.4534 31.9794 22.4859 31.8532 22.4895 31.8532C22.5039 31.8569 22.4174 31.9938 22.4715 31.8965C22.4859 31.8677 22.5003 31.8424 22.5147 31.8136C22.5219 31.8028 22.5616 31.7343 22.5652 31.7343C22.5724 31.7379 22.4679 31.8424 22.5219 31.7884C22.5616 31.7487 22.594 31.709 22.6337 31.6694C22.6517 31.655 22.6697 31.6405 22.6842 31.6225C22.7382 31.5648 22.6373 31.673 22.6301 31.6658C22.6265 31.6586 22.7779 31.5793 22.7923 31.5721C22.8896 31.518 22.7527 31.6045 22.7491 31.5901C22.7491 31.5901 22.8103 31.5684 22.8175 31.5684C22.868 31.5576 22.9329 31.5504 22.9798 31.5324C22.9726 31.536 22.832 31.5396 22.9113 31.5468C22.9365 31.5468 22.9618 31.5432 22.987 31.5432C22.9798 31.5432 23.0843 31.5432 23.0843 31.5468C23.0843 31.5504 22.9185 31.5108 23.0375 31.5396C23.0483 31.5432 23.2213 31.5829 23.2213 31.5901C23.2213 31.5973 23.0591 31.5072 23.1781 31.5721C23.2069 31.5865 23.2321 31.6009 23.261 31.6153C23.279 31.6261 23.3006 31.6442 23.3187 31.6514C23.3908 31.6838 23.2105 31.5504 23.3006 31.6369C23.3439 31.6802 23.3871 31.7235 23.4304 31.7667C23.4881 31.828 23.4232 31.7775 23.4304 31.7667C23.398 31.7235 23.3944 31.7199 23.416 31.7487C23.4304 31.7667 23.4412 31.7884 23.452 31.8064C23.4629 31.828 23.4737 31.846 23.4845 31.8677C23.4917 31.8821 23.4989 31.8965 23.5061 31.9109C23.5241 31.947 23.5205 31.9398 23.4989 31.8893C23.4917 31.8749 23.4881 31.8605 23.4809 31.846C23.4881 31.8677 23.4953 31.8893 23.5025 31.9145C23.5097 31.947 23.5205 31.9758 23.5277 32.0083C23.5313 32.0299 23.535 32.0587 23.5422 32.0804C23.4845 31.9398 23.5241 32.0119 23.5241 32.0912C23.5313 32.4697 23.8522 32.8302 24.2451 32.8122C24.6309 32.7942 24.9734 32.4949 24.9662 32.0912C24.9481 31.2368 24.4218 30.5014 23.6215 30.2129C22.886 29.9498 21.9812 30.1841 21.4837 30.7898C20.9465 31.4387 20.8312 32.3543 21.2674 33.0934C21.7072 33.8468 22.576 34.1929 23.4196 34.0271C24.3281 33.8504 24.9553 32.9888 24.9734 32.0876C24.9806 31.709 24.6381 31.3485 24.2524 31.3666C23.8486 31.3882 23.5313 31.6874 23.5241 32.0912Z" fill="#EE4FAF"/>
<path d="M19 22.2638C19.0072 23.2588 19.4362 24.2574 20.2041 24.9063C21.0297 25.6057 22.0643 25.8832 23.1314 25.7174C25.1863 25.4002 26.5057 23.1542 25.864 21.1967C25.5468 20.2305 24.833 19.4302 23.8921 19.0337C23.4126 18.8318 22.9295 18.7633 22.414 18.7452C22.3635 18.7452 22.3131 18.7416 22.2626 18.7344C22.2518 18.7344 22.1761 18.7344 22.1653 18.7236C22.1617 18.72 22.3167 18.7489 22.2338 18.7308C22.122 18.7056 22.0102 18.6876 21.9021 18.6515C21.8552 18.6371 21.8084 18.6227 21.7651 18.6047C21.7291 18.5902 21.6173 18.5217 21.6966 18.5794C21.7831 18.6443 21.6389 18.5506 21.6101 18.5362C21.5596 18.5109 21.5127 18.4857 21.4659 18.4568C21.4298 18.4352 21.2171 18.3307 21.2099 18.2874C21.2099 18.2802 21.3217 18.3884 21.264 18.3271C21.2496 18.309 21.2279 18.2982 21.2099 18.2802C21.1631 18.2405 21.1162 18.1973 21.0729 18.154C21.0008 18.0819 20.9395 17.999 20.8674 17.9269C20.8098 17.8692 20.9143 17.981 20.9071 17.981C20.8999 17.981 20.871 17.9305 20.8638 17.9233C20.8278 17.8728 20.7917 17.8188 20.7593 17.7647C20.7088 17.6818 20.6656 17.5988 20.6223 17.5159C20.543 17.3573 20.6511 17.6097 20.6079 17.4907C20.5899 17.4366 20.5682 17.3861 20.5538 17.3321C20.5214 17.2311 20.4961 17.1302 20.4745 17.0256C20.4709 17.0004 20.4673 16.9788 20.4601 16.9535C20.442 16.8706 20.4709 17.0256 20.4673 17.022C20.4384 16.986 20.4529 16.8706 20.4493 16.8238C20.442 16.7156 20.4457 16.6039 20.4493 16.4957C20.4529 16.4452 20.4565 16.3948 20.4637 16.3479C20.4709 16.265 20.4565 16.4164 20.4565 16.4164C20.4709 16.3912 20.4673 16.3479 20.4745 16.3191C20.4961 16.2145 20.5214 16.1136 20.5538 16.0126C20.5718 15.9585 20.5899 15.9081 20.6115 15.854C20.6223 15.8216 20.662 15.7855 20.6115 15.8504C20.5538 15.9297 20.6115 15.854 20.6259 15.8288C20.6728 15.7386 20.7196 15.6449 20.7737 15.5584C20.7989 15.5187 20.8242 15.4791 20.853 15.4394C20.8674 15.4214 20.8819 15.4034 20.8927 15.3817C20.9395 15.3096 20.7953 15.4935 20.8819 15.3962C20.9431 15.3241 21.0044 15.2556 21.0729 15.1871C21.1126 15.1474 21.1522 15.1114 21.1955 15.0753C21.2135 15.0609 21.2316 15.0465 21.2496 15.0284C21.3325 14.9563 21.2171 15.0393 21.2135 15.0537C21.2207 15.0104 21.4262 14.9095 21.4695 14.8842C21.5164 14.8554 21.5668 14.8302 21.6137 14.8049C21.6461 14.7869 21.7831 14.7004 21.7002 14.7617C21.6209 14.8194 21.7327 14.7509 21.7687 14.7364C21.8228 14.7184 21.8769 14.7004 21.9309 14.686C21.967 14.6752 22.2482 14.5886 22.2626 14.6103C22.2626 14.6139 22.1112 14.6283 22.1941 14.6175C22.2193 14.6139 22.2446 14.6103 22.2698 14.6103C22.3203 14.6067 22.3707 14.603 22.4212 14.5994C22.5402 14.5958 22.6555 14.5994 22.7745 14.6103C22.7998 14.6139 22.825 14.6175 22.8502 14.6175C22.9512 14.6283 22.706 14.5922 22.807 14.6139C22.8538 14.6247 22.9043 14.6319 22.9512 14.6427C23.0629 14.6679 23.1711 14.7004 23.2756 14.7364C23.3117 14.7509 23.4234 14.8194 23.3441 14.7617C23.2612 14.704 23.3946 14.7869 23.4306 14.8049C23.528 14.8554 23.6253 14.9131 23.7154 14.9744C23.7335 14.9852 23.8272 15.0357 23.8308 15.0573C23.8308 15.0645 23.719 14.9599 23.7767 15.0176C23.7947 15.032 23.8128 15.0465 23.8308 15.0645C23.9137 15.1366 23.993 15.2123 24.0687 15.2952C24.1048 15.3349 24.1408 15.3817 24.1769 15.4214C24.231 15.4791 24.13 15.3673 24.1372 15.3673C24.1444 15.3673 24.1733 15.4178 24.1805 15.425C24.2418 15.5151 24.3031 15.6089 24.3571 15.7062C24.3788 15.7495 24.4004 15.7891 24.422 15.8324C24.4977 15.9802 24.3932 15.7386 24.4364 15.8576C24.4725 15.9549 24.5049 16.0559 24.5338 16.1568C24.5482 16.2109 24.5626 16.2686 24.5734 16.3227C24.577 16.3479 24.5806 16.3695 24.5879 16.3948C24.6059 16.4741 24.5806 16.3263 24.5806 16.3263C24.5806 16.4416 24.6023 16.5606 24.6023 16.676C24.6059 17.0545 24.9303 17.415 25.3233 17.397C25.7126 17.3789 26.0479 17.0797 26.0443 16.676C26.0371 15.681 25.6081 14.6824 24.8402 14.0335C24.0147 13.3341 22.98 13.0565 21.9129 13.2223C19.858 13.5396 18.535 15.7855 19.1803 17.743C19.4975 18.7092 20.2113 19.5095 21.1486 19.9061C21.6281 20.108 22.1076 20.1765 22.6267 20.1945C22.6772 20.1945 22.7277 20.1981 22.7781 20.2053C22.7889 20.2053 22.8646 20.2053 22.8755 20.2161C22.8791 20.2197 22.724 20.1909 22.807 20.2089C22.9187 20.2341 23.0305 20.2522 23.1386 20.2882C23.1855 20.3026 23.2324 20.3171 23.2756 20.3351C23.3117 20.3495 23.427 20.4144 23.3441 20.3603C23.254 20.299 23.4018 20.3892 23.4306 20.4036C23.4811 20.4288 23.528 20.454 23.5748 20.4829C23.6109 20.5045 23.8272 20.6091 23.8308 20.6523C23.8308 20.6595 23.719 20.555 23.7767 20.6127C23.7911 20.6307 23.8128 20.6415 23.8308 20.6595C23.8777 20.6992 23.9245 20.7424 23.9678 20.7857C24.0399 20.8578 24.1012 20.9407 24.1733 21.0128C24.231 21.0705 24.1264 20.9588 24.1336 20.9588C24.1408 20.9588 24.1697 21.0092 24.1769 21.0164C24.2129 21.0669 24.249 21.121 24.2814 21.1751C24.3319 21.258 24.3752 21.3409 24.4184 21.4238C24.4977 21.5824 24.3896 21.3301 24.4328 21.449C24.4509 21.5031 24.4725 21.5536 24.4905 21.6077C24.523 21.7086 24.5482 21.8095 24.5698 21.9141C24.5734 21.9393 24.577 21.961 24.5842 21.9862C24.6023 22.0691 24.5734 21.9105 24.577 21.9177C24.6023 21.9537 24.5915 22.0691 24.5951 22.116C24.6023 22.2241 24.5987 22.3359 24.5951 22.444C24.5915 22.4945 24.5879 22.545 24.5806 22.5918C24.5734 22.6748 24.5879 22.5233 24.5879 22.5233C24.577 22.5486 24.577 22.5918 24.5698 22.6207C24.5482 22.7252 24.523 22.8262 24.4905 22.9271C24.4725 22.9812 24.4545 23.0317 24.4328 23.0857C24.422 23.1182 24.3824 23.1578 24.4328 23.0893C24.4905 23.0064 24.4328 23.0857 24.422 23.111C24.3752 23.2011 24.3283 23.2948 24.2742 23.3813C24.249 23.421 24.2237 23.4607 24.1949 23.5003C24.1805 23.5183 24.1661 23.5364 24.1552 23.558C24.1084 23.6301 24.2526 23.4462 24.1661 23.5436C24.1048 23.6157 24.0435 23.6842 23.975 23.7527C23.9353 23.7923 23.8957 23.8284 23.8524 23.8644C23.8344 23.8788 23.8164 23.8933 23.7983 23.9113C23.7154 23.9834 23.8308 23.9005 23.8344 23.8861C23.8272 23.9293 23.6217 24.0303 23.5784 24.0555C23.5316 24.0843 23.4811 24.1096 23.4342 24.1348C23.4126 24.1456 23.391 24.1564 23.3693 24.1672C23.3441 24.1817 23.2684 24.2357 23.3477 24.1817C23.4234 24.124 23.3153 24.1925 23.2792 24.2069C23.2251 24.2249 23.1711 24.2429 23.117 24.2574C23.0809 24.2682 22.7997 24.3547 22.7853 24.3331C22.7853 24.3295 22.9367 24.315 22.8538 24.3259C22.8286 24.3295 22.8034 24.3331 22.7781 24.3331C22.7277 24.3367 22.6772 24.3403 22.6267 24.3439C22.5077 24.3475 22.3924 24.3439 22.2734 24.3331C22.2482 24.3295 22.2229 24.3259 22.1977 24.3259C22.0968 24.315 22.3419 24.3511 22.241 24.3295C22.1941 24.3187 22.1436 24.3114 22.0968 24.3006C21.985 24.2754 21.8769 24.2429 21.7723 24.2069C21.7363 24.1925 21.6245 24.124 21.7038 24.1817C21.7867 24.2393 21.6533 24.1564 21.6173 24.1384C21.52 24.0879 21.4226 24.0303 21.3325 23.969C21.3145 23.9582 21.2207 23.9077 21.2171 23.8861C21.2171 23.8788 21.3289 23.9834 21.2712 23.9257C21.2532 23.9113 21.2352 23.8969 21.2171 23.8788C21.1342 23.8067 21.0549 23.731 20.9792 23.6481C20.9432 23.6085 20.9071 23.5616 20.871 23.5219C20.817 23.4643 20.9179 23.576 20.9107 23.576C20.9035 23.576 20.8747 23.5255 20.8674 23.5183C20.8062 23.4282 20.7449 23.3345 20.6908 23.2371C20.6692 23.1939 20.6475 23.1542 20.6259 23.111C20.5502 22.9632 20.6547 23.2047 20.6115 23.0857C20.5754 22.9884 20.543 22.8875 20.5141 22.7865C20.4997 22.7324 20.4853 22.6748 20.4745 22.6207C20.4709 22.5954 20.4673 22.5738 20.4601 22.5486C20.442 22.4693 20.4673 22.6171 20.4673 22.6171C20.4673 22.5017 20.4457 22.3827 20.4457 22.2674C20.442 21.8889 20.1176 21.5283 19.7246 21.5464C19.3317 21.5608 18.9964 21.86 19 22.2638Z" fill="#EE4FAF"/>
<path d="M23.442 26.9179C23.442 26.2978 23.442 25.6777 23.442 25.0577C23.442 24.6791 23.1104 24.3186 22.721 24.3366C22.3317 24.3547 22 24.6539 22 25.0577C22 25.6777 22 26.2978 22 26.9179C22 27.2964 22.3317 27.6569 22.721 27.6389C23.1104 27.6209 23.442 27.3216 23.442 26.9179Z" fill="#EE4FAF"/>
<path d="M23.442 13.8892C23.442 13.2692 23.442 12.6491 23.442 12.029C23.442 11.6505 23.1104 11.29 22.721 11.308C22.3317 11.326 22 11.6253 22 12.029C22 12.6491 22 13.2692 22 13.8892C22 14.2678 22.3317 14.6283 22.721 14.6102C23.1104 14.5922 23.442 14.293 23.442 13.8892Z" fill="#EE4FAF"/>
</svg>
