<svg width="45" height="45" viewBox="0 0 45 45" fill="none" xmlns="http://www.w3.org/2000/svg">
<path fill-rule="evenodd" clip-rule="evenodd" d="M7.80761 29.3361C10.1441 29.3361 41 22.232 41 15.7959C41 14.5215 40.1331 13.884 38.7087 13.5424L32.7663 16.2892L32.8584 14.9871L36.7081 13.2396C36.159 13.2002 35.5901 13.185 35.0221 13.185C32.8951 13.185 29.3015 14.2678 25.3269 15.8541L12.5795 12.473C11.3882 12.1571 10.1199 12.3517 9.07667 13.0108L8.44985 13.4068C7.83796 13.7933 7.83149 14.6878 8.4377 15.0834L16.1004 20.0823C14.2699 21.0235 12.5332 21.9796 11.0022 22.8927L7.07015 20.7995C6.42791 20.4576 5.66862 20.4171 4.99398 20.6888L4.62174 20.8386C4.06674 21.0621 3.83422 21.7258 4.1275 22.2497L6.29345 26.1196L6.29436 26.1191C5.47715 26.826 5.01145 27.4124 5.01145 27.8182C5.01145 29.0325 6.49768 29.3361 7.80761 29.3361ZM30.247 32.3375L25.4922 26.906C25.2605 26.6415 25.3685 26.2255 25.699 26.1083L32.4889 23.7032C32.7879 23.5973 33.1075 23.7978 33.1444 24.1144L33.7397 29.2323C33.8884 30.5112 33.2044 31.7419 32.0432 32.2847L31.4064 32.5823C31.0087 32.7682 30.5368 32.6685 30.247 32.3375Z" fill="#36BC99"/>
<mask id="mask0" mask-type="alpha" maskUnits="userSpaceOnUse" x="4" y="12" width="37" height="21">
<path fill-rule="evenodd" clip-rule="evenodd" d="M7.80761 29.3361C10.1441 29.3361 41 22.232 41 15.7959C41 14.5215 40.1331 13.884 38.7087 13.5424L32.7663 16.2892L32.8584 14.9871L36.7081 13.2396C36.159 13.2002 35.5901 13.185 35.0221 13.185C32.8951 13.185 29.3015 14.2678 25.3269 15.8541L12.5795 12.473C11.3882 12.1571 10.1199 12.3517 9.07667 13.0108L8.44985 13.4068C7.83796 13.7933 7.83149 14.6878 8.4377 15.0834L16.1004 20.0823C14.2699 21.0235 12.5332 21.9796 11.0022 22.8927L7.07015 20.7995C6.42791 20.4576 5.66862 20.4171 4.99398 20.6888L4.62174 20.8386C4.06674 21.0621 3.83422 21.7258 4.1275 22.2497L6.29345 26.1196L6.29436 26.1191C5.47715 26.826 5.01145 27.4124 5.01145 27.8182C5.01145 29.0325 6.49768 29.3361 7.80761 29.3361ZM30.247 32.3375L25.4922 26.906C25.2605 26.6415 25.3685 26.2255 25.699 26.1083L32.4889 23.7032C32.7879 23.5973 33.1075 23.7978 33.1444 24.1144L33.7397 29.2323C33.8884 30.5112 33.2044 31.7419 32.0432 32.2847L31.4064 32.5823C31.0087 32.7682 30.5368 32.6685 30.247 32.3375Z" fill="white"/>
</mask>
<g mask="url(#mask0)">
</g>
</svg>
