<svg width="50" height="50" viewBox="0 0 50 50" fill="none" xmlns="http://www.w3.org/2000/svg">
<circle opacity="0.65" cx="24.583" cy="25.0078" r="22.9375" fill="black" stroke="white"/>
<path d="M34.4358 24.0124L34.437 24.0131C34.9532 24.308 35.2088 24.8218 35.2088 25.3151C35.2088 25.8071 34.9558 26.2714 34.4539 26.4865L34.4445 26.4905L34.4358 26.4956L20.758 34.4743C20.7578 34.4744 20.7576 34.4746 20.7574 34.4747C19.7217 35.0659 18.3994 34.3211 18.3994 33.152V17.356C18.3994 16.1869 19.7217 15.4421 20.7574 16.0333C20.7576 16.0334 20.7578 16.0335 20.758 16.0337L34.4358 24.0124Z" fill="white" stroke="white" stroke-width="0.330033"/>
<path d="M24.9126 0.748024C38.337 0.748024 49.3373 11.7469 49.3373 25.3355C49.3373 38.7605 38.3377 49.7601 24.9126 49.7601C11.3241 49.7601 0.325173 38.7598 0.325173 25.3355C0.325173 11.7476 11.3248 0.748024 24.9126 0.748024ZM24.9126 3.6749C12.9338 3.6749 3.25205 13.3566 3.25205 25.3355C3.25205 37.1523 12.9346 46.8332 24.9126 46.8332C36.7286 46.8332 46.4104 37.1515 46.4104 25.3355C46.4104 13.3575 36.7295 3.6749 24.9126 3.6749Z" fill="white" stroke="white" stroke-width="0.330033"/>
</svg>
