<svg width="45" height="45" viewBox="0 0 45 45" fill="none" xmlns="http://www.w3.org/2000/svg">
<path d="M36.0125 28.8375C35.8919 28.3405 35.6634 27.8762 35.3431 27.4775C35.0229 27.0789 34.6187 26.7556 34.1594 26.5308C33.6078 26.2066 32.7659 25.6639 31.9518 25.1402C31.18 24.645 30.4556 24.1771 29.9925 23.904C28.5413 23.0496 25.8511 24.3695 24.8672 24.9092C24.2384 24.7697 22.3141 23.435 20.9384 22.0592C19.5627 20.6835 18.2303 18.7598 18.0884 18.1304C18.6293 17.1471 19.9474 14.4563 19.0936 13.0057C18.8199 12.5391 18.3484 11.807 17.8467 11.0327C17.3254 10.2234 16.7863 9.38624 16.4633 8.83583C16.2385 8.37807 15.9159 7.97526 15.5184 7.65587C15.1208 7.33649 14.6579 7.10832 14.1625 6.98749C13.7159 6.93088 13.2622 6.97528 12.835 7.1174C12.4078 7.25953 12.018 7.49575 11.6943 7.80865C10.4195 8.88274 7.43412 11.3967 8.02847 14.1024C8.68634 17.102 12.1176 23.1375 15.9883 27.0117C19.8589 30.8859 25.8986 34.3148 28.897 34.9715C29.1322 35.0233 29.3723 35.0493 29.6131 35.0493C32.0403 35.0493 34.214 32.4677 35.1943 31.3087C35.5076 30.9847 35.7438 30.5943 35.8855 30.1665C36.0271 29.7387 36.0706 29.2844 36.0125 28.8375ZM33.8293 30.1592C33.1132 31.0082 30.9395 33.5922 29.2782 33.2324C26.8444 32.6969 21.0898 29.5939 17.25 25.75C13.4102 21.9061 10.3031 16.1562 9.76875 13.7212C9.40537 12.0646 11.9923 9.88618 12.8426 9.17012C13.0873 8.92505 13.4085 8.77106 13.7528 8.73371C13.7896 8.73375 13.8263 8.73653 13.8627 8.74202C14.0982 8.82989 14.3139 8.96362 14.4973 9.13545C14.6808 9.30729 14.8283 9.51382 14.9314 9.74308C15.2728 10.3232 15.822 11.1752 16.3528 11.9993C16.8415 12.7581 17.3028 13.4754 17.5587 13.9112C17.7404 14.2188 17.4038 15.7269 16.4645 17.3888C15.4931 19.1071 19.5057 23.1482 19.6772 23.321C19.8488 23.4937 23.8929 27.5039 25.6094 26.5337C27.2719 25.5938 28.78 25.2572 29.0876 25.4395C29.5204 25.6936 30.2323 26.152 30.9876 26.6376C31.8188 27.172 32.6738 27.7236 33.2563 28.0662C33.4855 28.1693 33.6919 28.3169 33.8636 28.5004C34.0353 28.6838 34.169 28.8995 34.2568 29.135C34.2623 29.3262 34.2271 29.5164 34.1535 29.693C34.0799 29.8696 33.969 30.0285 33.8293 30.1592Z" fill="#801E5A"/>
<path d="M24.6074 7.64794C24.4403 7.81497 24.3465 8.0415 24.3465 8.27771C24.3465 8.39467 24.3695 8.51048 24.4143 8.61854C24.459 8.72659 24.5247 8.82477 24.6074 8.90748C24.6901 8.99018 24.7882 9.05578 24.8963 9.10054C25.0044 9.1453 25.1202 9.16833 25.2371 9.16833C27.3734 9.17085 29.4214 10.0206 30.9318 11.5312C32.4423 13.0418 33.292 15.0899 33.2943 17.2261C33.2943 17.4623 33.3881 17.6889 33.5552 17.8559C33.7222 18.0229 33.9487 18.1167 34.1849 18.1167C34.4211 18.1167 34.6477 18.0229 34.8147 17.8559C34.9817 17.6889 35.0756 17.4623 35.0756 17.2261C35.0727 14.6176 34.0353 12.1168 32.1909 10.2722C30.3464 8.42766 27.8456 7.39007 25.2371 7.38708C25.0009 7.38708 24.7744 7.48092 24.6074 7.64794Z" fill="#EE4FAF"/>
<path d="M24.6074 12.3979C24.4403 12.565 24.3465 12.7915 24.3465 13.0277C24.3465 13.2639 24.4403 13.4905 24.6074 13.6575C24.7744 13.8245 25.0009 13.9183 25.2371 13.9183C26.114 13.9194 26.9547 14.2683 27.5747 14.8884C28.1946 15.5085 28.5434 16.3492 28.5443 17.2261C28.5443 17.4623 28.6381 17.6889 28.8052 17.8559C28.9722 18.0229 29.1987 18.1167 29.4349 18.1167C29.6711 18.1167 29.8977 18.0229 30.0647 17.8559C30.2317 17.6889 30.3256 17.4623 30.3256 17.2261C30.3241 15.877 29.7876 14.5835 28.8337 13.6294C27.8797 12.6753 26.5863 12.1387 25.2371 12.1371C25.0009 12.1371 24.7744 12.2309 24.6074 12.3979Z" fill="#EE4FAF"/>
</svg>
