<svg width="45" height="45" viewBox="0 0 45 45" fill="none" xmlns="http://www.w3.org/2000/svg">
<path fill-rule="evenodd" clip-rule="evenodd" d="M37.9907 13.8773V16.3896C37.9907 16.5332 37.8449 16.6768 37.6991 16.6768H7.30093C7.15513 16.6768 7.00934 16.5332 7.00934 16.3896V13.8773C7.00934 12.657 7.957 11.7239 9.19626 11.7239H35.8038C37.043 11.7239 37.9907 12.657 37.9907 13.8773ZM7.00934 31.1227V20.3555C7.00934 20.212 7.15513 20.0684 7.30093 20.0684H37.6991C37.8449 20.0684 37.9907 20.212 37.9907 20.3555V31.1227C37.9907 32.343 37.043 33.2761 35.8038 33.2761H9.19626C7.957 33.2761 7.00934 32.343 7.00934 31.1227ZM16.6318 23.801H11.8206C11.3103 23.801 10.9458 24.1599 10.8729 24.7342C10.8729 25.3084 11.2374 25.6673 11.8206 25.6673H16.6318C17.1421 25.6673 17.5794 25.3084 17.5794 24.7342C17.5794 24.1599 17.215 23.801 16.6318 23.801ZM11.8206 29.5435H22.9738C23.3383 29.5435 23.8486 29.2564 23.8486 28.6821C23.8486 28.1079 23.557 27.749 22.9738 27.749H11.8206C11.2374 27.749 10.8729 28.1079 10.8729 28.6821C10.9458 29.1846 11.3103 29.5435 11.8206 29.5435Z" fill="#2EB3E8"/>
</svg>
