<?xml version="1.0" encoding="UTF-8"?>
<svg version="1.1" viewBox="0 0 48 48" xmlns="http://www.w3.org/2000/svg" xmlns:xlink="http://www.w3.org/1999/xlink">
    <g id="Page-1" stroke="none" stroke-width="1" fill="none" fill-rule="evenodd">
        <g id="Sekcja-Video-Player-Mobile" transform="translate(-112.000000, -484.000000)">
            <g id="Video" transform="translate(-5.000000, 192.000000)">
                <g id="Video-2" transform="translate(21.000000, 260.000000)">
                    <g id="play-button-48px" transform="translate(96.000000, 32.000000)">
                        <circle id="Oval" stroke="#FFFFFF" stroke-width="2" fill-opacity="0.24" fill="#000000" cx="24"
                                cy="24" r="23"></circle>
                        <path
                            d="M34.6666667,24.3348165 C34.6666667,24.8497425 34.138,25.220007 34.138,25.220007 L19.2989333,34.3526246 C18.2173333,35.0569882 17.3333333,34.5351736 17.3333333,33.2004991 L17.3333333,15.4674116 C17.3333333,14.1292929 18.2173333,13.6109225 19.3006667,14.313564 L34.1397333,23.4496259 C34.138,23.4496259 34.6666667,23.8198905 34.6666667,24.3348165 Z"
                            id="Shape" fill="#FFFFFF" fill-rule="nonzero"></path>
                    </g>
                </g>
            </g>
        </g>
    </g>
</svg>
